CZ00011754;0000020102;Linde Gas a.s.;000502-0305466004;2700
CZ00030821;0033916215;CÍL, výrobní družstvo;000000-0000719701;0100
CZ00510386;0000022411;DIATECH - PRAHA, spol. s r. o.;000019-6008230297;0100
CZ00558851;0000020943;Uniprox spol. s r. o.;000000-0245017652;0300
CZ00564737;0000020157;FESTO, spol. s r. o.;CZ7779100000003053600206;
CZ01810111;0000023374;Marták Sped s.r.o.;000107-5097330227;0100
CZ02096013;0000022966;Ing. Petr Švec  - PENTA s.r.o.;000107-5556760227;0100
CZ03301061;0033916056;Advanced AIRSEA s.r.o.;CZ6203000000000266714537;
CZ03301061;0033916056;Advanced AIRSEA s.r.o.;000000-0284492384;0300
CZ13497791;0000020420;HERBIA spol.s r.o.;000000-2813049329;0800
CZ13497863;0000021974;Kvalita - družstvo služeb;000000-2400069006;2010
CZ14502992;0000020069;Českobudějovické pozemní stavby, sp;000107-6518280227;0100
CZ18626971;0000020103;MERCK spol s r.o.;000000-3137600019;7910
CZ24284734;0000022479;DEL a.s.;000000-4010037729;6800
CZ24850390;0000023303;BFTech s.r.o.;CZ9403000000000267821895;
CZ25174738;0000022972;AB velkoobchod s.r.o.;000000-1709692061;2700
CZ25186973;0000021103;Sahan CB  s. r. o.;000000-0215668411;0300
CZ25233319;0033916266;Hotel Victoria s.r.o.;000000-0279968253;0300
CZ25354523;0000020079;Řempo CB, a.s.;000107-4039470227;0100
CZ25422952;0000021446;Peter Cremer Central Europe s.r.o.;CZ4862000000000011751731;
CZ25487515;0000020801;TYMA  CZ, s.r.o.;000000-0190134367;0300
CZ25518771;0000021653;Smaris s.r.o.;000000-5624660237;0100
CZ25588044;0000020796;BMC BRNO, s.r.o.;CZ3306000000000155206599;
CZ25692089;0000020817;IMI International s.r.o.;000000-1000397049;3500
CZ25765647;0000022806;SPEED PRESS Plus a.s.;000000-0139430267;0100
CZ25820702;0000020902;MANUTAN-vybavení skladů,kancel.;000000-0050007323;6200
CZ26016451;0000020757;T-PROFI JČ, s.r.o.;000000-0156210231;0600
CZ26018012;0000021950;J+M PAVLÁT INTERNATIONAL S.R.O.;000000-0412794943;0300
CZ26018128;0000020805;GRAND HOTEL ZVON s.r.o.;000000-1032009274;5500
CZ26019744;0000022521;Šumavský pramen distribuce s.r.o.;000000-7000014316;8040
CZ26025230;0000020878;KSQ spol.s r.o.;000000-0153345077;0600
CZ26027691;0000021227;CRAVT  s.r.o.;000078-1290400217;0100
CZ26032953;0000021188;LENZE, s. r. o.;CZ2227000000002000219036;
CZ26055210;0000021476;PK  SERVIS tech.součásti s.r.o.;000000-0178687145;0600
CZ26065258;0000023390;Albatros Prachatice, s.r.o.;000000-7100007578;8040
CZ26069997;0000021160;Plojhar s.r.o.;CZ3255000000005002202434;
CZ26073013;0000021587;Daluku, s.r.o.;000000-9921000217;0100
CZ26073897;0000022764;INOMECH s.r.o.;000000-0189708001;0300
CZ26076306;0000021585;Kuboušek, s.r.o.;000000-4200040080;6800
CZ26076519;0000022080;MIF TRANS S.R.O.;000000-0573395329;0800
CZ26080338;0033916035;Marták Logistics s.r.o.;000035-1941980287;0100
CZ26092336;0000022458;RM Chemicals spol. s r. o.;000000-0194942126;0300
CZ26092336;0000022458;RM Chemicals spol. s r. o.;000000-6686350001;5500
CZ26098261;0000022693;AMPARA s.r.o.;000000-5002209898;5500
CZ26108313;0000021995;KVALITA náhradní plnění s.r.o.;000000-2500068975;2010
CZ26111047;0000022750;TOOLS CB s.r.o.;000000-0253952149;0300
CZ26148544;0000020975;KWESTO s. r. o.;000000-3638600287;0100
CZ26300176;0000023430;TROMA - MACH s.r.o.;000000-5380050247;0100
CZ26689537;0000021907;PolyOne ČR, s.r.o.;CZ4026000000002040480300;
CZ26704153;0000022279;ERNST & YOUNG;000000-1411703100;8150
CZ26816121;0000022825;CANIS safety, a.s.;000000-0185690908;0300
CZ26819201;0000020840;LEŇO stabil Czech s.r.o.;000086-5758770247;0100
CZ26955130;0000023331;GRAVITECH s.r.o.;CZ4627000000002109983222;
CZ27090833;0033915492;DACHSER Intelligent Logistics;000000-0525331005;2700
CZ27127010;0000021068;Schindler CZ, a.s.;000000-0900476493;0300
CZ27144674;0033916240;OMNIPACK s.r.o.;000035-4004530277;0100
CZ27420761;0000022583;UNIVAR Czech s.r.o.;000000-1000450604;3500
CZ27518922;0000022756;TECH-LIT s.r.o.;000000-1091996329;0800
CZ27518949;0000022627;TBA PLASTOVÉ OBALY S.R.O.;000000-0208899131;0600
CZ27563588;0000022009;JUMBO TRANSPORT;000051-1983740257;0100
CZ27612180;0000023441;Keller & Kalmbach;000000-0512769008;2700
CZ27756432;0000023408;C-FILTER FILTRY, s.r.o.;000000-0218240648;0300
CZ27782271;0000022079;HEDOKA S.R.O.;000000-2723672053;0800
CZ27890201;0000022482;Yuncheng Plate-Making CZ, s.r.o.;CZ1508000000001773552223;
CZ28063601;0000022226;Pavel Fišer Šuptrans s.r.o.;000000-5002005633;5500
CZ28090683;0000020302;T&T etikety s.r.o.;000000-3729087001;5500
CZ28104056;0033914692;BALTRO s.r.o.;000000-0229491725;0300
CZ28104056;0033914692;BALTRO s.r.o.;CZ6803000000000267821975;
CZ28106504;0000023183;Petr Novotný s.r.o.;000043-4888840237;0100
CZ28132408;0000023026;DELNET CZ s.r.o.;000000-4200264607;6800
CZ28140575;0033916276;BAUCITY, s.r.o.;000000-4200299535;6800
CZ28140923;0033914091;TOMAKO s.r.o.;000107-4578920207;0100
CZ28154738;0033916249;TERI INOX s.r.o.;000000-2500289188;2010
CZ28569130;0000021498;Azurr-technology spol. s r.o.;CZ6806000000000193469365;
CZ28763661;0000022644;TAPEX EU s.r.o.;CZ1808000000000005612612;
CZ28927125;0000022666;TECHNO-SERVICE CZ a.s.;000000-0534772339;0800
CZ29050821;0000022843;DVOØÁK a spol., advokátní kanceláø;000000-2136834329;0800
CZ29383161;0000023379;ExaSoft Holding a.s.;000043-9635090207;0100
CZ360717056;0000021500;GRAFLEX;000000-0511345211;0100
CZ40612848;0000020367;MASO - PROFIT, spol. s r.o.;000000-0001009031;0100
CZ41189671;0000022847;TOTAL  ČESKÁ REPUBLIKA s.r.o.;CZ5303001712800117386023;
CZ42324254;0000020119;OTIS a.s.;000000-0010804651;0100
CZ42868017;0000023121;AutoCont Control Systems, s. r. o.,;000000-1007246761;0100
CZ43871143;0000020099;JOHNSON CONTROLS INTERNATIONAL, spo;000000-2106869109;2700
CZ44004036;0000021987;INVOS, spol. s r.o.;000000-0002108082;0800
CZ44265077;0000021328;A.T.A. technik spol. s r.o.;000000-1099541011;0100
CZ45242143;0000021842;Nordmann Rassmann Czech Rep. s.r.o.;CZ0927000000001012146036;
CZ45359571;0000022077;Kartáčovna KOLOVEČ;000000-0213863627;0300
CZ45787115;0000021601;KÜHNE+NAGEL spol.s.r.o.;000000-1233664101;2700
CZ45794707;0000022887;ARAMARK s.r.o.;000000-0300865153;0300
CZ46678867;0000020470;JARg, s.r.o.;000000-0763344231;0100
CZ47116757;0000022449;Clarion Hotel Prague Old Town;000000-0003693842;0800
CZ47123591;0000020100;JUNGHEINRICH  (ČR) s.r.o.;000000-1137782001;2700
CZ47239042;0000020546;STEINBAUER LECHNER spol. s r.o.;000000-0045000231;0100
CZ47906839;0000021021;Datascan, s. r. o.;000000-8129750001;5500
CZ47914378;0000021610;A.HARTRODT;DE83200800000575850600;
CZ47917091;0000021690;FLAGA s.r.o.;000019-1902510207;0100
CZ48111198;0000022605;ACTIVA spol. s r. o.;000000-0500032893;0300
CZ48208248;0000020073;Okresní komora Hospodáøské komory È;000000-0012912613;0300
CZ48948764;0033916155;Trelleborg Sealing Solutions;000000-1000441206;3500
CZ49196545;0000020632;HSI Com s.r.o.;000000-0018006371;0100
CZ49279530;0000022309;HOSPODÁØSKÁ KOMORA ÈR;000000-0201578853;0600
CZ49613464;0000020176;BRENNTAG CR s.r.o.;000000-1001044253;5500
CZ49614932;0000020253;Atlas Copco  s.r.o.;000000-3142900024;7910
CZ510314372;0000020329;Tiskárna Josef Posekaný;000000-2500069871;2010
CZ510715233;0000020096;Ivan Nadberežný - INPRESS;000000-0252279538;0300
CZ5408223700;0000020129;Š + H  LOŽISKA  Šimek Karel;000000-0212105293;0300
CZ5804112237;0000022777;Václav Šálek;000107-7866520287;0100
CZ60069856;0000023348;Jatky Hradský s.r.o.;000000-0680031379;0800
CZ60192755;0000020347;ČEDOK  a. s.;000000-2108416269;2700
CZ60706091;0000022327;Vepak s.r.o.;CZ2801000000270619040217;
CZ60726415;0000020419;Böttcher ČR, k.s.;008010-0903072953;0300
CZ60837152;0000021251;CORAX spol.s r.o.;000000-1002182535;2700
CZ60851708;0000021565;SPH Elektro s.r.o.;000000-0003441944;0300
CZ61503657;0000020228;FIMEX, spol. s  r. o.;CZ1108000000000006145462;
CZ61683566;0000022399;Explast, spol. s r.o.;CZ2035000000001330473809;
CZ61947024;0000020241;Haberkorn Ulmer  s.r.o.;000000-0101910708;0300
CZ62502956;0000021315;K+V Interiér, s.r.o.;000000-2246083001;5500
CZ62909070;0000020230;SMC Industrial Automation  CZ s.r.o;000000-0046690000;2700
CZ6312141429;0000023130;Ivo Cháma;000000-0261706001;5500
CZ6360021954;0000020052;Ivana Týmalová TYKO;000000-0912121323;0300
CZ6502082191;0000020225;Pavlíček František;000000-0563587319;0800
CZ65141849;0033912770;PEGA-VEL, a.s.;000000-4200088420;6800
CZ6607151067;0000022772;Petr Macháček;000000-1370795028;3030
CZ6759010819;0000021541;Ing. Adéla Novotná;000000-0216592754;0300
CZ680502074;0033910999;Visko Teepak N.V.;BE61733054842517;
CZ6808190312;0000021168;EMK ELEKTRO;000000-0012129143;0300
CZ699000232;0000020254;HYDRO-FLEX-ZBA s.r.o.;000000-8258260287;0100
CZ699001996;0000020101;KPMG Èeská republika s.r.o.;000000-0002518612;0800
CZ699003336;0033916070;Z + M Partner, spol. s r. o.;000000-0003724952;0800
CZ699003373;0000022645;UNICREDIT LEASING CZ A.S.;000000-0000046009;2700
CZ70101191;0033916040;Česká společnost pro údržbu;000000-0081769339;0800
CZ7302051218;0000020918;Kolář Martin;000000-2400071130;2010
CZ7502241230;0000023342;Tomáš Záviš;000000-0412420503;0300
