CZ00023841;0033917689;Institut postgraduál.vzdělávání ve;000000-0019535101;0100
CZ00030821;0033916215;CÍL, výrobní družstvo;000000-0000719701;0100
CZ00177016;0000022041;Český metrologický institut;000000-0070338621;0100
CZ00268577;0000020550;Siemens, s.r.o.;CZ4927000000001013384394;
CZ00538264;0000020258;SIDAT, spol.s r.o.;000000-0216026373;0300
CZ00564737;0000020157;FESTO, spol. s r. o.;CZ7779100000003053600206;
CZ01810111;0000023374;Marták Sped s.r.o.;000107-5097330227;0100
CZ02412756;0033916124;SGM CB s.r.o.;000000-2109513837;2700
CZ02412756;0033916124;SGM CB s.r.o.;CZ9627000000002109513909;
CZ02517116;0000023449;Taktiq Communications s.r.o.;000107-6305860287;0100
CZ03301061;0033916056;Advanced AIRSEA s.r.o.;CZ6203000000000266714537;
CZ03301061;0033916056;Advanced AIRSEA s.r.o.;000000-0284492384;0300
CZ03438856;0033915838;INKOMO CZ s.r.o.;000000-0025204544;0600
CZ03573397;0033916245;EMK ELEKTRO s.r.o.;000000-0267799042;0300
CZ13497863;0000021974;Kvalita - družstvo služeb;000000-2111614071;2700
CZ14499037;0000020272;TERMS a.s.;000000-2502230104;2600
CZ14502992;0000020069;Českobudějovické pozemní stavby, sp;000107-6518280227;0100
CZ18626971;0000020103;MERCK spol s r.o.;000000-3137600019;7910
CZ18630774;0000020847;KODYS, spol.s r.o.;000000-5030010827;5500
CZ25152459;0000021948;Bemos CB s.r.o.;000000-6004070257;0100
CZ25159038;0033917685;POP Tábor - JC, s.r.o.;000000-0163618112;0300
CZ25174738;0000022972;AB velkoobchod s.r.o.;000000-1709692061;2700
CZ25186973;0000021103;Sahan CB  s. r. o.;000000-0215668411;0300
CZ25194798;0000020699;PPL JIŽNÍ ÈECHY, spol. s.r.o.;000000-0522821076;2700
CZ25196375;0033917221;Bohemia Stone Spedition s.r.o.;000000-1052002133;5500
CZ25231359;0000021144;VSK PROFI s.r.o.;000000-6267666001;5500
CZ25354523;0000020079;Řempo CB, a.s.;000107-4039470227;0100
CZ25357425;0000020631;FABORY-CZ,s.r.o.;000000-0017625963;0300
CZ25422952;0000021446;Peter Cremer Central Europe s.r.o.;CZ4862000000000011751731;
CZ25588044;0000020796;BMC BRNO, s.r.o.;CZ3306000000000155206599;
CZ25637151;0000021092;NZ SERVIS, spol. s r.o.;000019-8698300297;0100
CZ25637371;0000023191;Azelis Czech Republic s.r.o.;000000-0002829007;2700
CZ25683446;0000020886;DHL Expres Czech Republic s.r.o.;000000-0523206008;2700
CZ25765647;0000022806;SPEED PRESS Plus a.s.;000000-0270483276;0300
CZ25820702;0000020902;MANUTAN-vybavení skladů,kancel.;000000-0050007323;6200
CZ26007568;0000021984;Easytherm CZ s.r.o.;000000-2800166972;2010
CZ26018128;0000020805;GRAND HOTEL ZVON s.r.o.;000000-1032009274;5500
CZ26019396;0000020958;EM Grafika s.r.o.;000000-0162053535;0300
CZ26019744;0000022521;Šumavský pramen distribuce s.r.o.;000000-7000014316;8040
CZ26025230;0000020878;KSQ spol.s r.o.;000000-0153345077;0600
CZ26027691;0000021227;CRAVT  s.r.o.;000000-0412255683;0300
CZ26032953;0000021188;LENZE, s. r. o.;CZ2227000000002000219036;
CZ26036185;0033916388;Hoppichler Paletten;000000-0004015322;0800
CZ26065258;0000023390;Albatros Prachatice, s.r.o.;000000-7100007578;8040
CZ26069997;0000021160;Plojhar s.r.o.;CZ3255000000005002202434;
CZ26073013;0000021587;DALUKU - Tichelmann s.r.o.;000000-9921000217;0100
CZ26073897;0000022764;INOMECH s.r.o.;000000-0189708001;0300
CZ26076306;0000021585;Kuboušek, s.r.o.;000000-0257593710;0300
CZ26076306;0000021585;Kuboušek, s.r.o.;000000-2106288689;2700
CZ26080338;0033916035;Marták Logistics s.r.o.;000035-1941980287;0100
CZ26086816;0033916671;BLUE & BLUE s.r.o.;000000-2100387563;2010
CZ26092336;0000022458;RM Chemicals spol. s r. o.;000000-0194942126;0300
CZ26092336;0000022458;RM Chemicals spol. s r. o.;000000-6686350001;5500
CZ26098261;0000022693;AMPARA s.r.o.;000000-2106470704;2700
CZ26108313;0000021995;KVALITA náhradní plnění s.r.o.;000000-2500068975;2010
CZ26111047;0000022750;TOOLS CB s.r.o.;000000-0253952149;0300
CZ26114950;0000022656;EUROGASTRO CZ, s.r.o.;000000-2077239369;0800
CZ26148544;0000020975;KWESTO s. r. o.;000000-3638600287;0100
CZ26163284;0000022476;Diversey Česká republika s.r.o.;000000-2039890118;2600
CZ26186292;0033916108;COLOGNIA PRESS a.s.;000000-0006099662;0800
CZ26689537;0000021907;PolyOne ČR, s.r.o.;CZ4026000000002040480300;
CZ26816121;0000022825;CANIS safety, a.s.;000000-0185690908;0300
CZ26819201;0000020840;LEŇO stabil Czech s.r.o.;000086-5758770247;0100
CZ26955130;0000023331;GRAVITECH s.r.o.;CZ4627000000002109983222;
CZ27067793;0000022633;EVERFIT hydraulika s.r.o.;000027-6610140227;0100
CZ27112039;0000021387;Tesa tape s.r.o.;000000-2042460207;2600
CZ27127010;0000021068;Schindler CZ, a.s.;000000-0900476493;0300
CZ27184854;0000022819;HOTEL BERÁNEK a.s.;000000-0193660258;0300
CZ27195031;0000022593;Essentra Components s.r.o.;000000-2044090107;2600
CZ27202097;0033916144;FARAVELLI s.r.o.;SK4111000000002626138481;
CZ27237851;0000022665;SOLUTECH BOHEMIA s.r.o.;000000-0253158770;0300
CZ27358917;0000022845;FOXON s.r.o.;000000-0993001349;0800
CZ27392431;0033917572;RAMIRENT s.r.o.;000000-5040017715;5500
CZ27518922;0000022756;TECH-LIT s.r.o.;000000-1091996329;0800
CZ27518949;0000022627;TBA PLASTOVÉ OBALY S.R.O.;000000-0208899131;0600
CZ27633870;0000023171;Techni Trade s.r.o.;000000-8900074888;2600
CZ27756432;0000023408;C-FILTER FILTRY, s.r.o.;000000-0218240648;0300
CZ27766489;0000022066;PNEUMAX Automation s.r.o.;000000-0207022004;0300
CZ27890201;0000022482;Yuncheng Plate-Making CZ, s.r.o.;CZ1508000000001773552223;
CZ28073274;0000022266;Labelservis, s. r. o.;000000-5678498001;5500
CZ28075811;0000020130;PALIČKA JIŘÍ ochranné pomůcky;000000-0232481800;0300
CZ28090683;0000020302;T&T etikety s.r.o.;000000-3729087001;5500
CZ28103416;0000023109;HOP Tech s.r.o.;000000-2400504573;2010
CZ28104056;0033914692;BALTRO s.r.o.;000000-0229491725;0300
CZ28104056;0033914692;BALTRO s.r.o.;CZ6803000000000267821975;
CZ28106504;0000023183;Petr Novotný s.r.o.;000043-4888840237;0100
CZ28109945;0033915398;TAXI Budějovice;000000-4676204001;5500
CZ28132408;0000023026;DELNET CZ s.r.o.;000000-4200264607;6800
CZ28140923;0033914091;TOMAKO s.r.o.;000000-5002207673;5500
CZ28159888;0000023269;ProVisTech s.r.o.;000000-7235340001;5500
CZ28511298;0033917257;ČESKÁ LÉKÁRNA HOLDING, a.s.;000027-5824670237;0100
CZ28569130;0000021498;Azurr-technology spol. s r.o.;CZ6806000000000193469365;
CZ28763661;0000022644;TAPEX EU s.r.o.;CZ1808000000000005612612;
CZ28927125;0000022666;TECHNO-SERVICE CZ a.s.;000000-0534772339;0800
CZ28980158;0000023146;Go parking s.r.o.;000000-1002314585;2700
CZ29383161;0000023379;ExaSoft Holding a.s.;000043-9635090207;0100
CZ42324254;0000020119;OTIS a.s.;000000-0010804651;0100
CZ42340161;0000022236;PROFITECH FOOD s.r.o.;000000-0176738076;0300
CZ42767181;0000023201;REO AMOS, spol. s r.o.;000000-0001352462;0800
CZ42868017;0000023121;AutoCont Control Systems, s. r. o.,;000000-1007246761;0100
CZ43002056;0000021764;INTERFLON Czech, s.r.o.;000000-2600313624;2010
CZ43774750;0000022063;DONAUCHEM - URSETA s.r.o.;000000-5010018397;5500
CZ43871143;0000020099;JOHNSON CONTROLS INTERNATIONAL, spo;000000-2106869109;2700
CZ44004036;0000021987;INVOS, spol. s r.o.;000000-0002108082;0800
CZ44265077;0000021328;A.T.A. technik spol. s r.o.;000000-1099541011;0100
CZ44846029;0000020799;S&T CZ s.r.o.;000000-0117422733;0300
CZ44849036;0000020607;SICK spol. s r.o.;000000-3076100001;7910
CZ45022534;0033916028;MONDI BUPAK s.r.o.;CZ4727000000002108454484;
CZ45308187;0000022900;TOYOTA MATERIAL HANDLING CZ s.r.o.;000000-2053090109;2600
CZ45350001;0000021851;Barentz, spol. s r.o.;000000-0361045351;0100
CZ45794707;0000022887;ARAMARK s.r.o.;000000-0300865153;0300
CZ46346635;0000020355;BIBUS s. r. o.;000000-0003949203;0300
CZ46678344;0000020161;TECHMAT, a.s.;000000-0219586659;0300
CZ46901876;0000021239;TART, s. r. o.;000000-0000135415;0300
CZ470317120;0000020970;Technická guma (K&F);000000-0170134634;0300
CZ47123591;0000020100;JUNGHEINRICH  (ČR) s.r.o.;000000-1137782001;2700
CZ47239042;0000020546;STEINBAUER LECHNER spol. s r.o.;000000-0045000231;0100
CZ48111198;0000022605;ACTIVA spol. s r. o.;000000-0500032893;0300
CZ48117820;0000021372;RICOH Czech Republic s.r.o.;000000-0013149111;0100
CZ48208248;0000020073;Okresní komora Hospodáøské komory È;000000-0012912613;0300
CZ49023098;0000021773;RUMPOLD 01-VODŇANY s.r.o.;000000-0031067005;2700
CZ49243438;0000023306;V-S KOM, s.r.o.;CZ2808000000000003364942;
CZ49437330;0000020268;Reca spol. s r.o.;000000-0006210682;0800
CZ49546694;0033916811;THIMM Obaly, k.s.;CZ5908000000000000951412;
CZ49613464;0000020176;BRENNTAG CR s.r.o.;000000-1001044253;5500
CZ49613464;0000020176;BRENNTAG CR s.r.o.;CZ6155000000001001061619;
CZ49622676;0000020231;IFM electronic, spol. s r.o.;000000-1222389001;2700
CZ49706756;0000020227;NOVI, spol. s r.o.;000000-0001651331;0300
CZ49966065;0000020364;PROFIPRINT spol. s r.o.;000000-0372585273;0300
CZ510314372;0000020329;Tiskárna Josef Posekaný;000000-2500069871;2010
CZ510715233;0000020096;Ivan Nadberežný - INPRESS;000000-0252279538;0300
CZ5408223700;0000020129;Š + H  LOŽISKA  Šimek Karel;000000-0212105293;0300
CZ5705201997;0000020860;MUSÍLEK MILOSLAV kovoobrábění;000000-0112105958;0300
CZ5804112237;0000022777;Václav Šálek;000107-7866520287;0100
CZ5808031570;0000023188;Jiří Hemmel   J.H.Instal;000000-0168461070;0600
CZ60069856;0000023348;Jatky Hradský s.r.o.;000000-0680031379;0800
CZ60192755;0000020347;ČEDOK  a. s.;000000-2108416269;2700
CZ60193336;0000020113;Telephonica O2 Czech Republic, a.s.;000027-4908440207;0100
CZ60463031;0000020178;Mettler Toledo, s.r.o.;000000-5146387001;2700
CZ60706091;0000022327;Vepak s.r.o.;CZ2801000000270619040217;
CZ60726415;0000020419;Böttcher ČR, k.s.;008010-0903072953;0300
CZ60837152;0000021251;CORAX spol.s r.o.;000000-1002182535;2700
CZ60850353;0000020296;KOSTAX spol. s r.o.;000000-0003540176;0300
CZ60851708;0000021565;SPH Elektro s.r.o.;000000-0003441944;0300
CZ6103191765;0000020979;Šebesta Ivo;000000-0158999045;0300
CZ61171077;0000020466;COMFORT SDRUŽENÍ a.s.;000000-4813660207;0100
CZ6207101670;0000021700;Ing. Martin Masopust - SKV;000000-2102706951;2700
CZ62502956;0000021315;K+V Interiér, s.r.o.;000000-2246083001;5500
CZ62909070;0000020230;SMC Industrial Automation  CZ s.r.o;CZ6227000000000046690211;
CZ62910370;0000020335;NOVATO spol. s r.o.;000019-3950090277;0100
CZ63077639;0000020845;Wolters Kluwer ÈR, a.s.;000000-1333107011;2700
CZ63482576;0000022197;Cominfo a.s.;000000-4080006311;6800
CZ6360021954;0000020052;Ivana Týmalová TYKO;000000-0912121323;0300
CZ63908824;0033915262;COREX CZECH s.r.o.;000000-0017626413;0300
CZ63995522;0000021658;Takos, s.r.o.;000000-0211725511;0300
CZ64945201;0000023163;Media Representations, spol. s r.o.;000000-0478423563;0300
CZ64949681;0000021836;T-mobile Czech Republic, a.s.;000019-2235210247;0300
CZ6502082191;0000020225;Pavlíček František;000000-0563587319;0800
CZ65141849;0033912770;PEGA-VEL, a.s.;000000-4200088420;6800
CZ6759010819;0000021541;Ing. Adéla Novotná;000000-0216592754;0300
CZ699000232;0000020254;HYDRO-FLEX-ZBA s.r.o.;000000-8258260287;0100
CZ699001996;0000020101;KPMG Èeská republika s.r.o.;000000-0002518612;0800
CZ699003336;0033916070;Z + M Partner, spol. s r. o.;000115-1262780267;0100
CZ7302051218;0000020918;Kolář Martin;000000-2400071130;2010
CZ7704021721;0033915901;Jan Slabihoudek;000000-0156414226;0600
CZ7802231239;0000022163;KOHOUT LUKÁ;000000-0182588406;0600
