CZ00011754;0000020102;Linde Gas a.s.;000502-0305466004;2700
CZ00030821;0033916215;CÍL, výrobní družstvo;000000-0000719701;0100
CZ00268577;0000020550;Siemens, s.r.o.;CZ4927000000001013384394;
CZ00564737;0000020157;FESTO, spol. s r. o.;CZ7779100000003053600206;
CZ02698544;0033916393;Hohenberg s.r.o.;000000-2110015245;2700
CZ03301061;0033916056;Advanced AIRSEA s.r.o.;000000-0284492384;0300
CZ03438856;0033915838;INKOMO CZ s.r.o.;000000-0025204544;0600
CZ03573397;0033916245;EMK ELEKTRO s.r.o.;000000-0267799042;0300
CZ13497791;0000020420;HERBIA spol.s r.o.;000000-2813049329;0800
CZ13497863;0000021974;Kvalita - družstvo služeb;000000-2111614071;2700
CZ14498138;0000021941;XANADU a.s.;000000-1044153003;2700
CZ14502992;0000020069;Českobudějovické pozemní stavby, sp;000107-6518280227;0100
CZ14869446;0000020184;HENNLICH s.r.o.;000000-6717778001;2700
CZ18626971;0000020103;MERCK spol s r.o.;000000-3137600019;7910
CZ24791814;0033915710;CORDSTRAP, s.r.o.;000000-0000244312;5400
CZ25174657;0000022413;C.plusC. s.r.o.;000000-3466570287;0100
CZ25174738;0000022972;AB velkoobchod s.r.o.;000000-1709692061;2700
CZ25181700;0000022304;A v í z o  s.r.o.;000107-5644500257;0100
CZ25186973;0000021103;Sahan CB  s. r. o.;000000-0215668411;0300
CZ25354523;0000020079;Řempo CB, a.s.;000107-4039470227;0100
CZ25357425;0000020631;FABORY-CZ,s.r.o.;000000-0017625963;0300
CZ25422952;0000021446;Peter Cremer Central Europe s.r.o.;CZ4862000000000011751731;
CZ25579703;0033915725;SEZAKO Prostějov s.r.o.;000000-0150649016;0600
CZ25588044;0000020796;BMC BRNO, s.r.o.;000000-0154746470;0600
CZ25765647;0000022806;SPEED PRESS Plus a.s.;000000-0270483276;0300
CZ25820702;0000020902;MANUTAN-vybavení skladů,kancel.;000000-0050007323;6200
CZ25947958;0000021765;KTR CR, spol. s r.o.;000000-0208048863;0300
CZ26007568;0000021984;Easytherm CZ s.r.o.;000000-2800166972;2010
CZ26016451;0000020757;T-PROFI JČ, s.r.o.;000000-0156210231;0600
CZ26018128;0000020805;GRAND HOTEL ZVON s.r.o.;000000-1032009274;5500
CZ26025230;0000020878;KSQ spol.s r.o.;000000-0153345077;0600
CZ26026589;0000023195;ATS INVEST s.r.o.;000000-2106016413;2700
CZ26027691;0000021227;CRAVT  s.r.o.;000078-1290400217;0100
CZ26036185;0033916388;Hoppichler Paletten;000000-0004015322;0800
CZ26039389;0000023401;Váhy CB s.r.o.;000000-0157422893;0600
CZ26055210;0000021476;PK  SERVIS tech.součásti s.r.o.;000000-0178687145;0600
CZ26065258;0000023390;Albatros Prachatice, s.r.o.;000000-7100007578;8040
CZ26069997;0000021160;Plojhar s.r.o.;CZ3255000000005002202434;
CZ26073013;0000021587;DALUKU - Tichelmann s.r.o.;000000-9921000217;0100
CZ26073897;0000022764;INOMECH s.r.o.;000000-0189708001;0300
CZ26076306;0000021585;Kuboušek, s.r.o.;000000-4200040080;6800
CZ26091747;0000021982;PRECITOOL CZ s.r.o.;000000-4200400410;6800
CZ26092336;0000022458;RM Chemicals spol. s r. o.;000000-0194942126;0300
CZ26092336;0000022458;RM Chemicals spol. s r. o.;000000-6686350001;5500
CZ26098261;0000022693;AMPARA s.r.o.;000000-5002209898;5500
CZ26102692;0000021645;Apenex;000000-0254861468;0300
CZ26108313;0000021995;KVALITA náhradní plnění s.r.o.;000000-2500068975;2010
CZ26111047;0000022750;TOOLS CB s.r.o.;000000-0253952149;0300
CZ26148544;0000020975;KWESTO s. r. o.;000000-3638600287;0100
CZ26228181;0033915916;SENZA družstvo, chráněná dílna;000086-3215900237;0100
CZ26311208;0033914578;PREOL a.s.;CZ1001000000359752990247;
CZ26421470;0000022684;Chára Sport a.s.;000000-0081412399;0800
CZ26470438;0000021912;MEGADYNE CZ s.r.o.;000000-0119504433;0300
CZ26689537;0000021907;PolyOne ČR, s.r.o.;CZ4026000000002040480300;
CZ26697904;0033916952;BARIA s.r.o.;000000-0084029379;0800
CZ26819201;0000020840;LEŇO stabil Czech s.r.o.;000086-5758770247;0100
CZ27088367;0033916904;PKIT Praha, s. r. o.;000035-0075810227;0100
CZ27127010;0000021068;Schindler CZ, a.s.;000000-0900476493;0300
CZ27184854;0000022819;HOTEL BERÁNEK a.s.;000000-0193660258;0300
CZ27202097;0033916144;FARAVELLI s.r.o.;SK4111000000002626138481;
CZ27249379;0000022061;VELOX CMS s.r.o.;CZ9303000000000261656884;
CZ27420761;0000022583;UNIVAR Czech s.r.o.;000000-1000450604;3500
CZ27420761;0000022583;UNIVAR Czech s.r.o.;CZ4835000000001330450607;
CZ27518922;0000022756;TECH-LIT s.r.o.;000000-1091996329;0800
CZ27518949;0000022627;TBA PLASTOVÉ OBALY S.R.O.;000000-0208899131;0600
CZ27618251;0000022816;ELESA+GANTER CZ s.r.o.;000000-1151100900;5500
CZ27703495;0033916690;Daniela Valentová spol. s.r.o.;000035-9614770297;0100
CZ27766489;0000022066;PNEUMAX Automation s.r.o.;000000-0207022004;0300
CZ27890201;0000022482;Yuncheng Plate-Making CZ, s.r.o.;CZ1508000000001773552223;
CZ28061373;0033916886;Ferenčík s.r.o.;000000-4200260892;6800
CZ28063601;0000022226;Pavel Fišer Šuptrans s.r.o.;000000-5002005633;5500
CZ28073274;0000022266;Labelservis, s. r. o.;000000-5678498001;5500
CZ28090683;0000020302;T&T etikety s.r.o.;000000-3729087001;5500
CZ28104056;0033914692;BALTRO s.r.o.;000000-0229491725;0300
CZ28104056;0033914692;BALTRO s.r.o.;CZ6803000000000267821975;
CZ28106504;0000023183;Petr Novotný s.r.o.;000043-4888840237;0100
CZ28109945;0033915398;TAXI Budějovice;000000-4676204001;5500
CZ28132408;0000023026;DELNET CZ s.r.o.;000000-4200264607;6800
CZ28140923;0033914091;TOMAKO s.r.o.;000000-5002207673;5500
CZ28159888;0000023269;ProVisTech s.r.o.;000000-7235340001;5500
CZ28180062;0000020581;Spraying Systems Czech,s.r.o.;000000-6002347777;6300
CZ28372158;0000023081;EMPORO, s.r.o.;000000-0264528845;0300
CZ28569130;0000021498;Azurr-technology spol. s r.o.;CZ6806000000000193469365;
CZ28763661;0000022644;TAPEX EU s.r.o.;CZ1808000000000005612612;
CZ28831381;0033916762;ALGORIT CZECH, s.r.o.;000000-7492689001;5500
CZ28927125;0000022666;TECHNO-SERVICE CZ a.s.;000000-0534772339;0800
CZ29383161;0000023379;ExaSoft Holding a.s.;000043-9635090207;0100
CZ40612848;0000020367;MASO - PROFIT, spol. s r.o.;000000-0001009031;0100
CZ42324254;0000020119;OTIS a.s.;000000-0010804651;0100
CZ43774750;0000022063;DONAUCHEM - URSETA s.r.o.;000000-5010018397;5500
CZ43871143;0000020099;JOHNSON CONTROLS INTERNATIONAL, spo;000000-2106869109;2700
CZ44004036;0000021987;INVOS, spol. s r.o.;000000-0002108082;0800
CZ44265077;0000021328;A.T.A. technik spol. s r.o.;000000-1099541011;0100
CZ44849036;0000020607;SICK spol. s r.o.;000000-3076100001;7910
CZ44962878;0000021077;SK Label, spol. s r. o.;000000-0069971024;2700
CZ45022534;0033916028;MONDI BUPAK s.r.o.;CZ4727000000002108454484;
CZ45308187;0000022900;TOYOTA MATERIAL HANDLING CZ s.r.o.;000000-2053090109;2600
CZ45791813;0000020376;Murtfeldt Plasty s.r.o.;000000-2504300102;2600
CZ45794707;0000022887;ARAMARK s.r.o.;000000-0300865153;0300
CZ46901876;0000021239;TART, s. r. o.;000000-0000135415;0300
CZ47123591;0000020100;JUNGHEINRICH  (ČR) s.r.o.;000000-1137782001;2700
CZ47239042;0000020546;STEINBAUER LECHNER spol. s r.o.;000000-0045000231;0100
CZ47667010;0000021847;LORIKA   CZ s.r.o.;000027-4182250227;0100
CZ47670631;0033916864;První hanácká BOW, spol. s r. o.;000000-4767063101;5500
CZ47676795;0033915472;AutoCont CZ a.s.;000000-0006563752;0800
CZ48034096;0000022332;PE Systems s. r. o.;000000-0130752227;0300
CZ48111198;0000022605;ACTIVA spol. s r. o.;000000-0500032893;0300
CZ48363529;0033916237;Schwer Fittings, s.r.o.;008010-0804039963;0300
CZ485708048;0033916944;Ing. Alena Helmichová;000000-0012603343;0300
CZ49452266;0000021060;INTERNOVA CZ GmbH spol. s r.o.;000000-0043107721;0100
CZ49546694;0033916811;THIMM Obaly, k.s.;CZ5908000000000000951412;
CZ49613464;0000020176;BRENNTAG CR s.r.o.;000000-1001044253;5500
CZ49613464;0000020176;BRENNTAG CR s.r.o.;CZ6155000000001001061619;
CZ49975366;0000021820;Gumex s.r.o.;000000-0673670113;0300
CZ510715233;0000020096;Ivan Nadberežný - INPRESS;000000-0252279538;0300
CZ520527217;0000021112;Bohumil Doležal;000000-0199448231;0100
CZ5408223700;0000020129;Š + H  LOŽISKA  Šimek Karel;000000-0212105293;0300
CZ5510201554;0000020652;ING.JAN ŠPIDLEN montáž el.instalací;000000-0553240231;5500
CZ5705201997;0000020860;MUSÍLEK MILOSLAV kovoobrábění;000000-0112105958;0300
CZ5808031570;0000023188;Jiří Hemmel   J.H.Instal;000000-0168461070;0600
CZ5904230442;0000020761;KOCAR RUDOLF ing.;000000-0012131833;0300
CZ6002120630;0000023424;Stanislav Mašek;000000-6127510267;0100
CZ60069856;0000023348;Jatky Hradský s.r.o.;000000-0680031379;0800
CZ60111461;0000022130;Quittner& Schimek;000000-0161052709;0300
CZ60192755;0000020347;ČEDOK  a. s.;000000-2108416269;2700
CZ60837152;0000021251;CORAX spol.s r.o.;000000-1002182535;2700
CZ6103191765;0000020979;Šebesta Ivo;000000-0158999045;0300
CZ61498882;0000021892;PORTA s.r.o.;000000-5091104640;5500
CZ61503657;0000020228;FIMEX, spol. s  r. o.;CZ1108000000000006145462;
CZ61683566;0000022399;Explast, spol. s r.o.;CZ2035000000001330473809;
CZ6211150220;0000021882;SETES - Vlastimil Kaňa;000000-1446146359;0800
CZ62502956;0000021315;K+V Interiér, s.r.o.;000000-2246083001;5500
CZ62580922;0000020572;KOLBER  servis, s.r.o.;CZ5901000000357005390257;
CZ62909070;0000020230;SMC Industrial Automation  CZ s.r.o;000000-0046690000;2700
CZ62910370;0000020335;NOVATO spol. s r.o.;000019-3950090277;0100
CZ63278821;0000021554;Subter Plus s.r.o.;000000-5008168003;2600
CZ63908824;0033915262;COREX CZECH s.r.o.;000000-0017626413;0300
CZ63987121;0000021687;TÜV SÜD Czech s.r.o.;000000-1168829001;2700
CZ6410120541;0000020239;SARTALEX spol. S r.o.;000000-3786950297;0100
CZ6412090894;0000020177;JOSEF BOBR;000000-0260448231;0100
CZ6502082191;0000020225;Pavlíček František;000000-0563587319;0800
CZ6759010819;0000021541;Ing. Adéla Novotná;000000-0216592754;0300
CZ699000232;0000020254;HYDRO-FLEX-ZBA s.r.o.;000000-8258260287;0100
CZ7302051218;0000020918;Kolář Martin;000000-2400071130;2010
CZ7507261685;0033916943;Daniel Benák;000107-4918850277;0100
