CZ00011754;0000020102;Linde Gas a.s.;000502-0305466004;2700
CZ00511129;0000020267;STÁTNÍ VETERINÁRNÍ ÚSTAV;000000-0036737231;0100
CZ00564737;0000020157;FESTO, spol. s r. o.;CZ7779100000003053600206;
CZ01810111;0000023374;Marták Sped s.r.o.;000107-5097330227;0100
CZ13497863;0000021974;Kvalita - družstvo služeb;000000-2400069006;2010
CZ14500108;0000020139;RAMM spol. s r.o.;000000-0381645231;0100
CZ14502992;0000020069;Českobudějovické pozemní stavby, sp;000000-5002006193;5500
CZ15890554;0000020869;Shell Czech Republic a.s.;GB25CITI18500811047094;
CZ18626971;0000020103;MERCK spol s r.o.;000000-3137600019;7910
CZ25169068;0000022142;CSS spedition s.r.o.;000000-0001824722;0800
CZ25174738;0000022972;AB velkoobchod s.r.o.;000000-1709692061;2700
CZ25177656;0000020511;DELNET s.r.o.;000000-4200188579;6800
CZ25177656;0000020511;DELNET s.r.o.;000000-4200264607;6800
CZ25186973;0000021103;Sahan CB  s. r. o.;000000-0215668411;0300
CZ25194798;0000020699;PPL JIŽNÍ ČECHY, spol. s.r.o.;000000-0157533980;0300
CZ25194798;0000020699;PPL JIŽNÍ ČECHY, spol. s.r.o.;000000-0522821076;2700
CZ25357425;0000020631;FABORY-CZ,s.r.o. (pan Lang);000000-0017625963;0300
CZ25422952;0000021446;Peter Cremer Central Europe s.r.o.;CZ1062000062180011751731;
CZ25588044;0000020796;BMC BRNO, s.r.o.;CZ3306000000000155206599;
CZ25637151;0000021092;NZ SERVIS, spol. s r.o.;000019-8698300297;0100
CZ25765647;0000022806;SPEED PRESS Plus a.s.;000000-0139430267;0100
CZ25820702;0000020902;MANUTAN-vybavení skladů,kancel.;000000-0050007323;6200
CZ26016451;0000020757;T-PROFI JČ, s.r.o.;000000-0156210231;0600
CZ26021145;0000000005;Viscofan CZ s.r.o.;000000-0117171743;0300
CZ26025230;0000020878;KSQ spol.s r.o.;000000-0153345077;0600
CZ26027691;0000021227;CRAVT  s.r.o.;000078-1290400217;0100
CZ26032953;0000021188;LENZE, s. r. o.;000000-2000219036;2700
CZ26073013;0000021587;Daluku, s.r.o.;000000-9921000217;0100
CZ26076519;0000022080;MIF TRANS S.R.O.;000000-0573395329;0800
CZ26078201;0000020091;E.ON Energie, a.s.;010014-0001703621;0100
CZ26092336;0000022458;RM Chemicals spol. s r. o.;000000-0194942126;0300
CZ26092336;0000022458;RM Chemicals spol. s r. o.;000000-6686350001;5500
CZ26093839;0000023378;PS PATROL s.r.o.;000000-0572305379;0800
CZ26108313;0000021995;KVALITA náhradní plnění s.r.o.;000000-2500068975;2010
CZ26148544;0000020975;KWESTO s. r. o.;000000-3638600287;0100
CZ26163284;0000022476;Diversey Česká republika s.r.o.;000000-2039890118;2600
CZ26231921;0033914503;PACK & CONSULTING BOHEMIA s.r.o.;000000-0203921053;0300
CZ26689537;0000021907;PolyOne ČR, s.r.o.;CZ4026000000002040480300;
CZ27067793;0000022633;EVERFIT hydraulika s.r.o.;000027-6610140227;0100
CZ27127010;0000021068;Schindler CZ, a.s.;000000-0900476493;0300
CZ27410307;0000023265;EN-ART CZ s.r.o.;000043-2402440227;0100
CZ27539300;0000022498;REELTON s.r.o.;DE11855901004557019702;
CZ27633870;0000023171;Techni Trade s.r.o.;000000-8900074888;2600
CZ27890201;0000022482;Yuncheng Plate-Making CZ, s.r.o.;CZ1508000000001773552223;
CZ28075811;0000020130;PALIČKA JIŘÍ ochranné pomůcky;000000-0232481800;0300
CZ28090683;0000020302;T&T etikety s.r.o.;000000-3729087001;5500
CZ28104056;0000023083;BALTRO s.r.o.;000000-0229491725;0300
CZ28106504;0000023183;Petr Novotný s.r.o.;000043-4888840237;0100
CZ28132408;0000023026;DELNET CZ s.r.o.;000000-4200264607;6800
CZ28140923;0033914091;TOMAKO CZ s.r.o.;000000-4200301359;6800
CZ28159888;0000023284;ProVisTech s.r.o.;000000-7235340001;5500
CZ28763661;0000022644;TAPEX EU s.r.o.;CZ1808000000000005612612;
CZ41032004;0000022502;Z+M servis, spol. s r.o;000000-0009395993;0300
CZ44004036;0000021987;INVOS, spol. s r.o.;000000-0002108082;0800
CZ44265077;0000021328;A.T.A. technik spol. s r.o.;000000-1099541011;0100
CZ44846029;0000020799;S&T CZ s.r.o.;000000-0117422733;0300
CZ44962878;0000021077;SK Label, spol. s r. o.;000000-0123294985;0300
CZ45242143;0000021842;Nordmann Rassmann Czech Rep. s.r.o.;CZ0927000000001012146036;
CZ45350001;0000021851;Barentz, spol. s r.o.;000000-0361045351;0100
CZ45787115;0000021601;KÜHNE+NAGEL spol.s.r.o.;000000-1233664101;2700
CZ46901876;0000021239;TART, s. r. o.;000000-0000135415;0300
CZ47116757;0000022449;Clarion Hotel Prague Old Town;000000-0003693842;0800
CZ47123591;0000020100;JUNGHEINRICH  (ČR) s.r.o.;000000-1137782001;2700
CZ47239042;0000020546;STEINBAUER LECHNER spol. s r.o.;000000-0045000231;0100
CZ47667010;0000021847;LORIKA   CZ s.r.o.;000027-4182250227;0100
CZ48111198;0000021577;ACTIVA spol. s r.o.;000000-0500032893;0300
CZ48117820;0000021372;IMPROMAT CZ spol. s r. o.;000000-0013149111;0100
CZ48204641;0000020095;INKOMO spol. s r.o.;000000-0025204544;0600
CZ49023098;0000021773;RUMPOLD 01-VODŇANY s.r.o.;000000-0031067005;2700
CZ49613464;0000020176;BRENNTAG CR s.r.o.;000000-1001044253;5500
CZ49966065;0000020364;PROFIPRINT spol. s r.o.;000000-0372585273;0300
CZ5705201997;0000020860;MUSÍLEK MILOSLAV kovoobrábění;000000-0112105958;0300
CZ60069856;0000023348;Jatky Hradský s.r.o.;000000-0680031379;0800
CZ60192755;0000020347;ČEDOK  a. s.;000000-1800062263;0300
CZ60721723;0000020985;Pružinárna SUHA,spol. s r.o.;000000-1444821349;0800
CZ60734434;0000022245;Enetex - KIA, spol. s r. o.;000000-4060021514;6800
CZ60826835;0000020117;Teplárna České Budějovice, a.s.;000019-0091605231;0100
CZ60837152;0000021251;CORAX spol.s r.o.;000000-1002182535;2700
CZ60849657;0000020185;ČEVAK a.s.;000000-5002006468;5500
CZ61503657;0000020228;FIMEX, spol. s  r. o.;CZ1727000000005161878060;
CZ61947024;0000020241;Haberkorn Ulmer  s.r.o.;000000-0101910708;0300
CZ62909070;0000020230;SMC Industrial Automation  CZ s.r.o;000000-0046690000;2700
CZ63482576;0000022197;Cominfo a.s.;000000-4080006311;6800
CZ6360021954;0000020052;Ivana Týmalová TYKO;000000-0912121323;0300
CZ63996332;0000000009;GAMEX;000000-2106875410;2700
CZ6804151310;0033914382;Miloš Macháček;000000-0566418369;0800
CZ6808190312;0000021168;EMK ELEKTRO;000000-0012129143;0300
CZ7302051218;0000020918;Kolář Martin;000000-2400071130;2010
CZ7503121241;0000023372;Radek Šustr;000000-2070982379;0800
