CZ00011754;0000020102;Linde Gas a.s.;000502-0305466004;2700
CZ00030821;0033916215;CÍL, výrobní družstvo;000000-0000719701;0100
CZ00268577;0000020550;Siemens, s.r.o.;CZ4927000000001013384394;
CZ0045801622;0000020811;KART  spol. s r.o.;000000-0108953401;0300
CZ00514152;0000020274;BUDÉJOVICKÝ BUDVAR;000000-0023709231;0100
CZ00538264;0000020258;SIDAT, spol.s r.o.;CZ9203000000000473966913;
CZ00558851;0000020943;Uniprox spol. s r. o.;000000-0245017652;0300
CZ00564737;0000020157;FESTO, spol. s r. o.;CZ7779100000003053600206;
CZ01810111;0000023374;Marták Sped s.r.o.;000107-5097330227;0100
CZ02352991;0000023437;V-Grip s.r.o.;CZ1620600000000001090861;
CZ02412756;0033916124;SGM CB s.r.o.;000000-2109513837;2700
CZ02517116;0000023449;Taktiq Communications s.r.o.;000107-6305860287;0100
CZ02858819;0033916723;SAPRIL Morava s.r.o.;000000-8209275001;5500
CZ03301061;0033916056;Advanced AIRSEA s.r.o.;CZ6203000000000266714537;
CZ03301061;0033916056;Advanced AIRSEA s.r.o.;000000-0284492384;0300
CZ03438856;0033915838;INKOMO CZ s.r.o.;000000-0025204544;0600
CZ03573397;0033916245;EMK ELEKTRO s.r.o.;000000-0267799042;0300
CZ13497791;0000020420;HERBIA spol.s r.o.;000000-2813049329;0800
CZ13497863;0000021974;Kvalita - družstvo služeb;000000-2111614071;2700
CZ13583972;0000022989;TMT spol. s r.o.;000000-0578793203;0300
CZ14502992;0000020069;Českobudějovické pozemní stavby, sp;000107-6518280227;0100
CZ15769615;0000020090;ELMOT v.o.s.;000000-0561767359;0800
CZ15887103;0033916702;SHIMADZU Handels GmbH;000000-0049089018;2700
CZ18626971;0000020103;MERCK spol s r.o.;000000-3137600019;7910
CZ18630774;0000020847;KODYS, spol.s r.o.;000000-5030010827;5500
CZ25163566;0000022716;VYZA TRABSM v.o.s.;000000-0212095013;0300
CZ25174738;0000022972;AB velkoobchod s.r.o.;000000-1709692061;2700
CZ25186973;0000021103;Sahan CB  s. r. o.;000000-0215668411;0300
CZ25194798;0000020699;PPL JIŽNÍ ÈECHY, spol. s.r.o.;000000-0522821076;2700
CZ25357425;0000020631;FABORY-CZ,s.r.o.;000000-0017625963;0300
CZ25422952;0000021446;Peter Cremer Central Europe s.r.o.;CZ4862000000000011751731;
CZ25487515;0000020801;TYMA  CZ, s.r.o.;000000-0190134367;0300
CZ25588044;0000020796;BMC BRNO, s.r.o.;CZ3306000000000155206599;
CZ25637151;0000021092;NZ SERVIS, spol. s r.o.;000019-8698300297;0100
CZ25683446;0000020886;DHL Expres Czech Republic s.r.o.;000000-0523206008;2700
CZ25692089;0000020817;IMI International s.r.o.;000000-1000397049;3500
CZ25765647;0000022806;SPEED PRESS Plus a.s.;000000-0270483276;0300
CZ25820702;0000020902;MANUTAN-vybavení skladů,kancel.;000000-0050007323;6200
CZ26007568;0000021984;Easytherm CZ s.r.o.;000000-2800166972;2010
CZ26018012;0000021950;J+M PAVLÁT INTERNATIONAL S.R.O.;000000-0412794943;0300
CZ26019396;0000020958;EM Grafika s.r.o.;000000-0162053535;0300
CZ26019744;0000022521;Šumavský pramen distribuce s.r.o.;000000-7000014316;8040
CZ26025230;0000020878;KSQ spol.s r.o.;000000-0153345077;0600
CZ26027691;0000021227;CRAVT  s.r.o.;000000-0412255683;0300
CZ26036185;0033916388;Hoppichler Paletten;000000-0004015322;0800
CZ26065258;0000023390;Albatros Prachatice, s.r.o.;000000-7100007578;8040
CZ26069997;0000021160;Plojhar s.r.o.;CZ3255000000005002202434;
CZ26073013;0000021587;DALUKU - Tichelmann s.r.o.;000000-9921000217;0100
CZ26073897;0000022764;INOMECH s.r.o.;000000-0189708001;0300
CZ26076519;0000022080;MIF TRANS S.R.O.;000000-0573395329;0800
CZ26078201;0000020091;E.ON Energie, a.s.;010014-0001703621;0100
CZ26080338;0033916035;Marták Logistics s.r.o.;000035-1941980287;0100
CZ26086140;0000021790;The Cambridgr Centre s.r.o.;000000-0195038219;0300
CZ26087375;0000021923;LINGO s.r.o.;000000-0195914047;0300
CZ26092336;0000022458;RM Chemicals spol. s r. o.;000000-0194942126;0300
CZ26092336;0000022458;RM Chemicals spol. s r. o.;000000-6686350001;5500
CZ26098261;0000022693;AMPARA s.r.o.;000000-5002209898;5500
CZ26102692;0000021645;Apenex;000000-0254861468;0300
CZ26108313;0000021995;KVALITA náhradní plnění s.r.o.;000000-2500068975;2010
CZ26148544;0000020975;KWESTO s. r. o.;000000-3638600287;0100
CZ26228181;0033915916;SENZA družstvo, chráněná dílna;000086-3215900237;0100
CZ26311208;0033914578;PREOL a.s.;CZ1001000000359752990247;
CZ26470438;0000021912;MEGADYNE CZ s.r.o.;000000-0119504433;0300
CZ26689537;0000021907;PolyOne ČR, s.r.o.;CZ4026000000002040480300;
CZ26816121;0000022825;CANIS safety, a.s.;000000-0185690908;0300
CZ26819201;0000020840;LEŇO stabil Czech s.r.o.;000086-5758770247;0100
CZ26955130;0000023331;GRAVITECH s.r.o.;CZ4627000000002109983222;
CZ27067793;0000022633;EVERFIT hydraulika s.r.o.;000027-6610140227;0100
CZ27117171;0000022182;PEPPERL+FUCHS s.r.o.;000000-0010537354;6200
CZ27237851;0000022665;SOLUTECH BOHEMIA s.r.o.;000000-0253158770;0300
CZ27420761;0000022583;UNIVAR Czech s.r.o.;000000-1000450604;3500
CZ27563588;0000022009;JUMBO TRANSPORT;000051-1983740257;0100
CZ27596338;0000023398;CBH2013 a.s.;000000-2109521140;2700
CZ27612180;0000023441;Keller & Kalmbach;000000-0512769008;2700
CZ27782271;0000022079;HEDOKA S.R.O.;000000-2723672053;0800
CZ27890201;0000022482;Yuncheng Plate-Making CZ, s.r.o.;CZ1508000000001773552223;
CZ28063601;0000022226;Pavel Fišer Šuptrans s.r.o.;000000-5002005633;5500
CZ28070682;0033916589;PARKHAUS A.S.;000000-2109819422;2700
CZ28073274;0000022266;Labelservis, s. r. o.;000000-5678498001;5500
CZ28090683;0000020302;T&T etikety s.r.o.;000000-3729087001;5500
CZ28104056;0033914692;BALTRO s.r.o.;000000-0229491725;0300
CZ28104056;0033914692;BALTRO s.r.o.;CZ6803000000000267821975;
CZ28106504;0000023183;Petr Novotný s.r.o.;000043-4888840237;0100
CZ28109945;0033915398;TAXI Budějovice;000000-4676204001;5500
CZ28132408;0000023026;DELNET CZ s.r.o.;000000-4200264607;6800
CZ28140923;0033914091;TOMAKO s.r.o.;000000-5002207673;5500
CZ28159888;0000023269;ProVisTech s.r.o.;000000-7235340001;5500
CZ28189264;0000022765;AGILITY LOGISTICS S.R.O.;CZ5627000000002102731225;
CZ28569130;0000021498;Azurr-technology spol. s r.o.;CZ6806000000000193469365;
CZ28717066;0000023264;Liroll, s.r.o.;000000-2400220490;2010
CZ28763661;0000022644;TAPEX EU s.r.o.;CZ1808000000000005612612;
CZ28831381;0033916762;ALGORIT CZECH, s.r.o.;000000-7492689001;5500
CZ28927125;0000022666;TECHNO-SERVICE CZ a.s.;000000-0534772339;0800
CZ28980158;0000023146;Go parking s.r.o.;000000-1002314585;2700
CZ29202574;0000022453;WEDISS TECH s.r.o.;000000-2200301309;2010
CZ29383161;0000023379;ExaSoft Holding a.s.;000043-9635090207;0100
CZ42324254;0000020119;OTIS a.s.;000000-0010804651;0100
CZ43871143;0000020099;JOHNSON CONTROLS INTERNATIONAL, spo;000000-2106869109;2700
CZ44004036;0000021987;INVOS, spol. s r.o.;000000-0002108082;0800
CZ44265077;0000021328;A.T.A. technik spol. s r.o.;000000-1099541011;0100
CZ44846029;0000020799;S&T CZ s.r.o.;000000-0117422733;0300
CZ44849036;0000020607;SICK spol. s r.o.;000000-3076100001;7910
CZ44962878;0000021077;SK Label, spol. s r. o.;000000-0069971024;2700
CZ45022534;0033916028;MONDI BUPAK s.r.o.;CZ4727000000002108454484;
CZ450311419;0033915788;Ing.Miloš Snášel   -  APCHEM;000000-0246742231;0100
CZ45308187;0000022900;TOYOTA MATERIAL HANDLING CZ s.r.o.;000000-2053090109;2600
CZ45308187;0000022900;TOYOTA MATERIAL HANDLING CZ s.r.o.;CZ1326000000002053090301;
CZ45359571;0000022077;Kartáčovna KOLOVEČ;000000-0213863627;0300
CZ45539928;0000020404;FISHER SCIENTIFIC s.r.o.;000000-0008187973;0300
CZ45789011;0000021335;CNI  tisk servis, spol. s r.o.;000000-5020012706;5500
CZ45791813;0000020376;Murtfeldt Plasty s.r.o.;000000-2504300102;2600
CZ45794707;0000022887;ARAMARK s.r.o.;000000-0300865153;0300
CZ46346635;0000020355;BIBUS s. r. o.;000000-0003949203;0300
CZ46901876;0000021239;TART, s. r. o.;000000-0000135415;0300
CZ47114983;0000020068;ČESKÁ POŠTA s.p.;000000-0133790245;0300
CZ47116757;0000022449;Clarion Hotel Prague Old Town;000000-0003693842;0800
CZ47123591;0000020100;JUNGHEINRICH  (ČR) s.r.o.;000000-1137782001;2700
CZ47239042;0000020546;STEINBAUER LECHNER spol. s r.o.;000000-0045000231;0100
CZ47239506;0000021135;P+P Želeč, spol.s r.o.;000000-0074523373;0300
CZ47910381;0000021874;INSTITUT PRO TESTOVÁNÍ A CERTIFIKAC;000000-0012903661;0100
CZ48111198;0000022605;ACTIVA spol. s r. o.;000000-0500032893;0300
CZ48117820;0000021372;RICOH Czech Republic s.r.o.;000000-0013149111;0100
CZ48536741;0000020646;SIPOR s.r.o.;000000-0088209051;0100
CZ49023098;0000021773;RUMPOLD 01-VODŇANY s.r.o.;000000-0031067005;2700
CZ49196545;0000020632;HSI Com s.r.o.;000000-0018006371;0100
CZ49279530;0000022309;HOSPODÁØSKÁ KOMORA ÈR;000000-0000997402;0800
CZ49437330;0000020268;Reca spol. s r.o.;000000-0006210682;0800
CZ49613464;0000020176;BRENNTAG CR s.r.o.;000000-1001044253;5500
CZ49613464;0000020176;BRENNTAG CR s.r.o.;CZ6155000000001001061619;
CZ49966065;0000020364;PROFIPRINT spol. s r.o.;000000-0372585273;0300
CZ49975366;0000021820;Gumex s.r.o.;000000-0673670113;0300
CZ510314372;0000020329;Tiskárna Josef Posekaný;000000-2500069871;2010
CZ510715233;0000020096;Ivan Nadberežný - INPRESS;000000-0252279538;0300
CZ531028266;0000020433;JUDr.Šimák ADVOKÁTNÍ KANCELÁØ;000000-1052002002;5500
CZ5408223700;0000020129;Š + H  LOŽISKA  Šimek Karel;000000-0212105293;0300
CZ5705201997;0000020860;MUSÍLEK MILOSLAV kovoobrábění;000000-0112105958;0300
CZ5808031570;0000023188;Jiří Hemmel   J.H.Instal;000000-0168461070;0600
CZ60069856;0000023348;Jatky Hradský s.r.o.;000000-0680031379;0800
CZ60192755;0000020347;ČEDOK  a. s.;000000-2108416269;2700
CZ60837152;0000021251;CORAX spol.s r.o.;000000-1002182535;2700
CZ60849657;0000020185;ČEVAK a.s.;000000-5002006468;5500
CZ60851708;0000021565;SPH Elektro s.r.o.;000000-0003441944;0300
CZ60931655;0033916720;BOCO PAARDUBICE machines, s.r.o.;000019-2542390217;0100
CZ6103091984;0033820930;Ladislav Volek;000000-1808273399;0800
CZ61063916;0000023180;ALD Automotive s.r.o.;000000-1162730166;0100
CZ61500780;0000020449;SCHENKER, spol. s r.o.;CZ0555000000005003004819;
CZ61503657;0000020228;FIMEX, spol. s  r. o.;CZ1108000000000006145462;
CZ61947024;0000020241;Haberkorn Ulmer  s.r.o.;000000-0101910708;0300
CZ6207101670;0000021700;Ing. Martin Masopust - SKV;000000-2102706951;2700
CZ62411853;0000022175;Balluff CZ s.r.o.;000000-0016012743;0300
CZ62580922;0000020572;KOLBER  servis, s.r.o.;000000-3583810227;0100
CZ62582836;0000022548;UniCredit Fleet Management, s.r.o.;000000-0804682000;2700
CZ62909070;0000020230;SMC Industrial Automation  CZ s.r.o;000000-0046690000;2700
CZ62910370;0000020335;NOVATO spol. s r.o.;000019-3950090277;0100
CZ63482576;0000022197;Cominfo a.s.;000000-4080006311;6800
CZ6360021954;0000020052;Ivana Týmalová TYKO;000000-0912121323;0300
CZ63908824;0033915262;COREX CZECH s.r.o.;000000-0017626413;0300
CZ63984211;0000021399;ASCO JOUCOMATIC  s.r.o.;000000-3139400002;7910
CZ63995522;0000021658;Takos, s.r.o.;000000-0211725511;0300
CZ64949681;0000021836;T-mobile Czech Republic, a.s.;000019-2235210247;0300
CZ6502082191;0000020225;Pavlíček František;000000-0563587319;0800
CZ6607151067;0000022772;Petr Macháček;000000-1370795028;3030
CZ699000232;0000020254;HYDRO-FLEX-ZBA s.r.o.;000000-8258260287;0100
CZ699001996;0000020101;KPMG Èeská republika s.r.o.;000000-0002518612;0800
CZ699003336;0033916070;Z + M Partner, spol. s r. o.;000000-0003724952;0800
CZ7302051218;0000020918;Kolář Martin;000000-2400071130;2010
