CZ00011754;0000020102;Linde Gas a.s.;000502-0305466004;2700
CZ00515191;0000021473;ROB k.s.;000000-0000216557;0300
CZ00564737;0000020157;FESTO, spol. s r. o.;CZ7779100000003053600206;
CZ00582204;0000022640;ESSA, spol. s r.o.;000000-5822040012;5500
CZ01810111;0000023374;Marták Sped s.r.o.;000107-5097330227;0100
CZ03438856;0033915838;INKOMO CZ s.r.o.;000000-0025204544;0600
CZ13497863;0000021974;Kvalita - družstvo služeb;000000-2400069006;2010
CZ14502992;0000020069;Českobudějovické pozemní stavby, sp;000107-6518280227;0100
CZ18385109;0000020414;"""""""M - PRO"""" spoleènost s ruè;000000-1017009233;5500
CZ24289485;0000023221;Advanced AIRSEA Solutions, s.r.o.;000000-0251190179;0300
CZ24289485;0000023221;Advanced AIRSEA Solutions, s.r.o.;CZ8203000000000251531834;
CZ25163027;0000021305;Uniprojekta s.r.o.;000000-6083040207;0100
CZ25163566;0000022716;VYZA TRABSM v.o.s.;000000-0212095013;0300
CZ25164996;0000021660;ANTONI CZ s.r.o.;000000-7100005257;8040
CZ25174738;0000022972;AB velkoobchod s.r.o.;000000-1709692061;2700
CZ25177656;0000020511;DELNET s.r.o.;000000-4200188579;6800
CZ25186973;0000021103;Sahan CB  s. r. o.;000000-0215668411;0300
CZ25194798;0000020699;PPL JIŽNÍ ÈECHY, spol. s.r.o.;000000-0522821076;2700
CZ25422952;0000021446;Peter Cremer Central Europe s.r.o.;CZ4862000000000011751731;
CZ25588044;0000020796;BMC BRNO, s.r.o.;CZ3306000000000155206599;
CZ25606441;0033915952;AxFlow s.r.o.;000000-5266083002;2700
CZ25637151;0000021092;NZ SERVIS, spol. s r.o.;000019-8698300297;0100
CZ25681672;0000022807;Grolman s.r.o.;CZ1027000000004762049036;
CZ25683446;0000020886;DHL Expres Czech Republic s.r.o.;000000-0523206008;2700
CZ25765647;0000022806;SPEED PRESS Plus a.s.;000000-0139430267;0100
CZ25820702;0000020902;MANUTAN-vybavení skladů,kancel.;000000-0050007323;6200
CZ26007568;0000021984;Easytherm CZ s.r.o.;000000-2800166972;2010
CZ26018128;0000020805;GRAND HOTEL ZVON s.r.o.;000000-1032009274;5500
CZ26019396;0000020958;EM Grafika s.r.o.;000000-0162053535;0300
CZ26019744;0000022521;Šumavský pramen distribuce s.r.o.;000000-7000014316;8040
CZ26024527;0033914794;VELIMPEX s.r.o. Dřevovýroba;000000-1012010286;5500
CZ26025230;0000020878;KSQ spol.s r.o.;000000-0153345077;0600
CZ26027691;0000021227;CRAVT  s.r.o.;000078-1290400217;0100
CZ26069997;0000021160;Plojhar s.r.o.;CZ3255000000005002202434;
CZ26073013;0000021587;Daluku, s.r.o.;000000-9921000217;0100
CZ26076519;0000022080;MIF TRANS S.R.O.;000000-0573395329;0800
CZ26078201;0000020091;E.ON Energie, a.s.;010014-0001703621;0100
CZ26092336;0000022458;RM Chemicals spol. s r. o.;000000-0194942126;0300
CZ26092336;0000022458;RM Chemicals spol. s r. o.;000000-6686350001;5500
CZ26098261;0000022693;Ampara  s.r.o.;000000-5002209898;5500
CZ26102692;0000021645;Apenex;000000-0254861468;0300
CZ26108313;0000021995;KVALITA náhradní plnění s.r.o.;000000-2500068975;2010
CZ26111047;0000022750;TOOLS CB s.r.o.;000000-0253952149;0300
CZ26311208;0033914578;PREOL a.s.;CZ1001000000359752990247;
CZ26500329;0033915954;Yusen Logistics (Czech) s.r.o.;000000-0000300206;2020
CZ26689537;0000021907;PolyOne ČR, s.r.o.;CZ4026000000002040480300;
CZ26810093;0033915949;Bartoň a Partner s.r.o.;000000-0259358650;0300
CZ27112039;0000021387;Tesa tape s.r.o.;000000-2042460207;2600
CZ27127010;0000021068;Schindler CZ, a.s.;000000-0900476493;0300
CZ27504379;0000022500;Naturchem, s.r.o.;000000-2500055816;2010
CZ27563588;0000022009;JUMBO TRANSPORT;000051-1983740257;0100
CZ27612180;0000023441;Keller & Kalmbach;000000-0512769008;2700
CZ27890201;0000022482;Yuncheng Plate-Making CZ, s.r.o.;CZ1508000000001773552223;
CZ28063601;0000022226;Pavel Fišer Šuptrans s.r.o.;000000-5002005633;5500
CZ28075811;0000020130;PALIČKA JIŘÍ ochranné pomůcky;000000-0232481800;0300
CZ28090683;0000020302;T&T etikety s.r.o.;000000-3729087001;5500
CZ28104056;0033914692;BALTRO s.r.o.;000000-0229491725;0300
CZ28106504;0000023183;Petr Novotný s.r.o.;000043-4888840237;0100
CZ28109945;0033915398;TAXI Budějovice;000000-4676204001;5500
CZ28128125;0000023423;HYUNDAI-Fischer CZ s.r.o.;000000-0253378220;0300
CZ28132408;0000023026;DELNET CZ s.r.o.;000000-4200264607;6800
CZ28140923;0033914091;TOMAKO s.r.o.;000107-4578920207;0100
CZ28189264;0000022765;AGILITY LOGISTICS S.R.O.;CZ5627000000002102731225;
CZ28763661;0000022644;TAPEX EU s.r.o.;CZ1808000000000005612612;
CZ28980158;0000023146;Go parking s.r.o.;000000-1002314585;2700
CZ29383161;0000023379;ExaSoft Holding a.s.;000043-9635090207;0100
CZ43871143;0000020099;JOHNSON CONTROLS INTERNATIONAL, spo;000000-2106869109;2700
CZ44004036;0000021987;INVOS, spol. s r.o.;000000-0002108082;0800
CZ44265077;0000021328;A.T.A. technik spol. s r.o.;000000-1099541011;0100
CZ44846029;0000020799;S&T CZ s.r.o.;000000-0117422733;0300
CZ45022534;0033916028;MONDI BUPAK s.r.o.;AT181910000048065000;
CZ45794707;0000022887;ARAMARK s.r.o.;000000-0300865153;0300
CZ46679456;0000020372;ANECLAB s.r.o.;000000-2108415784;2700
CZ470317120;0000020970;Technická guma (K&F);000000-0170134634;0300
CZ47123591;0000020100;JUNGHEINRICH  (ČR) s.r.o.;CZ6001000000000120819088;
CZ47123591;0000020100;JUNGHEINRICH  (ČR) s.r.o.;000000-1137782001;2700
CZ47239042;0000020546;STEINBAUER LECHNER spol. s r.o.;000000-0045000231;0100
CZ47667010;0000021847;LORIKA   CZ s.r.o.;000027-4182250227;0100
CZ48111198;0000022605;ACTIVA spol. s r. o.;000000-0500032893;0300
CZ48117820;0000021372;IMPROMAT CZ spol. s r. o.;000000-0013149111;0100
CZ48593591;0000020248;KAISER+KRAFT, spol.s r.o.;000000-0023709071;0100
CZ49023098;0000021773;RUMPOLD 01-VODŇANY s.r.o.;000000-0031067005;2700
CZ49613464;0000020176;BRENNTAG CR s.r.o.;000000-1001044253;5500
CZ49966065;0000020364;PROFIPRINT spol. s r.o.;000000-0372585273;0300
CZ531230279;0000020608;ŽUŽO-LIDO Zdeněk Candra;000000-0132067063;0300
CZ5808031570;0000023188;Jiří Hemmel   J.H.Instal;000000-0168461070;0600
CZ60069856;0000023348;Jatky Hradský s.r.o.;000000-0680031379;0800
CZ60192755;0000020347;ČEDOK  a. s.;000000-2108416269;2700
CZ60193336;0000020113;Telephonica O2 Czech Republic, a.s.;000027-4908440207;0100
CZ60463031;0000020178;Mettler Toledo, s.r.o.;000000-5146387001;2700
CZ60703024;0000023015;Interflex s.r.o.;000000-5361070277;0100
CZ60706091;0000022327;Vepak s.r.o.;CZ2801000000270619040217;
CZ60837152;0000021251;CORAX spol.s r.o.;000000-1002182535;2700
CZ60850353;0000020296;KOSTAX spol. s r.o.;000000-0003540176;0300
CZ60851708;0000021565;SPH Elektro s.r.o.;000000-0003441944;0300
CZ6103091984;0033820930;Ladislav Volek;000000-1808273399;0800
CZ61063916;0000023180;ALD Automotive s.r.o.;000000-1162730166;0100
CZ61500780;0000020449;SCHENKER, spol. s r.o.;CZ0555000000005003004819;
CZ61947024;0000020241;Haberkorn Ulmer  s.r.o.;000000-0101910708;0300
CZ62910370;0000020335;NOVATO spol. s r.o.;000019-3950090277;0100
CZ63482576;0000022197;Cominfo a.s.;000000-4080006311;6800
CZ63995522;0000021658;Takos, s.r.o.;000000-0211725511;0300
CZ64945201;0000023163;Media Representations, spol. s r.o.;000000-0478423563;0300
CZ64949681;0000021836;T-mobile Czech Republic, a.s.;000019-2235210247;0300
CZ6502082191;0000020225;Pavlíček František;000000-0563587319;0800
CZ680502074;0033910999;Visko Teepak N.V.;BE61733054842517;
CZ6808190312;0000021168;EMK ELEKTRO;000000-0012129143;0300
CZ699001996;0000020101;KPMG Èeská republika s.r.o.;000000-0002518612;0800
CZ70101191;0033916040;Česká společnost pro údržbu;000000-0081769339;0800
