CZ00011754;0000020102;Linde Gas a.s.;000502-0305466004;2700
CZ00030821;0033916215;CÍL, výrobní družstvo;000000-0000719701;0100
CZ0045801622;0000020811;KART  spol. s r.o.;000000-0108953401;0300
CZ00564737;0000020157;FESTO, spol. s r. o.;CZ7779100000003053600206;
CZ00582204;0000022640;ESSA, spol. s r.o.;000000-5822040012;5500
CZ01810111;0000023374;Marták Sped s.r.o.;000107-5097330227;0100
CZ02412756;0033916124;SGM CB s.r.o.;000000-2109513837;2700
CZ03301061;0033916056;Advanced AIRSEA s.r.o.;CZ6203000000000266714537;
CZ03301061;0033916056;Advanced AIRSEA s.r.o.;000000-0284492384;0300
CZ03438856;0033915838;INKOMO CZ s.r.o.;000000-0025204544;0600
CZ03546462;0033916283;MWP-LAB s.r.o.;000000-2014011041;5500
CZ03573397;0033916245;EMK ELEKTRO s.r.o.;000000-0267799042;0300
CZ13497863;0000021974;Kvalita - družstvo služeb;000000-2400069006;2010
CZ14499037;0000020272;TERMS a.s.;000000-2502230104;2600
CZ14502992;0000020069;Českobudějovické pozemní stavby, sp;000107-6518280227;0100
CZ14869446;0000020184;HENNLICH s.r.o.;000000-6717778001;2700
CZ18626971;0000020103;MERCK spol s r.o.;000000-3137600019;7910
CZ18630774;0000020847;KODYS, spol.s r.o.;000000-5030010827;5500
CZ25122401;0000020617;TQ3 Travel Solutions Czech Republic;000000-0010551025;6200
CZ25134701;0000021180;EKO-KOM, a. s.;000000-1000366402;3500
CZ25163566;0000022716;VYZA TRABSM v.o.s.;000000-0212095013;0300
CZ25174657;0000022413;C.plusC. s.r.o.;000000-3466570287;0100
CZ25174738;0000022972;AB velkoobchod s.r.o.;000000-1709692061;2700
CZ25186973;0000021103;Sahan CB  s. r. o.;000000-0215668411;0300
CZ25194798;0000020699;PPL JIŽNÍ ÈECHY, spol. s.r.o.;000000-0522821076;2700
CZ25354671;0000022471;ANAG spol. s r. o.;000027-4236970247;0100
CZ25422952;0000021446;Peter Cremer Central Europe s.r.o.;CZ4862000000000011751731;
CZ25446291;0000021666;MOAS CS s.r.o.;000000-0964306389;0800
CZ25487515;0000020801;TYMA  CZ, s.r.o.;000000-0190134367;0300
CZ25588044;0000020796;BMC BRNO, s.r.o.;CZ3306000000000155206599;
CZ25637151;0000021092;NZ SERVIS, spol. s r.o.;000019-8698300297;0100
CZ25765647;0000022806;SPEED PRESS Plus a.s.;000000-0139430267;0100
CZ25820702;0000020902;MANUTAN-vybavení skladů,kancel.;000000-0050007323;6200
CZ25977580;0000021578;VEIDEC s.r.o.;000000-0001399922;0800
CZ26007568;0000021984;Easytherm CZ s.r.o.;000000-2800166972;2010
CZ26018128;0000020805;GRAND HOTEL ZVON s.r.o.;000000-1032009274;5500
CZ26019744;0000022521;Šumavský pramen distribuce s.r.o.;000000-7000014316;8040
CZ26024527;0033914794;VELIMPEX s.r.o. Dřevovýroba;000000-1012010286;5500
CZ26025230;0000020878;KSQ spol.s r.o.;000000-0153345077;0600
CZ26026589;0000023195;RESIDENCE U ÈERNÉ VÌŽE;000000-2106016413;2700
CZ26027691;0000021227;CRAVT  s.r.o.;000078-1290400217;0100
CZ26032953;0000021188;LENZE, s. r. o.;CZ2227000000002000219036;
CZ26055210;0000021476;PK  SERVIS tech.součásti s.r.o.;000000-0178687145;0600
CZ26073013;0000021587;Daluku, s.r.o.;000000-9921000217;0100
CZ26073897;0000022764;INOMECH s.r.o.;000000-0189708001;0300
CZ26076519;0000022080;MIF TRANS S.R.O.;000000-0573395329;0800
CZ26080338;0033916035;Marták Logistics s.r.o.;000035-1941980287;0100
CZ26085356;0033915797;Trhlík, s.r.o.;000000-0195116854;0300
CZ26092336;0000022458;RM Chemicals spol. s r. o.;000000-0194942126;0300
CZ26092336;0000022458;RM Chemicals spol. s r. o.;000000-6686350001;5500
CZ26093839;0000023378;PS PATROL s.r.o.;000000-0572305379;0800
CZ26098261;0000022693;AMPARA s.r.o.;000000-5002209898;5500
CZ26108313;0000021995;KVALITA náhradní plnění s.r.o.;000000-2500068975;2010
CZ26148544;0000020975;KWESTO s. r. o.;000000-3638600287;0100
CZ26228181;0033915916;SENZA družstvo, chráněná dílna;000086-3215900237;0100
CZ26248026;0000023391;Zapletal-Kovo a.s.;000000-2108378805;2700
CZ26421470;0000022684;Chára Sport a.s.;000000-0081412399;0800
CZ26689537;0000021907;PolyOne ČR, s.r.o.;CZ4026000000002040480300;
CZ26704153;0000022279;ERNST & YOUNG;000000-1411703100;8150
CZ26722275;0000021809;TFP universal a.s.;000000-5020012730;5500
CZ26955130;0000023331;GRAVITECH s.r.o.;CZ4627000000002109983222;
CZ26955261;0033916317;AG-FOIL BOHEMIA s.r.o.;000000-0194217135;0300
CZ27067793;0000022633;EVERFIT hydraulika s.r.o.;000027-6610140227;0100
CZ27195031;0000022593;Essentra Components s.r.o.;000000-2044090107;2600
CZ27202097;0033916144;FARAVELLI s.r.o.;SK4111000000002626138481;
CZ27237851;0000022665;SOLUTECH BOHEMIA s.r.o.;000000-0253158770;0300
CZ27358917;0000022845;FOXON s.r.o.;000000-0993001349;0800
CZ27420761;0000022583;UNIVAR Czech s.r.o.;CZ4835000000001330450607;
CZ27518922;0000022756;TECH-LIT s.r.o.;000000-1091996329;0800
CZ27612180;0000023441;Keller & Kalmbach;000000-0512769008;2700
CZ27766489;0000022066;PNEUMAX Automation s.r.o.;000000-0207022004;0300
CZ27782271;0000022079;HEDOKA S.R.O.;000000-2723672053;0800
CZ28063601;0000022226;Pavel Fišer Šuptrans s.r.o.;000000-5002005633;5500
CZ28073274;0000022266;Labelservis, s. r. o.;000000-5678498001;5500
CZ28090683;0000020302;T&T etikety s.r.o.;000000-3729087001;5500
CZ28104056;0033914692;BALTRO s.r.o.;000000-0229491725;0300
CZ28104056;0033914692;BALTRO s.r.o.;CZ6803000000000267821975;
CZ28106504;0000023183;Petr Novotný s.r.o.;000043-4888840237;0100
CZ28132408;0000023026;DELNET CZ s.r.o.;000000-4200264607;6800
CZ28140923;0033914091;TOMAKO s.r.o.;000107-4578920207;0100
CZ28569130;0000021498;Azurr-technology spol. s r.o.;CZ6806000000000193469365;
CZ28582616;0033916080;Jakar Electronics, spol. s r.o.;000000-2500608257;2010
CZ28717066;0000023264;Liroll, s.r.o.;000000-2400220490;2010
CZ28763661;0000022644;TAPEX EU s.r.o.;CZ1808000000000005612612;
CZ28980158;0000023146;Go parking s.r.o.;000000-1002314585;2700
CZ29050821;0000022843;DVOØÁK a spol., advokátní kanceláø;000000-2136834329;0800
CZ29202574;0000022453;WEDISS TECH s.r.o.;000000-2200301309;2010
CZ29383161;0000023379;ExaSoft Holding a.s.;000043-9635090207;0100
CZ42324254;0000020119;OTIS a.s.;000000-0010804651;0100
CZ43774156;0033915942;ADAX, spol. s r.o.;CZ3301000000515430740247;
CZ44004036;0000021987;INVOS, spol. s r.o.;000000-0002108082;0800
CZ44265077;0000021328;A.T.A. technik spol. s r.o.;000000-1099541011;0100
CZ44846029;0000020799;S&T CZ s.r.o.;000000-0117422733;0300
CZ44849036;0000020607;SICK spol. s r.o.;000000-3076100001;7910
CZ44962878;0000021077;SK Label, spol. s r. o.;000000-0069971024;2700
CZ45022534;0033916028;MONDI BUPAK s.r.o.;CZ4727000000002108454484;
CZ45242143;0000021842;Nordmann Rassmann Czech Rep. s.r.o.;CZ0927000000001012146036;
CZ45308187;0000022900;TOYOTA MATERIAL HANDLING CZ s.r.o.;CZ1326000000002053090301;
CZ45350001;0000021851;Barentz, spol. s r.o.;000000-0361045351;0100
CZ45787115;0000021601;KÜHNE+NAGEL spol.s.r.o.;000000-1233664101;2700
CZ45794707;0000022887;ARAMARK s.r.o.;000000-0300865153;0300
CZ46678867;0000020470;JARg, s.r.o.;000000-0763344231;0100
CZ46901876;0000021239;TART, s. r. o.;000000-0000135415;0300
CZ46966447;0000020704;MERCI, s.r.o.;000000-0382408043;0300
CZ47116757;0000022449;Clarion Hotel Prague Old Town;000000-0003693842;0800
CZ47123591;0000020100;JUNGHEINRICH  (ČR) s.r.o.;000000-1137782001;2700
CZ47239042;0000020546;STEINBAUER LECHNER spol. s r.o.;000000-0045000231;0100
CZ47667010;0000021847;LORIKA   CZ s.r.o.;000027-4182250227;0100
CZ48111198;0000022605;ACTIVA spol. s r. o.;000000-0500032893;0300
CZ48117820;0000021372;IMPROMAT CZ spol. s r. o.;000000-0013149111;0100
CZ48363529;0033916237;Schwer Fittings, s.r.o.;008010-0804039963;0300
CZ48593591;0000020248;KAISER+KRAFT, spol.s r.o.;000000-0023709071;0100
CZ49023098;0000021773;RUMPOLD 01-VODŇANY s.r.o.;000000-0031067005;2700
CZ49279530;0000022309;HOSPODÁØSKÁ KOMORA ÈR;000000-0000997402;0800
CZ49437330;0000020268;Reca spol. s r.o.;000000-0006210682;0800
CZ49452266;0000021060;INTERNOVA CZ GmbH spol. s r.o.;000000-0043107721;0100
CZ49613464;0000020176;BRENNTAG CR s.r.o.;000000-1001044253;5500
CZ49614932;0000020253;Atlas Copco  s.r.o.;000000-3142900024;7910
CZ49966065;0000020364;PROFIPRINT spol. s r.o.;000000-0372585273;0300
CZ520527217;0000021112;Bohumil Doležal;000000-0199448231;0100
CZ5408223700;0000020129;Š + H  LOŽISKA  Šimek Karel;000000-0212105293;0300
CZ5761181074;0033916334;PYROKONTROL;000000-0159385926;0300
CZ60069856;0000023348;Jatky Hradský s.r.o.;000000-0680031379;0800
CZ60192755;0000020347;ČEDOK  a. s.;000000-2108416269;2700
CZ60463031;0000020178;Mettler Toledo, s.r.o.;000000-5146387001;2700
CZ60827718;0000023446;Sběrné suroviny, a.s.;000000-0006023852;0800
CZ60837152;0000021251;CORAX spol.s r.o.;000000-1002182535;2700
CZ60850353;0000020296;KOSTAX spol. s r.o.;000000-0003540176;0300
CZ60851708;0000021565;SPH Elektro s.r.o.;000000-0003441944;0300
CZ6103191765;0000020979;Šebesta Ivo;000000-0158999045;0300
CZ61378721;0033916170;Lloyd¨s Register EMEA;000000-0571697593;0300
CZ61498882;0000021892;PORTA s.r.o.;000000-0000035502;5400
CZ61500780;0000020449;SCHENKER, spol. s r.o.;CZ0555000000005003004819;
CZ61503657;0000020228;FIMEX, spol. s  r. o.;CZ1108000000000006145462;
CZ61947024;0000020241;Haberkorn Ulmer  s.r.o.;000000-0101910708;0300
CZ6207101670;0000021700;Ing. Martin Masopust - SKV;000000-2102706951;2700
CZ6211150220;0000021882;SETES - Vlastimil Kaňa;000000-1446146359;0800
CZ62502956;0000021315;K+V Interiér, s.r.o.;000000-2246083001;5500
CZ62910370;0000020335;NOVATO spol. s r.o.;000019-3950090277;0100
CZ6312141429;0000023130;Ivo Cháma;000000-0261706001;5500
CZ63482576;0000022197;Cominfo a.s.;000000-4080006311;6800
CZ6360021954;0000020052;Ivana Týmalová TYKO;000000-0912121323;0300
CZ63984211;0000021399;ASCO JOUCOMATIC  s.r.o.;000000-3139400002;7910
CZ63995522;0000021658;Takos, s.r.o.;000000-0211725511;0300
CZ64581471;0000020507;BELTing, spol.s r.o.;000000-0116018923;0300
CZ64945201;0000023163;Media Representations, spol. s r.o.;000000-0478423563;0300
CZ64949681;0000021836;T-mobile Czech Republic, a.s.;000019-2235210247;0300
CZ6502082191;0000020225;Pavlíček František;000000-0563587319;0800
CZ6511270755;0000021270;Tomáš Svitek - ARANGO;000019-1429700207;0100
CZ65276396;0000022007;Polytechnika, spol. s r. o.;000000-1734790501;2700
CZ680502074;0033910999;Visko Teepak N.V.;BE61733054842517;
CZ6808190312;0000021168;EMK ELEKTRO;000000-0012129143;0300
CZ699001996;0000020101;KPMG Èeská republika s.r.o.;000000-0002518612;0800
CZ699003336;0033916070;Z + M Partner, spol. s r. o.;000000-0003724952;0800
CZ70101191;0033916040;Česká společnost pro údržbu;000000-0081769339;0800
CZ7502241230;0000023342;Tomáš Záviš;000000-0412420503;0300
