CZ00011754;0000020102;Linde Gas a.s.;000502-0305466004;2700
CZ00268577;0000020550;Siemens, s.r.o.;CZ4927000000001013384394;
CZ00510386;0000022411;DIATECH - PRAHA, spol. s r. o.;000019-6008230297;0100
CZ00564737;0000020157;FESTO, spol. s r. o.;CZ7779100000003053600206;
CZ00582204;0000022640;ESSA, spol. s r.o.;000000-5822040012;5500
CZ01810111;0000023374;Marták Sped s.r.o.;000107-5097330227;0100
CZ02096013;0000022966;Ing. Petr Švec  - PENTA s.r.o.;000107-5556760227;0100
CZ02858819;0033916723;SAPRIL Morava s.r.o.;000000-8209275001;5500
CZ03301061;0033916056;Advanced AIRSEA s.r.o.;CZ6203000000000266714537;
CZ03301061;0033916056;Advanced AIRSEA s.r.o.;000000-0284492384;0300
CZ03438856;0033915838;INKOMO CZ s.r.o.;000000-0025204544;0600
CZ03573397;0033916245;EMK ELEKTRO s.r.o.;000000-0267799042;0300
CZ13497863;0000021974;Kvalita - družstvo služeb;000000-2111614071;2700
CZ14498138;0000021941;XANADU a.s.;000000-1044153003;2700
CZ14502992;0000020069;Českobudějovické pozemní stavby, sp;000107-6518280227;0100
CZ14502992;0000020069;Českobudějovické pozemní stavby, sp;000000-1002698507;2700
CZ15887103;0033916702;SHIMADZU Handels GmbH;000000-0049089018;2700
CZ18630774;0000020847;KODYS, spol.s r.o.;000000-5030010827;5500
CZ25097156;0000021341;ALUTEC K&K, a.s.;000000-0001398882;0800
CZ25122401;0000020617;TQ3 Travel Solutions Czech Republic;000000-0010551025;6200
CZ25134701;0000021180;EKO-KOM, a. s.;000000-1000366402;3500
CZ25174738;0000022972;AB velkoobchod s.r.o.;000000-1709692061;2700
CZ25186973;0000021103;Sahan CB  s. r. o.;000000-0215668411;0300
CZ25279670;0033916788;ISOline, s.r.o.;000000-0127554051;0300
CZ25422952;0000021446;Peter Cremer Central Europe s.r.o.;CZ4862000000000011751731;
CZ25579703;0033915725;SEZAKO Prostějov s.r.o.;000000-0150649016;0600
CZ25683446;0000020886;DHL Expres Czech Republic s.r.o.;000000-0523206008;2700
CZ25765647;0000022806;SPEED PRESS Plus a.s.;000000-0270483276;0300
CZ25820702;0000020902;MANUTAN-vybavení skladů,kancel.;000000-0050007323;6200
CZ25826867;0000022736;Navrátil s.r.o.;000035-6665810267;0100
CZ25882929;0000022067;Tubes International s.r.o.;000027-2501670247;0100
CZ26007568;0000021984;Easytherm CZ s.r.o.;000000-2800166972;2010
CZ26018012;0000021950;J+M PAVLÁT INTERNATIONAL S.R.O.;000000-0412794943;0300
CZ26025230;0000020878;KSQ spol.s r.o.;000000-0153345077;0600
CZ26036185;0033916388;Hoppichler Paletten;000000-0004015322;0800
CZ26055210;0000021476;PK  SERVIS tech.součásti s.r.o.;000000-0178687145;0600
CZ26065258;0000023390;Albatros Prachatice, s.r.o.;000000-7100007578;8040
CZ26069997;0000021160;Plojhar s.r.o.;CZ3255000000005002202434;
CZ26073013;0000021587;DALUKU - Tichelmann s.r.o.;000000-9921000217;0100
CZ26073897;0000022764;INOMECH s.r.o.;000000-0189708001;0300
CZ26076306;0000021585;Kuboušek, s.r.o.;CZ7568000000001200017880;
CZ26076519;0000022080;MIF TRANS S.R.O.;000000-0573395329;0800
CZ26080338;0033916035;Marták Logistics s.r.o.;000035-1941980287;0100
CZ26091747;0000021982;PRECITOOL CZ s.r.o.;000000-4200400410;6800
CZ26092336;0000022458;RM Chemicals spol. s r. o.;000000-0194942126;0300
CZ26092336;0000022458;RM Chemicals spol. s r. o.;000000-6686350001;5500
CZ26098261;0000022693;AMPARA s.r.o.;000000-5002209898;5500
CZ26108313;0000021995;KVALITA náhradní plnění s.r.o.;000000-2500068975;2010
CZ26111047;0000022750;TOOLS CB s.r.o.;000000-0253952149;0300
CZ26148544;0000020975;KWESTO s. r. o.;000000-3638600287;0100
CZ26311208;0033914578;PREOL a.s.;CZ1001000000359752990247;
CZ26421470;0000022684;Chára Sport a.s.;000000-0081412399;0800
CZ26689537;0000021907;PolyOne ČR, s.r.o.;CZ4026000000002040480300;
CZ26765799;0000022595;CELKOM Praha,spol. s r.o.;000000-2090584319;0800
CZ26819201;0000020840;LEŇO stabil Czech s.r.o.;000086-5758770247;0100
CZ26915162;0000020938;František Zalaba s.r.o.;000027-1301220247;0100
CZ27112039;0000021387;Tesa tape s.r.o.;000000-2042460207;2600
CZ27249379;0000022061;VELOX CMS s.r.o.;CZ9303000000000261656884;
CZ27637166;0033823388;Euro VAT Reclaim, s.r.o.;CZ9720100000002800691662;
CZ27782271;0000022079;HEDOKA S.R.O.;000000-2723672053;0800
CZ28063601;0000022226;Pavel Fišer Šuptrans s.r.o.;000000-5002005633;5500
CZ28090683;0000020302;T&T etikety s.r.o.;000000-3729087001;5500
CZ28104056;0033914692;BALTRO s.r.o.;000000-0229491725;0300
CZ28106504;0000023183;Petr Novotný s.r.o.;000043-4888840237;0100
CZ28114221;0033915780;Propom s.r.o;000043-6400310267;0100
CZ28132408;0000023026;DELNET CZ s.r.o.;000000-4200264607;6800
CZ28140923;0033914091;TOMAKO s.r.o.;000000-5002207673;5500
CZ28159888;0000023269;ProVisTech s.r.o.;000000-7235340001;5500
CZ28763661;0000022644;TAPEX EU s.r.o.;CZ1808000000000005612612;
CZ28831381;0033916762;ALGORIT CZECH, s.r.o.;000000-7492689001;5500
CZ28927125;0000022666;TECHNO-SERVICE CZ a.s.;000000-0534772339;0800
CZ42324254;0000020119;OTIS a.s.;000000-0010804651;0100
CZ43871143;0000020099;JOHNSON CONTROLS INTERNATIONAL, spo;000000-2106869109;2700
CZ44004036;0000021987;INVOS, spol. s r.o.;000000-0002108082;0800
CZ44265077;0000021328;A.T.A. technik spol. s r.o.;000000-1099541011;0100
CZ44962878;0000021077;SK Label, spol. s r. o.;000000-0069971024;2700
CZ45022534;0033916028;MONDI BUPAK s.r.o.;CZ4727000000002108454484;
CZ45242143;0000021842;Nordmann Rassmann Czech Rep. s.r.o.;CZ0927000000001012146036;
CZ45308187;0000022900;TOYOTA MATERIAL HANDLING CZ s.r.o.;000000-2053090109;2600
CZ45350001;0000021851;Barentz, spol. s r.o.;000000-0361045351;0100
CZ45356378;0033915430;Navijárna motorů HC & M, spol. s r.;000000-0007503321;0100
CZ45794707;0000022887;ARAMARK s.r.o.;000000-0300865153;0300
CZ46346635;0000020355;BIBUS s. r. o.;000000-0003949203;0300
CZ46679456;0000020372;ANECLAB s.r.o.;000000-2108415784;2700
CZ47116757;0000022449;Clarion Hotel Prague Old Town;000000-0003693842;0800
CZ47123591;0000020100;JUNGHEINRICH  (ČR) s.r.o.;000000-1137782001;2700
CZ47238704;0000022081;SIBOX s.r.o.;000000-0046505231;0100
CZ47239042;0000020546;STEINBAUER LECHNER spol. s r.o.;000000-0045000231;0100
CZ47239191;0000020413;TEMES, spol. s r. o.;000000-0044809231;0100
CZ47670631;0033916864;První hanácká BOW, spol. s r. o.;000000-4767063101;5500
CZ47906839;0000021021;Datascan, s. r. o.;000000-8129750001;5500
CZ48028789;0000020366;Contra Praha, spol. s r.o.;000000-0162904424;0600
CZ48111198;0000022605;ACTIVA spol. s r. o.;000000-0500032893;0300
CZ48208248;0000020073;Okresní komora Hospodáøské komory È;000000-0012912613;0300
CZ49023098;0000021773;RUMPOLD 01-VODŇANY s.r.o.;000000-0031067005;2700
CZ49437330;0000020268;Reca spol. s r.o.;000000-0006210682;0800
CZ49546694;0033916811;THIMM Obaly, k.s.;CZ5908000000000000951412;
CZ49613464;0000020176;BRENNTAG CR s.r.o.;000000-1001044253;5500
CZ49613464;0000020176;BRENNTAG CR s.r.o.;CZ6155000000001001061619;
CZ49614932;0000020253;Atlas Copco  s.r.o.;000000-3142900024;7910
CZ49975366;0000021820;Gumex s.r.o.;000000-0673670113;0300
CZ510314372;0000020329;Tiskárna Josef Posekaný;000000-2500069871;2010
CZ5502251733;0000020580;JIŘÍ VONDRKA;000000-0637614544;0600
CZ5705201997;0000020860;MUSÍLEK MILOSLAV kovoobrábění;000000-0112105958;0300
CZ5909171411;0000021988;Jiøí Paøez;000000-0391844621;0100
CZ60069856;0000023348;Jatky Hradský s.r.o.;000000-0680031379;0800
CZ60192755;0000020347;ČEDOK  a. s.;000000-2108416269;2700
CZ60706091;0000022327;Vepak s.r.o.;CZ2801000000270619040217;
CZ60721723;0000020985;Pružinárna SUHA,spol. s r.o.;000000-1444821349;0800
CZ60837152;0000021251;CORAX spol.s r.o.;000000-1002182535;2700
CZ61500780;0000020449;SCHENKER, spol. s r.o.;CZ0555000000005003004819;
CZ61503657;0000020228;FIMEX, spol. s  r. o.;CZ1108000000000006145462;
CZ61683566;0000022399;Explast, spol. s r.o.;CZ2035000000001330473809;
CZ61947024;0000020241;Haberkorn Ulmer  s.r.o.;000000-0101910708;0300
CZ62580922;0000020572;KOLBER  servis, s.r.o.;000000-3583810227;0100
CZ62909070;0000020230;SMC Industrial Automation  CZ s.r.o;000000-0046690000;2700
CZ62914511;0000021904;O.K.SERVIS BioPro, s.r.o.;000000-0576752723;0300
CZ63908824;0033915262;COREX CZECH s.r.o.;000000-0017626413;0300
CZ63995522;0000021658;Takos, s.r.o.;000000-0211725511;0300
CZ64050670;0000021725;LIMEX - TECHNIK s.r.o.;DE84508707002407620800;
CZ64581471;0000020507;BELTing, spol.s r.o.;000000-0116018923;0300
CZ6502082191;0000020225;Pavlíček František;000000-0563587319;0800
CZ6607151067;0000022772;Petr Macháček;000000-1370795028;3030
CZ6759010819;0000021541;Ing. Adéla Novotná;000000-0216592754;0300
CZ699000139;0000023252;POLYMER INSTITUTE BRNO, spol. s r.o;000000-1000514401;3500
CZ699000232;0000020254;HYDRO-FLEX-ZBA s.r.o.;000000-8258260287;0100
CZ699001996;0000020101;KPMG Èeská republika s.r.o.;000000-0002518612;0800
CZ699003336;0033916070;Z + M Partner, spol. s r. o.;000000-0003724952;0800
CZ7302051218;0000020918;Kolář Martin;000000-2400071130;2010
