CZ00011754;0000020102;Linde Gas a.s.;000502-0305466004;2700
CZ00030821;0033916215;CÍL, výrobní družstvo;000000-0000719701;0100
CZ00268577;0000020550;Siemens, s.r.o.;CZ4927000000001013384394;
CZ00538264;0000020258;SIDAT, spol.s r.o.;000000-0216026373;0300
CZ00564737;0000020157;FESTO, spol. s r. o.;CZ7779100000003053600206;
CZ01810111;0000023374;Marták Sped s.r.o.;000107-5097330227;0100
CZ02096013;0000022966;Ing. Petr Švec  - PENTA s.r.o.;000107-5556760227;0100
CZ02412756;0033916124;SGM CB s.r.o.;000000-2109513837;2700
CZ02412756;0033916124;SGM CB s.r.o.;CZ9627000000002109513909;
CZ03301061;0033916056;Advanced AIRSEA s.r.o.;CZ6203000000000266714537;
CZ03301061;0033916056;Advanced AIRSEA s.r.o.;000000-0284492384;0300
CZ03438856;0033915838;INKOMO CZ s.r.o.;000000-0025204544;0600
CZ03573397;0033916245;EMK ELEKTRO s.r.o.;000000-0267799042;0300
CZ13497863;0000021974;Kvalita - družstvo služeb;000000-2111614071;2700
CZ14499037;0000020272;TERMS a.s.;000000-2502230104;2600
CZ25134701;0000021180;EKO-KOM, a. s.;000000-1000366402;3500
CZ25163027;0000021305;Uniprojekta s.r.o.;000000-6083040207;0100
CZ25174738;0000022972;AB velkoobchod s.r.o.;000000-1709692061;2700
CZ25186973;0000021103;Sahan CB  s. r. o.;000000-0215668411;0300
CZ25194798;0000020699;PPL JIŽNÍ ČECHY, spol. s.r.o.;000000-0522821076;2700
CZ25231359;0000021144;VSK PROFI s.r.o.;000000-6267666001;5500
CZ25354523;0000020079;Řempo CB, a.s.;000107-4039470227;0100
CZ25422952;0000021446;Peter Cremer Central Europe s.r.o.;CZ4862000000000011751731;
CZ25588044;0000020796;BMC BRNO, s.r.o.;CZ3306000000000155206599;
CZ25637151;0000021092;NZ SERVIS, spol. s r.o.;000019-8698300297;0100
CZ25683446;0000020886;DHL Expres Czech Republic s.r.o.;000000-0523206008;2700
CZ25765647;0000022806;SPEED PRESS Plus a.s.;000000-0270483276;0300
CZ25820702;0000020902;MANUTAN-vybavení skladů,kancel.;000000-0050007323;6200
CZ26019744;0000022521;Šumavský pramen distribuce s.r.o.;000000-0172809164;0300
CZ26019744;0000022521;Šumavský pramen distribuce s.r.o.;000000-7000014316;8040
CZ26025230;0000020878;KSQ spol.s r.o.;000000-0153345077;0600
CZ26032953;0000021188;LENZE, s. r. o.;CZ2227000000002000219036;
CZ26065258;0000023390;Albatros Prachatice, s.r.o.;000000-7100007578;8040
CZ26069997;0000021160;Plojhar s.r.o.;CZ3255000000005002202434;
CZ26073013;0000021587;DALUKU - Tichelmann s.r.o.;000000-9921000217;0100
CZ26078201;0000020091;E.ON Energie, a.s.;010014-0001703621;0100
CZ26080338;0033916035;Marták Logistics s.r.o.;000035-1941980287;0100
CZ26092336;0000022458;RM Chemicals spol. s r. o.;000000-0194942126;0300
CZ26092336;0000022458;RM Chemicals spol. s r. o.;000000-6686350001;5500
CZ26093839;0000023378;PS PATROL s.r.o.;000000-0572305379;0800
CZ26098261;0000022693;AMPARA s.r.o.;000000-2106470704;2700
CZ26108313;0000021995;KVALITA náhradní plnění s.r.o.;000000-2500068975;2010
CZ26111047;0000022750;TOOLS CB s.r.o.;000000-0253952149;0300
CZ26186292;0033916108;COLOGNIA PRESS a.s.;000000-0006099662;0800
CZ26311208;0033914578;PREOL a.s.;CZ1001000000359752990247;
CZ26512858;0000022221;DREXX s. r. o.;SK9875000000004004420764;
CZ26689537;0000021907;PolyOne ČR, s.r.o.;CZ4026000000002040480300;
CZ26819201;0000020840;LEŇO stabil Czech s.r.o.;000086-5758770247;0100
CZ27112039;0000021387;Tesa tape s.r.o.;000000-2042460207;2600
CZ27202097;0033916144;FARAVELLI s.r.o.;SK4111000000002626138481;
CZ27518949;0000022627;TBA PLASTOVÉ OBALY S.R.O.;000000-0208899131;0600
CZ27890201;0000022482;Yuncheng Plate-Making CZ, s.r.o.;CZ1508000000001773552223;
CZ28063601;0000022226;Pavel Fišer Šuptrans s.r.o.;000000-5002005633;5500
CZ28073274;0000022266;Labelservis, s. r. o.;000000-5678498001;5500
CZ28090683;0000020302;T&T etikety s.r.o.;000000-3729087001;5500
CZ28104056;0033914692;BALTRO s.r.o.;000000-0229491725;0300
CZ28132408;0000023026;DELNET CZ s.r.o.;000000-4200264607;6800
CZ28140923;0033914091;TOMAKO s.r.o.;000000-2113140818;2700
CZ28159888;0000023269;ProVisTech s.r.o.;000000-7235340001;5500
CZ28763661;0000022644;TAPEX EU s.r.o.;CZ1808000000000005612612;
CZ28935179;0033917822;ICG-Capability s.r.o.;000000-2102276488;2700
CZ29383161;0000023379;ExaSoft Holding a.s.;000043-9635090207;0100
CZ41189671;0000022847;TOTAL  ČESKÁ REPUBLIKA s.r.o.;CZ5303001712800117386023;
CZ42324254;0000020119;OTIS a.s.;000000-0010804651;0100
CZ43871143;0000020099;JOHNSON CONTROLS INTERNATIONAL, spo;000000-2106869109;2700
CZ44004036;0000021987;INVOS, spol. s r.o.;000000-0002108082;0800
CZ44265077;0000021328;A.T.A. technik spol. s r.o.;000000-1099541011;0100
CZ45794707;0000022887;ARAMARK s.r.o.;000000-0300865153;0300
CZ46507256;0033917814;ERA-PACK s.r.o.;000000-0520047531;0100
CZ46901876;0000021239;TART, s. r. o.;000000-0000135415;0300
CZ47123591;0000020100;JUNGHEINRICH  (ČR) s.r.o.;000000-1137782001;2700
CZ47124652;0000020361;Porsche Inter Auto CZ s.r.o;000000-5020015835;5500
CZ47239042;0000020546;STEINBAUER LECHNER spol. s r.o.;000000-0045000231;0100
CZ47667010;0000021847;LORIKA   CZ s.r.o.;000000-0009139391;5500
CZ47917091;0000021690;FLAGA s.r.o.;000019-1902510207;0100
CZ48038920;0000021876;Resinex Czech Republic, s. r. o.;BE10068898421404;
CZ48111198;0000022605;ACTIVA spol. s r. o.;000000-0500032893;0300
CZ48208248;0000020073;Okresní komora Hospodářské komory Č;000000-0012912613;0300
CZ49354469;0033916827;STILL ČR spol. s r.o.;CZ1427000000004883110008;
CZ49437330;0000020268;Reca spol. s r.o.;000000-0006210682;0800
CZ49546694;0033916811;THIMM Obaly, k.s.;CZ5908000000000000951412;
CZ49613464;0000020176;BRENNTAG CR s.r.o.;000000-1001044253;5500
CZ49613464;0000020176;BRENNTAG CR s.r.o.;CZ6155000000001001061619;
CZ49966065;0000020364;PROFIPRINT spol. s r.o.;000000-0372585273;0300
CZ510715233;0000020096;Ivan Nadberežný - INPRESS;000000-0252279538;0300
CZ5408223700;0000020129;Š + H  LOŽISKA  Šimek Karel;000000-0212105293;0300
CZ5804112237;0000022777;Václav Šálek;000107-7866520287;0100
CZ5808031570;0000023188;Jiří Hemmel   J.H.Instal;000000-0168461070;0600
CZ5904230442;0000020761;KOCAR RUDOLF ing.;000000-0012131833;0300
CZ6002120630;0000023424;Stanislav Mašek;000000-6127510267;0100
CZ60069856;0000023348;Jatky Hradský s.r.o.;000000-0680031379;0800
CZ60837152;0000021251;CORAX spol.s r.o.;000000-1002182535;2700
CZ60849657;0000020185;ČEVAK a.s.;000000-5002006468;5500
CZ60850353;0000020296;KOSTAX spol. s r.o.;000000-0003540176;0300
CZ60851708;0000021565;SPH Elektro s.r.o.;000000-0003441944;0300
CZ6103191765;0000020979;Šebesta Ivo;000000-0158999045;0300
CZ61171077;0000020466;COMFORT SDRUŽENÍ a.s.;000000-4813660207;0100
CZ61500780;0000020449;SCHENKER, spol. s r.o.;CZ0555000000005003004819;
CZ61503657;0000020228;FIMEX, spol. s  r. o.;CZ1108000000000006145462;
CZ62502956;0000021315;K+V Interiér, s.r.o.;000000-2246083001;5500
CZ62909070;0000020230;SMC Industrial Automation  CZ s.r.o;CZ6227000000000046690211;
CZ63984211;0000021399;ASCO JOUCOMATIC  s.r.o.;000000-3139400002;7910
CZ6412090894;0000020177;JOSEF BOBR;000000-0260448231;0100
CZ64945201;0000023163;Media Representations, spol. s r.o.;000000-0478423563;0300
CZ6502082191;0000020225;Pavlíček František;000000-0563587319;0800
CZ699003336;0033916070;Z + M Partner, spol. s r. o.;000115-1262780267;0100
CZ7053051346;0033917353;Martina Kalkušová;000000-7135761001;5500
CZ70883521;0000021193;Univerzita Tomáše Bati;000027-1925270277;0100
CZ7802231239;0000022163;KOHOUT LUKÁ;000000-0182588406;0600
CZ8611184571;0033917323;Mgr.Michal Vrajík;000000-1049214047;3030
