CZ00011754;0000020102;Linde Gas a.s.;000502-0305466004;2700
CZ00030821;0033916215;CÍL, výrobní družstvo;000000-0000719701;0100
CZ00268577;0000020550;Siemens, s.r.o.;CZ4927000000001013384394;
CZ00564737;0000020157;FESTO, spol. s r. o.;CZ7779100000003053600206;
CZ01567942;0033917536;ALUTEC K & K s.r.o.;000000-5175830009;4000
CZ02352991;0000023437;V-Grip s.r.o.;CZ1620600000000001090861;
CZ03438856;0033915838;INKOMO CZ s.r.o.;000000-0025204544;0600
CZ03573397;0033916245;EMK ELEKTRO s.r.o.;000000-0267799042;0300
CZ13497863;0000021974;Kvalita - družstvo služeb;000000-2111614071;2700
CZ14502992;0000020069;Českobudějovické pozemní stavby, sp;000000-2021173938;8040
CZ14869446;0000020184;HENNLICH s.r.o.;000000-6717778001;2700
CZ15527875;0000022913;TOP-ENVI Tech Brno spol s r.o.;000000-0153161024;0300
CZ25153919;0033915702;Adámková Reality JIH s.r.o.;000000-3602726339;0800
CZ25163027;0000021305;Uniprojekta s.r.o.;000000-6083040207;0100
CZ25174738;0000022972;AB velkoobchod s.r.o.;000000-1709692061;2700
CZ25186973;0000021103;Sahan CB  s. r. o.;000000-0215668411;0300
CZ25196375;0033917221;Bohemia Stone Spedition s.r.o.;000000-1052002133;5500
CZ25354523;0000020079;Řempo CB, a.s.;000107-4039470227;0100
CZ25487515;0000020801;TYMA  CZ, s.r.o.;000000-0190134367;0300
CZ25683446;0000020886;DHL Expres Czech Republic s.r.o.;000000-0523206008;2700
CZ25765647;0000022806;SPEED PRESS Plus a.s.;000000-0270483276;0300
CZ25820702;0000020902;MANUTAN-vybavení skladů,kancel.;000000-0050007323;6200
CZ26007568;0000021984;Easytherm CZ s.r.o.;000000-2800166972;2010
CZ26025230;0000020878;KSQ spol.s r.o.;000000-0153345077;0600
CZ26025876;0033917037;SOPHIA,jazykové služby s.r.o.;000000-0258175510;0300
CZ26055210;0000021476;PK  SERVIS tech.součásti s.r.o.;000000-0178687145;0600
CZ26065258;0000023390;Albatros Prachatice, s.r.o.;000000-7100007578;8040
CZ26069997;0000021160;Plojhar s.r.o.;CZ3255000000005002202434;
CZ26073013;0000021587;DALUKU - Tichelmann s.r.o.;000000-9921000217;0100
CZ26076519;0000022080;MIF TRANS S.R.O.;000000-0573395329;0800
CZ26080338;0033916035;Marták Logistics s.r.o.;000035-1941980287;0100
CZ26086140;0000021790;The Cambridgr Centre s.r.o.;000000-0195038219;0300
CZ26092336;0000022458;RM Chemicals spol. s r. o.;000000-0194942126;0300
CZ26092336;0000022458;RM Chemicals spol. s r. o.;000000-6686350001;5500
CZ26098261;0000022693;AMPARA s.r.o.;000000-2106470704;2700
CZ26108313;0000021995;KVALITA náhradní plnění s.r.o.;000000-2500068975;2010
CZ26111047;0000022750;TOOLS CB s.r.o.;000000-0253952149;0300
CZ26152011;0000021470;HSH Chemie, s.r.o.;000000-2106937474;2700
CZ26311208;0033914578;PREOL a.s.;CZ1001000000359752990247;
CZ26689537;0000021907;PolyOne ČR, s.r.o.;CZ4026000000002040480300;
CZ26765799;0000022595;CELKOM Praha,spol. s r.o.;000000-2090584319;0800
CZ26819201;0000020840;LEŇO stabil Czech s.r.o.;000086-5758770247;0100
CZ27112039;0000021387;Tesa tape s.r.o.;000000-2042460207;2600
CZ27127010;0000021068;Schindler CZ, a.s.;000000-0900476493;0300
CZ27633870;0000023171;Techni Trade s.r.o.;000000-8900074888;2600
CZ27637166;0033823388;Euro VAT Reclaim, s.r.o.;CZ9720100000002800691662;
CZ27890201;0000022482;Yuncheng Plate-Making CZ, s.r.o.;CZ1508000000001773552223;
CZ28063601;0000022226;Pavel Fišer Šuptrans s.r.o.;000000-5002005633;5500
CZ28073274;0000022266;Labelservis, s. r. o.;000000-5678498001;5500
CZ28090683;0000020302;T&T etikety s.r.o.;000000-3729087001;5500
CZ28104056;0033914692;BALTRO s.r.o.;000000-0229491725;0300
CZ28104056;0033914692;BALTRO s.r.o.;CZ6803000000000267821975;
CZ28132408;0000023026;DELNET CZ s.r.o.;000000-4200264607;6800
CZ28140923;0033914091;TOMAKO s.r.o.;000000-2113140818;2700
CZ28159888;0000023269;ProVisTech s.r.o.;000000-7235340001;5500
CZ28763661;0000022644;TAPEX EU s.r.o.;CZ1808000000000005612612;
CZ28831381;0033916762;ALGORIT CZECH, s.r.o.;000000-7492689001;5500
CZ29050821;0000022843;DVOŘÁK a spol., advokátní kancelář;000000-2136834329;0800
CZ41189671;0000022847;TOTAL  ČESKÁ REPUBLIKA s.r.o.;CZ5303001712800117386023;
CZ42324254;0000020119;OTIS a.s.;000000-0010804651;0100
CZ43871143;0000020099;JOHNSON CONTROLS INTERNATIONAL, spo;000000-2106869109;2700
CZ44004036;0000021987;INVOS, spol. s r.o.;000000-0002108082;0800
CZ44265077;0000021328;A.T.A. technik spol. s r.o.;000000-1099541011;0100
CZ44849036;0000020607;SICK spol. s r.o.;000000-3076100001;7910
CZ45022216;0000020369;ČERPADLA NEPTUN spol. s r.o.;000000-0758641231;0100
CZ45242143;0000021842;Nordmann Rassmann Czech Rep. s.r.o.;CZ0927000000001012146036;
CZ45791813;0000020376;Murtfeldt Plasty s.r.o.;000000-2504300102;2600
CZ47114983;0000020068;ČESKÁ POŠTA s.p.;000000-0133790245;0300
CZ47123591;0000020100;JUNGHEINRICH  (ČR) s.r.o.;000000-1137782001;2700
CZ47238704;0000022081;SIBOX s.r.o.;000000-0272774624;0300
CZ47906839;0000021021;Datascan, s. r. o.;000000-8129750001;5500
CZ48111198;0000022605;ACTIVA spol. s r. o.;000000-0500032893;0300
CZ48117820;0000021372;RICOH Czech Republic s.r.o.;000000-0013149111;0100
CZ48203360;0000020169;B & K České Budějovice  spol. s r.o;000000-0512076893;0300
CZ49437330;0000020268;Reca spol. s r.o.;000000-0006210682;0800
CZ49546694;0033916811;THIMM Obaly, k.s.;CZ5908000000000000951412;
CZ49613464;0000020176;BRENNTAG CR s.r.o.;000000-1001044253;5500
CZ49614932;0000020253;Atlas Copco  s.r.o.;000000-3142900024;7910
CZ510715233;0000020096;Ivan Nadberežný - INPRESS;000000-0252279538;0300
CZ520527217;0000021112;Bohumil Doležal;000000-0199448231;0100
CZ5408223700;0000020129;Š + H  LOŽISKA  Šimek Karel;000000-0212105293;0300
CZ60192755;0000020347;ČEDOK  a. s.;000000-2108416269;2700
CZ60706091;0000022327;Vepak s.r.o.;CZ2801000000270619040217;
CZ60726415;0000020419;Böttcher ČR, k.s.;008010-0903072953;0300
CZ60827980;0033917888;STAVOKLIMA s.r.o.;000000-0070708231;0100
CZ60837152;0000021251;CORAX spol.s r.o.;000000-1002182535;2700
CZ61171077;0000020466;COMFORT SDRUŽENÍ a.s.;000000-4813660207;0100
CZ61503657;0000020228;FIMEX, spol. s  r. o.;CZ1108000000000006145462;
CZ61683566;0000022399;Explast, spol. s r.o.;CZ2035000000001330473809;
CZ61947024;0000020241;Haberkorn Ulmer  s.r.o.;000000-0101910708;0300
CZ62502956;0000021315;K+V Interiér, s.r.o.;000000-2246083001;5500
CZ64256642;0000020999;TURCK, s.r.o.;000027-2034320247;0100
CZ64581471;0000020507;BELTing, spol.s r.o.;000000-0116018923;0300
CZ64945201;0000023163;Media Representations, spol. s r.o.;000000-0478423563;0300
CZ6502082191;0000020225;Pavlíček František;000000-0563587319;0800
CZ699003336;0033916070;Z + M Partner, spol. s r. o.;000115-1262780267;0100
CZ70883521;0000021193;Univerzita Tomáše Bati;000027-1925270277;0100
CZ7507261685;0033916943;Daniel Benák;000107-4918850277;0100
CZ7610290688;0000023065;Makovský Libor;670100-2208122487;6210
