CZ00011754;0000020102;Linde Gas a.s.;000502-0305466004;2700
CZ00564737;0000020157;FESTO, spol. s r. o.;CZ7779100000003053600206;
CZ01810111;0000023374;Marták Sped s.r.o.;000107-5097330227;0100
CZ13497863;0000021974;Kvalita - družstvo služeb;000000-2400069006;2010
CZ14502992;0000020069;Českobudějovické pozemní stavby, sp;000107-6518280227;0100
CZ15502929;0000021636;RENOSTAV spol.s.r.o.;010006-1052143841;0100
CZ15886492;0000022645;UNICREDIT LEASING CZ A.S.;000000-0000046009;2700
CZ24289485;0000023221;Advanced AIRSEA Solutions, s.r.o.;CZ8203000000000251531834;
CZ24850390;0000023303;BFTech s.r.o.;000000-0256469048;0300
CZ25018205;0000020865;RETECH, s.r.o.;000000-9327960207;0100
CZ25164996;0000021660;ANTONI CZ s.r.o.;000000-7100005257;8040
CZ25169068;0000022142;CSS spedition s.r.o.;000000-0001824722;0800
CZ25174738;0000022972;AB velkoobchod s.r.o.;000000-1709692061;2700
CZ25177656;0000020511;DELNET s.r.o.;000000-4200188579;6800
CZ25186973;0000021103;Sahan CB  s. r. o.;000000-0215668411;0300
CZ25357425;0000020631;FABORY-CZ,s.r.o.;000000-0017625963;0300
CZ25422952;0000021446;Peter Cremer Central Europe s.r.o.;CZ4862000000000011751731;
CZ25422952;0000021446;Peter Cremer Central Europe s.r.o.;CZ1062000062180011751731;
CZ25588044;0000020796;BMC BRNO, s.r.o.;CZ3306000000000155206599;
CZ25683446;0000020886;DHL Expres Czech Republic s.r.o.;000000-0523206008;2700
CZ25765647;0000022806;SPEED PRESS Plus a.s.;000000-0139430267;0100
CZ25820702;0000020902;MANUTAN-vybavení skladů,kancel.;000000-0050007323;6200
CZ26007568;0000021984;Easytherm CZ s.r.o.;000000-2800166972;2010
CZ26016451;0000020757;T-PROFI JČ, s.r.o.;000000-0156210231;0600
CZ26018012;0000021950;J+M PAVLÁT INTERNATIONAL S.R.O.;000000-0412794943;0300
CZ26018128;0000020805;GRAND HOTEL ZVON s.r.o.;000000-1032009274;5500
CZ26019396;0000020958;EM Grafika s.r.o.;000000-0162053535;0300
CZ26021145;0000000005;Viscofan CZ s.r.o.;000000-0117171743;0300
CZ26021145;0000000005;Viscofan CZ s.r.o.;000000-6132243001;2700
CZ26021145;0000000005;Viscofan CZ s.r.o.;000000-1042008726;5500
CZ26024527;0033914794;VELIMPEX s.r.o. Dřevovýroba;CZ5155000000001012010286;
CZ26025230;0000020878;KSQ spol.s r.o.;000000-0153345077;0600
CZ26027691;0000021227;CRAVT  s.r.o.;000078-1290400217;0100
CZ26028182;0000021976;KCK cestovní kancelář s.r.o.;000000-0203055116;0300
CZ26056321;0000023426;Altamire Č.Budějovice s.r.o.;000000-0163061887;0600
CZ26065258;0000023390;Albatros Prachatice, s.r.o.;000000-7100007578;8040
CZ26073013;0000021587;Daluku, s.r.o.;000000-9921000217;0100
CZ26076519;0000022080;MIF TRANS S.R.O.;000000-0573395329;0800
CZ26078201;0000020091;E.ON Energie, a.s.;010014-0001703621;0100
CZ26078201;0000020091;E.ON Energie, a.s.;008010-0512045843;0300
CZ26086140;0000021790;The Cambridgr Centre s.r.o.;000000-0195038219;0300
CZ26092336;0000022458;RM Chemicals spol. s r. o.;000000-0194942126;0300
CZ26093839;0000023378;PS PATROL s.r.o.;000000-0572305379;0800
CZ26098261;0000022693;Ampara  s.r.o.;000000-2106470704;2700
CZ26102692;0000021645;Apenex;000000-0254861468;0300
CZ26108313;0000021995;KVALITA náhradní plnění s.r.o.;000000-2500068975;2010
CZ26111047;0000022750;TOOLS CB s.r.o.;000000-0253952149;0300
CZ26148544;0000020975;KWESTO s. r. o.;000000-3638600287;0100
CZ26689537;0000021907;PolyOne ČR, s.r.o.;CZ4026000000002040480300;
CZ26704153;0000022279;ERNST & YOUNG;000000-1411703100;8150
CZ26872072;0000022469;Den Braven Czech and Slovak s.r.o.;000019-0848810297;0100
CZ27127010;0000021068;Schindler CZ, a.s.;000000-0900476493;0300
CZ27420761;0000022583;UNIVAR Czech s.r.o.;CZ4835000000001330450607;
CZ27448843;0033914693;SERENA GS, s.r.o.;000000-1104328339;0800
CZ27633870;0000023171;Techni Trade s.r.o.;000000-8900074888;2600
CZ27756432;0000023408;C-FILTER FILTRY, s.r.o.;000000-0218240648;0300
CZ27830306;0000023300;B2B Partner s.r.o.;000043-6980790227;0100
CZ28075811;0000020130;PALIČKA JIŘÍ ochranné pomůcky;000000-0232481800;0300
CZ28090683;0000020302;T&T etikety s.r.o.;000000-3729087001;5500
CZ28104056;0033914692;BALTRO s.r.o.;000000-0229491725;0300
CZ28106504;0000023183;Petr Novotný s.r.o.;000043-4888840237;0100
CZ28132408;0000023026;DELNET CZ s.r.o.;000000-4200264607;6800
CZ28159888;0000023269;ProVisTech s.r.o.;000000-7235340001;5500
CZ28763661;0000022644;TAPEX EU s.r.o.;000000-0005506422;0800
CZ28763661;0000022644;TAPEX EU s.r.o.;CZ1808000000000005612612;
CZ28927125;0000022666;TECHNO-SERVICE CZ a.s.;000000-0534772339;0800
CZ29202574;0000022453;WEDISS TECH s.r.o.;000000-2200301309;2010
CZ29367077;0000023399;MEPL Industry s.r.o.;CZ5806000000000207885491;
CZ29383161;0000023379;ExaSoft Holding a.s.;000043-9635090207;0100
CZ41032004;0000022502;Z+M servis, spol. s r.o;000000-0009395993;0300
CZ42324254;0000020119;OTIS a.s.;000000-0010804651;0100
CZ43871143;0000020099;JOHNSON CONTROLS INTERNATIONAL, spo;000000-2106869109;2700
CZ44004036;0000021987;INVOS, spol. s r.o.;000000-0002108082;0800
CZ44265077;0000021328;A.T.A. technik spol. s r.o.;000000-1099541011;0100
CZ44849036;0000020607;SICK spol. s r.o.;000000-3076100001;7910
CZ45539928;0000020404;FISHER SCIENTIFIC s.r.o.;000000-0008187973;0300
CZ45787115;0000021601;KÜHNE+NAGEL spol.s.r.o.;000000-1233664101;2700
CZ45791813;0000020376;Murtfeldt Plasty s.r.o.;000000-2504300102;2600
CZ45791899;0000021589;Messer Eutectic Castolin spol.s r.o;000000-0010221771;6200
CZ45794707;0000022887;ARAMARK s.r.o.;000000-0300865153;0300
CZ46678212;0000020152;JIHOSTROJ a.s.;000000-4232430227;0100
CZ46678344;0000020161;TECHMAT, a.s.;000000-0219586659;0300
CZ46901876;0000021239;TART, s. r. o.;000000-0000135415;0300
CZ47123591;0000020100;JUNGHEINRICH  (ČR) s.r.o.;000000-1137782001;2700
CZ47239042;0000020546;STEINBAUER LECHNER spol. s r.o.;000000-0045000231;0100
CZ47667010;0000021847;LORIKA   CZ s.r.o.;000027-4182250227;0100
CZ47910381;0000023147;Institut pro testování a certifikac;000000-0012903661;0100
CZ47914378;0000021610;A.HARTRODT;DE83200800000575850600;
CZ47917091;0000021690;FLAGA s.r.o.;000019-1902510207;0100
CZ48111198;0000021577;ACTIVA spol. s r.o.;000000-0500032893;0300
CZ48203408;0000021424;HANET s.r.o.;000000-0032240009;2700
CZ48204641;0000020095;INKOMO spol. s r.o.;000000-0025204544;0600
CZ49023098;0000021773;RUMPOLD 01-VODŇANY s.r.o.;000000-0031067005;2700
CZ49279530;0000022309;HOSPODÁŘSKÁ KOMORA ČR;000000-0201578853;0600
CZ49613464;0000020176;BRENNTAG CR s.r.o.;000000-1001044253;5500
CZ49975366;0000021820;Gumex s.r.o.;000000-0673670113;0300
CZ500505286;0000021237;Grafoservis;000019-2213200267;0100
CZ510314372;0000020329;Tiskárna Josef Posekaný;000000-2500069871;2010
CZ520527217;0000021112;Bohumil Doležal;000000-0199448231;0100
CZ531230279;0000020608;ŽUŽO-LIDO Zdeněk Candra;000000-0132067063;0300
CZ5502251733;0000020580;JIŘÍ VONDRKA;000000-0637614544;0600
CZ5608031033;0000020159;OBZOR Rudolf Šimůnek;000000-0562535349;0800
CZ5705201997;0000020860;MUSÍLEK MILOSLAV kovoobrábění;000000-0112105958;0300
CZ5909180673;0000022545;Hanex - Josef Hájek;000000-0711663329;0800
CZ60069856;0000023348;Jatky Hradský s.r.o.;000000-0680031379;0800
CZ60192755;0000020347;ČEDOK  a. s.;000000-1800062263;0300
CZ60463031;0000020178;Mettler Toledo, s.r.o.;000000-5146387001;2700
CZ60703024;0000023015;Interflex s.r.o.;000000-5003919007;2600
CZ60837152;0000021251;CORAX spol.s r.o.;000000-1002182535;2700
CZ60837152;0000021251;CORAX spol.s r.o.;CZ3427000000002106232642;
CZ60849657;0000020185;ČEVAK a.s.;000000-5002006468;5500
CZ61503657;0000020228;FIMEX, spol. s  r. o.;CZ1727000000005161878060;
CZ61947024;0000020241;Haberkorn Ulmer  s.r.o.;000000-0101910708;0300
CZ62580922;0000020572;KOLBER  servis, s.r.o.;000000-3583810227;0100
CZ62909070;0000020230;SMC Industrial Automation  CZ s.r.o;000000-0046690000;2700
CZ62910370;0000020335;NOVATO spol. s r.o.;000019-3950090277;0100
CZ6360021954;0000020052;Ivana Týmalová TYKO;000000-0912121323;0300
CZ63996332;0000000009;GAMEX;000000-2106875410;2700
CZ64084761;0000020490;VAE Prosys s.r.o.;CZ5726000000005108638009;
CZ64949681;0000021836;T-mobile Czech Republic, a.s.;000019-2271190247;0100
CZ6502082191;0000020225;Pavlíček František;000000-0563587319;0800
CZ6502191410;0000020556;NOVOTNÝ PETR výr.a obch.firma;000000-0201448231;0100
CZ6808190312;0000021168;EMK ELEKTRO;000000-0012129143;0300
CZ7302051218;0000020918;Kolář Martin;000000-2400071130;2010
