CZ00030821;0033916215;CÍL, výrobní družstvo;000000-0000719701;0100
CZ00510386;0000022411;DIATECH - PRAHA, spol. s r. o.;000019-6008230297;0100
CZ00564737;0000020157;FESTO, spol. s r. o.;CZ7779100000003053600206;
CZ00582204;0000022640;ESSA, spol. s r.o.;000000-5822040012;5500
CZ01810111;0000023374;Marták Sped s.r.o.;000107-5097330227;0100
CZ02412756;0033916124;SGM CB s.r.o.;000000-2109513837;2700
CZ03301061;0033916056;Advanced AIRSEA s.r.o.;CZ6203000000000266714537;
CZ03301061;0033916056;Advanced AIRSEA s.r.o.;000000-0284492384;0300
CZ03438856;0033915838;INKOMO CZ s.r.o.;000000-0025204544;0600
CZ03573397;0033916245;EMK ELEKTRO s.r.o.;000000-0267799042;0300
CZ13497863;0000021974;Kvalita - družstvo služeb;000000-2400069006;2010
CZ14502992;0000020069;Českobudějovické pozemní stavby, sp;000107-6518280227;0100
CZ14869446;0000020184;HENNLICH s.r.o.;000000-6717778001;2700
CZ18626971;0000020103;MERCK spol s r.o.;000000-3137600019;7910
CZ24284734;0000022479;DEL a.s.;000000-4010037729;6800
CZ24850390;0000023303;BFTech s.r.o.;CZ9403000000000267821895;
CZ25097156;0000021341;ALUTEC K&K, a.s.;000000-0001398882;0800
CZ25122401;0000020617;TQ3 Travel Solutions Czech Republic;000000-0010551025;6200
CZ25163566;0000022716;VYZA TRABSM v.o.s.;000000-0212095013;0300
CZ25164996;0000021660;ANTONI CZ s.r.o.;000000-7100005257;8040
CZ25174738;0000022972;AB velkoobchod s.r.o.;000000-1709692061;2700
CZ25186973;0000021103;Sahan CB  s. r. o.;000000-0215668411;0300
CZ25194798;0000020699;PPL JIŽNÍ ÈECHY, spol. s.r.o.;000000-0522821076;2700
CZ25354523;0000020079;Řempo CB, a.s.;000107-4039470227;0100
CZ25357425;0000020631;FABORY-CZ,s.r.o.;000000-0017625963;0300
CZ25422952;0000021446;Peter Cremer Central Europe s.r.o.;CZ4862000000000011751731;
CZ25487515;0000020801;TYMA  CZ, s.r.o.;000000-0190134367;0300
CZ25579703;0033915725;SEZAKO Prostějov s.r.o.;000000-0150649016;0600
CZ25579835;0000022248;MESING, spol. s r.o.;000000-0035035000;2700
CZ25588044;0000020796;BMC BRNO, s.r.o.;CZ3306000000000155206599;
CZ25588354;0000021536;T.E.A. TECHNIK  s.r.o.;000027-4065320257;0100
CZ25637151;0000021092;NZ SERVIS, spol. s r.o.;000019-8698300297;0100
CZ25681672;0000022807;Grolman s.r.o.;CZ1027000000004762049036;
CZ25692089;0000020817;IMI International s.r.o.;000000-1000397049;3500
CZ25765647;0000022806;SPEED PRESS Plus a.s.;000000-0139430267;0100
CZ25820702;0000020902;MANUTAN-vybavení skladů,kancel.;000000-0050007323;6200
CZ25977580;0000021578;VEIDEC s.r.o.;000000-0001399922;0800
CZ26007568;0000021984;Easytherm CZ s.r.o.;000000-2800166972;2010
CZ26018012;0000021950;J+M PAVLÁT INTERNATIONAL S.R.O.;000000-0412794943;0300
CZ26018128;0000020805;GRAND HOTEL ZVON s.r.o.;000000-1032009274;5500
CZ26019744;0000022521;Šumavský pramen distribuce s.r.o.;000000-7000014316;8040
CZ26024527;0033914794;VELIMPEX s.r.o. Dřevovýroba;000000-1012010286;5500
CZ26025230;0000020878;KSQ spol.s r.o.;000000-0153345077;0600
CZ26027691;0000021227;CRAVT  s.r.o.;000078-1290400217;0100
CZ26032953;0000021188;LENZE, s. r. o.;CZ2227000000002000219036;
CZ26055210;0000021476;PK  SERVIS tech.součásti s.r.o.;000000-0178687145;0600
CZ26065258;0000023390;Albatros Prachatice, s.r.o.;000000-7100007578;8040
CZ26069997;0000021160;Plojhar s.r.o.;CZ3255000000005002202434;
CZ26073013;0000021587;Daluku, s.r.o.;000000-9921000217;0100
CZ26080338;0033916035;Marták Logistics s.r.o.;000035-1941980287;0100
CZ26092336;0000022458;RM Chemicals spol. s r. o.;000000-0194942126;0300
CZ26092336;0000022458;RM Chemicals spol. s r. o.;000000-6686350001;5500
CZ26093839;0000023378;PS PATROL s.r.o.;000000-0572305379;0800
CZ26098261;0000022693;AMPARA s.r.o.;000000-5002209898;5500
CZ26108313;0000021995;KVALITA náhradní plnění s.r.o.;000000-2500068975;2010
CZ26111047;0000022750;TOOLS CB s.r.o.;000000-0253952149;0300
CZ26148544;0000020975;KWESTO s. r. o.;000000-3638600287;0100
CZ26228181;0033915916;SENZA družstvo, chráněná dílna;000086-3215900237;0100
CZ26248026;0000023391;Zapletal-Kovo a.s.;000000-2108378805;2700
CZ26689537;0000021907;PolyOne ČR, s.r.o.;CZ4026000000002040480300;
CZ26704153;0000022279;ERNST & YOUNG;000000-1411703100;8150
CZ26819201;0000020840;LEŇO stabil Czech s.r.o.;000086-5758770247;0100
CZ26945843;0000023089;N-tek s.r.o.;000000-4200040101;6800
CZ26955130;0000023331;GRAVITECH s.r.o.;CZ4627000000002109983222;
CZ27067793;0000022633;EVERFIT hydraulika s.r.o.;000027-6610140227;0100
CZ27117171;0000022182;PEPPERL+FUCHS s.r.o.;000000-0010537354;6200
CZ27127010;0000021068;Schindler CZ, a.s.;000000-0900476493;0300
CZ27195031;0000022593;Essentra Components s.r.o.;000000-2044090107;2600
CZ27358917;0000022845;FOXON s.r.o.;000000-0993001349;0800
CZ27518922;0000022756;TECH-LIT s.r.o.;000000-1091996329;0800
CZ27518949;0000022627;TBA PLASTOVÉ OBALY S.R.O.;000000-0208899131;0600
CZ27612180;0000023441;Keller & Kalmbach;000000-0512769008;2700
CZ27633870;0000023171;Techni Trade s.r.o.;000000-8900074888;2600
CZ27766489;0000022066;PNEUMAX Automation s.r.o.;000000-0207022004;0300
CZ27890201;0000022482;Yuncheng Plate-Making CZ, s.r.o.;CZ1508000000001773552223;
CZ27925625;0033916303;Rajapack s.r.o;000000-0519489009;2700
CZ28063601;0000022226;Pavel Fišer Šuptrans s.r.o.;000000-5002005633;5500
CZ28090683;0000020302;T&T etikety s.r.o.;000000-3729087001;5500
CZ28104056;0033914692;BALTRO s.r.o.;000000-0229491725;0300
CZ28104056;0033914692;BALTRO s.r.o.;CZ6803000000000267821975;
CZ28106504;0000023183;Petr Novotný s.r.o.;000043-4888840237;0100
CZ28132408;0000023026;DELNET CZ s.r.o.;000000-4200264607;6800
CZ28140923;0033914091;TOMAKO s.r.o.;000107-4578920207;0100
CZ28289579;0000021257;PEKOM TRADE s.r.o;000000-2900223305;2010
CZ28569130;0000021498;Azurr-technology spol. s r.o.;CZ6806000000000193469365;
CZ28763661;0000022644;TAPEX EU s.r.o.;CZ1808000000000005612612;
CZ28927125;0000022666;TECHNO-SERVICE CZ a.s.;000000-0534772339;0800
CZ28980158;0000023146;Go parking s.r.o.;000000-1002314585;2700
CZ29383161;0000023379;ExaSoft Holding a.s.;000043-9635090207;0100
CZ41189671;0000022847;TOTAL  ČESKÁ REPUBLIKA s.r.o.;CZ5303001712800117386023;
CZ42324254;0000020119;OTIS a.s.;000000-0010804651;0100
CZ43774156;0033915942;ADAX, spol. s r.o.;CZ3301000000515430740247;
CZ43871143;0000020099;JOHNSON CONTROLS INTERNATIONAL, spo;000000-2106869109;2700
CZ43875572;0000021632;Služby, stavby, montáže;000000-0364546071;0100
CZ44004036;0000021987;INVOS, spol. s r.o.;000000-0002108082;0800
CZ44265077;0000021328;A.T.A. technik spol. s r.o.;000000-1099541011;0100
CZ44846029;0000020799;S&T CZ s.r.o.;000000-0117422733;0300
CZ44962878;0000021077;SK Label, spol. s r. o.;000000-0069971024;2700
CZ45022534;0033916028;MONDI BUPAK s.r.o.;CZ4727000000002108454484;
CZ450311419;0033915788;Ing.Miloš Snášel   -  APCHEM;000000-0246742231;0100
CZ45242143;0000021842;Nordmann Rassmann Czech Rep. s.r.o.;CZ0927000000001012146036;
CZ45308187;0000022900;TOYOTA MATERIAL HANDLING CZ s.r.o.;CZ1326000000002053090301;
CZ45350001;0000021851;Barentz, spol. s r.o.;000000-0361045351;0100
CZ45787115;0000021601;KÜHNE+NAGEL spol.s.r.o.;000000-1233664101;2700
CZ45789011;0000021335;CNI  tisk servis, spol. s r.o.;000000-5020012706;5500
CZ45791813;0000020376;Murtfeldt Plasty s.r.o.;000000-2504300102;2600
CZ45794707;0000022887;ARAMARK s.r.o.;000000-0300865153;0300
CZ46901876;0000021239;TART, s. r. o.;000000-0000135415;0300
CZ46966447;0000020704;MERCI, s.r.o.;000000-0382408043;0300
CZ47123591;0000020100;JUNGHEINRICH  (ČR) s.r.o.;000000-1137782001;2700
CZ47239042;0000020546;STEINBAUER LECHNER spol. s r.o.;000000-0045000231;0100
CZ47667010;0000021847;LORIKA   CZ s.r.o.;000027-4182250227;0100
CZ48111198;0000022605;ACTIVA spol. s r. o.;000000-0500032893;0300
CZ48117820;0000021372;IMPROMAT CZ spol. s r. o.;000000-0013149111;0100
CZ48207322;0000022844;Auto Ševèík CZ, spol. s r.o.;000000-4154050287;0100
CZ48363529;0033916237;Schwer Fittings, s.r.o.;008010-0804039963;0300
CZ49023098;0000021773;RUMPOLD 01-VODŇANY s.r.o.;000000-0031067005;2700
CZ49437330;0000020268;Reca spol. s r.o.;000000-0006210682;0800
CZ49613464;0000020176;BRENNTAG CR s.r.o.;000000-1001044253;5500
CZ49614932;0000020253;Atlas Copco  s.r.o.;000000-3142900024;7910
CZ49966065;0000020364;PROFIPRINT spol. s r.o.;000000-0372585273;0300
CZ510715233;0000020096;Ivan Nadberežný - INPRESS;000000-0252279538;0300
CZ520527217;0000021112;Bohumil Doležal;000000-0199448231;0100
CZ531028266;0000020433;JUDr.Šimák ADVOKÁTNÍ KANCELÁØ;000000-1052002002;5500
CZ531230279;0000020608;ŽUŽO-LIDO Zdeněk Candra;000000-0132067063;0300
CZ5408223700;0000020129;Š + H  LOŽISKA  Šimek Karel;000000-0212105293;0300
CZ5510201554;0000020652;ING.JAN ŠPIDLEN montáž el.instalací;000000-0553240231;5500
CZ5705201997;0000020860;MUSÍLEK MILOSLAV kovoobrábění;000000-0661710309;0800
CZ5709282161;0033916163;Miroslav Kubík;000000-0570907309;0800
CZ5808031570;0000023188;Jiří Hemmel   J.H.Instal;000000-0168461070;0600
CZ5858041365;0000023355;Dagmar Rotreklová;000000-2631839514;0600
CZ60069856;0000023348;Jatky Hradský s.r.o.;000000-0680031379;0800
CZ60192755;0000020347;ČEDOK  a. s.;000000-2108416269;2700
CZ60193336;0000020113;Telephonica O2 Czech Republic, a.s.;000027-4908440207;0100
CZ60706091;0000022327;Vepak s.r.o.;CZ2801000000270619040217;
CZ60826622;0000023422;Reality Spektrum Cepák s.r.o.;000000-0812018353;0300
CZ60827718;0000023446;Sběrné suroviny, a.s.;000000-0006023852;0800
CZ60837152;0000021251;CORAX spol.s r.o.;000000-1002182535;2700
CZ60850353;0000020296;KOSTAX spol. s r.o.;000000-0003540176;0300
CZ60851708;0000021565;SPH Elektro s.r.o.;000000-0003441944;0300
CZ6103191765;0000020979;Šebesta Ivo;000000-0158999045;0300
CZ61063916;0000023180;ALD Automotive s.r.o.;000000-1162730166;0100
CZ61498882;0000021892;PORTA s.r.o.;000000-0000035502;5400
CZ61500780;0000020449;SCHENKER, spol. s r.o.;CZ0555000000005003004819;
CZ61503657;0000020228;FIMEX, spol. s  r. o.;000000-0006145382;0800
CZ61503657;0000020228;FIMEX, spol. s  r. o.;CZ1108000000000006145462;
CZ61682918;0033916290;TESORT, spol. s r.o.;000051-8086270277;0100
CZ61947024;0000020241;Haberkorn Ulmer  s.r.o.;000000-0101910708;0300
CZ6207101670;0000021700;Ing. Martin Masopust - SKV;000000-2102706951;2700
CZ62502891;0000023383;PROSTOR - desing s.r.o;000000-6604730001;5500
CZ62502956;0000021315;K+V Interiér, s.r.o.;000000-2246083001;5500
CZ62909070;0000020230;SMC Industrial Automation  CZ s.r.o;000000-0046690000;2700
CZ63482576;0000022197;Cominfo a.s.;000000-4080006311;6800
CZ6360021954;0000020052;Ivana Týmalová TYKO;000000-0912121323;0300
CZ63984211;0000021399;ASCO JOUCOMATIC  s.r.o.;000000-3139400002;7910
CZ63995522;0000021658;Takos, s.r.o.;000000-0211725511;0300
CZ6412090894;0000020177;JOSEF BOBR;000000-0260448231;0100
CZ64945201;0000023163;Media Representations, spol. s r.o.;000000-0478423563;0300
CZ64949681;0000021836;T-mobile Czech Republic, a.s.;000019-2235210247;0300
CZ6502082191;0000020225;Pavlíček František;000000-0563587319;0800
CZ65141849;0033912770;PEGA-VEL, a.s.;000000-4200088420;6800
CZ680502074;0033910999;Visko Teepak N.V.;BE61733054842517;
CZ6808190312;0000021168;EMK ELEKTRO;000000-0012129143;0300
CZ683392448;0000020289;GKN-Service-Austria;000000-0030081008;2700
CZ699001996;0000020101;KPMG Èeská republika s.r.o.;000000-0002518612;0800
CZ699003336;0033916070;Z + M Partner, spol. s r. o.;000000-0003724952;0800
CZ70101191;0033916040;Česká společnost pro údržbu;000000-0081769339;0800
