CZ00477265;0000023427;KOVOTEX s.r.o.;000000-0009616231;0100
CZ00538264;0000020258;SIDAT, spol.s r.o.;000000-0216026373;0300
CZ00564737;0000020157;FESTO, spol. s r. o.;CZ7779100000003053600206;
CZ00582204;0000022640;ESSA, spol. s r.o.;000000-5822040012;5500
CZ01810111;0000023374;Marták Sped s.r.o.;000107-5097330227;0100
CZ02517116;0000023449;Taktiq Communications s.r.o.;000107-6305860287;0100
CZ03438856;0033915838;INKOMO CZ s.r.o.;000000-0025204544;0600
CZ13497863;0000021974;Kvalita - družstvo služeb;000000-2400069006;2010
CZ14502992;0000020069;Českobudějovické pozemní stavby, sp;000107-6518280227;0100
CZ18626971;0000020103;MERCK spol s r.o.;000000-3137600019;7910
CZ24289485;0000023221;Advanced AIRSEA Solutions, s.r.o.;000000-0251190179;0300
CZ24289485;0000023221;Advanced AIRSEA Solutions, s.r.o.;CZ8203000000000251531834;
CZ24289485;0000023221;Advanced AIRSEA Solutions, s.r.o.;CZ4603000000000251532191;
CZ24289680;0033915824;HAHN Automation, sr.o.;CZ6568000000001200176558;
CZ24850390;0000023303;BFTech s.r.o.;CZ9403000000000267821895;
CZ25111060;0033915590;Ferag CZ, s.r.o.;000019-3319780217;0100
CZ25120581;0000020593;SEW-EURODRIVE CZ  s.r.o.;000000-1114610004;2700
CZ25163566;0000022716;VYZA TRABSM v.o.s.;000000-0212095013;0300
CZ25174738;0000022972;AB velkoobchod s.r.o.;000000-1709692061;2700
CZ25177656;0000020511;DELNET s.r.o.;000000-4200188579;6800
CZ25194798;0000020699;PPL JIŽNÍ ÈECHY, spol. s.r.o.;000000-0522821076;2700
CZ25231359;0000021144;VSK PROFI s.r.o.;000000-6267666001;5500
CZ25422952;0000021446;Peter Cremer Central Europe s.r.o.;CZ4862000000000011751731;
CZ25588044;0000020796;BMC BRNO, s.r.o.;CZ3306000000000155206599;
CZ25637151;0000021092;NZ SERVIS, spol. s r.o.;000019-8698300297;0100
CZ25683446;0000020886;DHL Expres Czech Republic s.r.o.;000000-0523206008;2700
CZ25765647;0000022806;SPEED PRESS Plus a.s.;000000-0139430267;0100
CZ25781049;0033915857;DREAMland, spol. s r.o.;000000-0204124427;0300
CZ25820702;0000020902;MANUTAN-vybavení skladů,kancel.;000000-0050007323;6200
CZ26007568;0000021984;Easytherm CZ s.r.o.;000000-2800166972;2010
CZ26018012;0000021950;J+M PAVLÁT INTERNATIONAL S.R.O.;000000-0412794943;0300
CZ26019744;0000022521;Šumavský pramen distribuce s.r.o.;000000-0172809164;0300
CZ26019744;0000022521;Šumavský pramen distribuce s.r.o.;000000-7000014316;8040
CZ26024527;0033914794;VELIMPEX s.r.o. Dřevovýroba;000000-1012010286;5500
CZ26027691;0000021227;CRAVT  s.r.o.;000078-1290400217;0100
CZ26032953;0000021188;LENZE, s. r. o.;000000-2000219001;2700
CZ26032953;0000021188;LENZE, s. r. o.;CZ2227000000002000219036;
CZ26065258;0000023390;Albatros Prachatice, s.r.o.;000000-7100007578;8040
CZ26069997;0000021160;Plojhar s.r.o.;CZ3255000000005002202434;
CZ26073013;0000021587;Daluku, s.r.o.;000000-9921000217;0100
CZ26076306;0000021585;Kuboušek, s.r.o.;000000-4200040080;6800
CZ26076519;0000022080;MIF TRANS S.R.O.;000000-0573395329;0800
CZ26076519;0000022080;MIF TRANS S.R.O.;000000-3012002402;5500
CZ26078201;0000020091;E.ON Energie, a.s.;010014-0001703621;0100
CZ26092336;0000022458;RM Chemicals spol. s r. o.;000000-0194942126;0300
CZ26092336;0000022458;RM Chemicals spol. s r. o.;000000-6686350001;5500
CZ26098261;0000022693;Ampara  s.r.o.;000000-2106470704;2700
CZ26098261;0000022693;Ampara  s.r.o.;000000-5002209898;5500
CZ26102692;0000021645;Apenex;000000-0254861468;0300
CZ26108313;0000021995;KVALITA náhradní plnění s.r.o.;000000-2500068975;2010
CZ26148544;0000020975;KWESTO s. r. o.;000000-3638600287;0100
CZ26689537;0000021907;PolyOne ČR, s.r.o.;CZ4026000000002040480300;
CZ26704153;0000022279;ERNST & YOUNG;000000-1411703100;8150
CZ26810093;0033915949;Bartoň a Partner s.r.o.;000000-0259358650;0300
CZ26819201;0000020840;LEŇO stabil Czech s.r.o.;000086-5758770247;0100
CZ26955130;0000023331;GRAVITECH s.r.o.;CZ4627000000002109983222;
CZ27067793;0000022633;EVERFIT hydraulika s.r.o.;000027-6610140227;0100
CZ27249379;0000022061;VELOX CMS s.r.o.;CZ9303000000000261656884;
CZ27410307;0000023265;EN-ART CZ s.r.o.;000043-2402440227;0100
CZ27420761;0000022583;UNIVAR Czech s.r.o.;000000-1000450604;3500
CZ27448843;0033914693;SERENA GS, s.r.o.;000000-1104328339;0800
CZ27612180;0000023441;Keller & Kalmbach;000000-0512769008;2700
CZ27633870;0000023171;Techni Trade s.r.o.;000000-8900074888;2600
CZ27779556;0033915929;ATS aplikované technické systémy s.;000107-0501120297;0100
CZ27890201;0000022482;Yuncheng Plate-Making CZ, s.r.o.;CZ1508000000001773552223;
CZ28063601;0000022226;Pavel Fišer Šuptrans s.r.o.;000000-5002005633;5500
CZ28073274;0000022266;Labelservis, s. r. o.;000000-5678498001;5500
CZ28075811;0000020130;PALIČKA JIŘÍ ochranné pomůcky;000000-0232481800;0300
CZ28090683;0000020302;T&T etikety s.r.o.;000000-3729087001;5500
CZ28104056;0033914692;BALTRO s.r.o.;000000-0229491725;0300
CZ28104056;0033914692;BALTRO s.r.o.;CZ6803000000000267821975;
CZ28106504;0000023183;Petr Novotný s.r.o.;000043-4888840237;0100
CZ28109945;0033915398;TAXI Budějovice;000000-4676204001;5500
CZ28132408;0000023026;DELNET CZ s.r.o.;000000-4200264607;6800
CZ28140923;0033914091;TOMAKO s.r.o.;000107-4578920207;0100
CZ28159888;0000023269;ProVisTech s.r.o.;000000-7235340001;5500
CZ28189264;0000022765;AGILITY LOGISTICS S.R.O.;000000-1002318850;2700
CZ28189264;0000022765;AGILITY LOGISTICS S.R.O.;CZ5627000000002102731225;
CZ28569130;0000021498;Azurr-technology spol. s r.o.;CZ6806000000000193469365;
CZ28763661;0000022644;TAPEX EU s.r.o.;CZ1808000000000005612612;
CZ28980158;0000023146;Go parking s.r.o.;000000-1002314585;2700
CZ29383161;0000023379;ExaSoft Holding a.s.;000043-9635090207;0100
CZ41032004;0000022502;Z+M servis, spol. s r.o;000000-0003269312;0800
CZ43871143;0000020099;JOHNSON CONTROLS INTERNATIONAL, spo;000000-2106869109;2700
CZ44004036;0000021987;INVOS, spol. s r.o.;000000-0002108082;0800
CZ44265077;0000021328;A.T.A. technik spol. s r.o.;000000-1099541011;0100
CZ44846029;0000020799;S&T CZ s.r.o.;000000-0117422733;0300
CZ45242143;0000021842;Nordmann Rassmann Czech Rep. s.r.o.;CZ0927000000001012146036;
CZ45308187;0000022900;TOYOTA MATERIAL HANDLING CZ s.r.o.;000000-2053090109;2600
CZ45791813;0000020376;Murtfeldt Plasty s.r.o.;000000-2504300102;2600
CZ45794707;0000022887;ARAMARK s.r.o.;000000-0300865153;0300
CZ46901876;0000021239;TART, s. r. o.;000000-0000135415;0300
CZ47123591;0000020100;JUNGHEINRICH  (ČR) s.r.o.;CZ6001000000000120819088;
CZ47123591;0000020100;JUNGHEINRICH  (ČR) s.r.o.;000000-1137782001;2700
CZ47239042;0000020546;STEINBAUER LECHNER spol. s r.o.;000000-0045000231;0100
CZ47667010;0000021847;LORIKA   CZ s.r.o.;000027-4182250227;0100
CZ47910381;0000021874;INSTITUT PRO TESTOVÁNÍ A CERTIFIKAC;000000-0012903661;0100
CZ47917091;0000021690;FLAGA s.r.o.;000019-1902510207;0100
CZ48038920;0000021876;Resinex Czech Republic, s. r. o.;BE10068898421404;
CZ48111198;0000022605;ACTIVA spol. s r. o.;000000-0500032893;0300
CZ48117820;0000021372;IMPROMAT CZ spol. s r. o.;000000-0013149111;0100
CZ48204641;0000020095;INKOMO spol. s r.o.;000000-0025204544;0600
CZ49023098;0000021773;RUMPOLD 01-VODŇANY s.r.o.;000000-0031067005;2700
CZ49437330;0000020268;Reca spol. s r.o.;000000-2025565031;2700
CZ49613464;0000020176;BRENNTAG CR s.r.o.;000000-1001044253;5500
CZ49614932;0000020253;Atlas Copco  s.r.o.;000000-3142900024;7910
CZ49966065;0000020364;PROFIPRINT spol. s r.o.;000000-0372585273;0300
CZ49975366;0000021820;Gumex s.r.o.;000000-0673670113;0300
CZ510715233;0000020096;Ivan Nadberežný - INPRESS;000000-0252279538;0300
CZ5705201997;0000020860;MUSÍLEK MILOSLAV kovoobrábění;000000-0112105958;0300
CZ5909180673;0000022545;Hanex - Josef Hájek;000000-0711663329;0800
CZ60069856;0000023348;Jatky Hradský s.r.o.;000000-0680031379;0800
CZ60111461;0000022130;Quittner& Schimek;000000-0161052709;0300
CZ60192755;0000020347;ČEDOK  a. s.;000000-2108416269;2700
CZ60463031;0000020178;Mettler Toledo, s.r.o.;000000-5146387001;2700
CZ60467550;0000020650;Schneider Electric CZ, s.r.o.;000000-0007900271;0100
CZ60837152;0000021251;CORAX spol.s r.o.;000000-1002182535;2700
CZ60837152;0000021251;CORAX spol.s r.o.;CZ3427000000002106232642;
CZ60851708;0000021565;SPH Elektro s.r.o.;000000-0003441944;0300
CZ61503657;0000020228;FIMEX, spol. s  r. o.;CZ5827000000005161878001;
CZ61503657;0000020228;FIMEX, spol. s  r. o.;CZ1727000000005161878060;
CZ6207101670;0000021700;Ing. Martin Masopust - SKV;000000-2102706951;2700
CZ62502956;0000021315;K+V Interiér, s.r.o.;000000-2246083001;5500
CZ62909070;0000020230;SMC Industrial Automation  CZ s.r.o;000000-0046690000;2700
CZ62910370;0000020335;NOVATO spol. s r.o.;000019-3950090277;0100
CZ6312141429;0000023130;Ivo Cháma;000000-0261706001;5500
CZ63482576;0000022197;Cominfo a.s.;000000-4080006311;6800
CZ6360021954;0000020052;Ivana Týmalová TYKO;000000-0912121323;0300
CZ63984211;0000021399;ASCO JOUCOMATIC  s.r.o.;000000-3139400002;7910
CZ6410120541;0000020239;SARTALEX spol. S r.o.;000000-3786950297;0100
CZ64949681;0000021836;T-mobile Czech Republic, a.s.;000019-2235210247;0300
CZ6502082191;0000020225;Pavlíček František;000000-0563587319;0800
CZ680502074;0033910999;Visko Teepak N.V.;BE61733054842517;
CZ6808190312;0000021168;EMK ELEKTRO;000000-0012129143;0300
