CZ00011754;0000020102;Linde Gas a.s.;000502-0305466004;2700
CZ00030821;0033916215;CÍL, výrobní družstvo;000000-0000719701;0100
CZ00250601;0033916613;Město Netolice;000000-0000925281;0100
CZ00268577;0000020550;Siemens, s.r.o.;CZ4927000000001013384394;
CZ00558851;0000020943;Uniprox spol. s r. o.;000000-0245017652;0300
CZ00564737;0000020157;FESTO, spol. s r. o.;CZ7779100000003053600206;
CZ00582204;0000022640;ESSA, spol. s r.o.;000000-5822040012;5500
CZ00674893;0000020407;Elson spol. s r.o.;000000-0428440111;0100
CZ01756711;0033916038;DELIO s.r.o.;000000-2900430099;2010
CZ01810111;0000023374;Marták Sped s.r.o.;000107-5097330227;0100
CZ02412756;0033916124;SGM CB s.r.o.;000000-2109513837;2700
CZ02517116;0000023449;Taktiq Communications s.r.o.;000107-6305860287;0100
CZ03301061;0033916056;Advanced AIRSEA s.r.o.;CZ6203000000000266714537;
CZ03301061;0033916056;Advanced AIRSEA s.r.o.;000000-0284492384;0300
CZ03438856;0033915838;INKOMO CZ s.r.o.;000000-0025204544;0600
CZ03573397;0033916245;EMK ELEKTRO s.r.o.;000000-0267799042;0300
CZ13497791;0000020420;HERBIA spol.s r.o.;000000-2813049329;0800
CZ13497863;0000021974;Kvalita - družstvo služeb;000000-2400069006;2010
CZ13692151;0000023137;RIGO s.r.o.;000000-0104378470;0300
CZ14502992;0000020069;Českobudějovické pozemní stavby, sp;000107-6518280227;0100
CZ14869446;0000020184;HENNLICH s.r.o.;000000-6717778001;2700
CZ18236065;0000020532;CompAct Bohemia s.r.o.;000000-0226740351;0100
CZ18626971;0000020103;MERCK spol s r.o.;000000-3137600019;7910
CZ25120581;0000020593;SEW-EURODRIVE CZ  s.r.o.;000000-1114610004;2700
CZ25133918;0000021221;PURE SOLVE Česká republika s. r.o.;000027-9229770207;0100
CZ25134701;0000021180;EKO-KOM, a. s.;000000-1000366402;3500
CZ25163566;0000022716;VYZA TRABSM v.o.s.;000000-0212095013;0300
CZ25164996;0000021660;ANTONI CZ s.r.o.;000000-7100005257;8040
CZ25174738;0000022972;AB velkoobchod s.r.o.;000000-1709692061;2700
CZ25186973;0000021103;Sahan CB  s. r. o.;000000-0215668411;0300
CZ25194798;0000020699;PPL JIŽNÍ ÈECHY, spol. s.r.o.;000000-0522821076;2700
CZ25354523;0000020079;Řempo CB, a.s.;000107-4039470227;0100
CZ25357425;0000020631;FABORY-CZ,s.r.o.;000000-0017625963;0300
CZ25422952;0000021446;Peter Cremer Central Europe s.r.o.;CZ4862000000000011751731;
CZ25637151;0000021092;NZ SERVIS, spol. s r.o.;000019-8698300297;0100
CZ25683446;0000020886;DHL Expres Czech Republic s.r.o.;000000-0523206008;2700
CZ25765647;0000022806;SPEED PRESS Plus a.s.;000000-0139430267;0100
CZ25765647;0000022806;SPEED PRESS Plus a.s.;000000-0270483276;0300
CZ25820702;0000020902;MANUTAN-vybavení skladů,kancel.;000000-0050007323;6200
CZ26007568;0000021984;Easytherm CZ s.r.o.;000000-2800166972;2010
CZ26016451;0000020757;T-PROFI JČ, s.r.o.;000000-0156210231;0600
CZ26018012;0000021950;J+M PAVLÁT INTERNATIONAL S.R.O.;000000-0412794943;0300
CZ26018128;0000020805;GRAND HOTEL ZVON s.r.o.;000000-1032009274;5500
CZ26019396;0000020958;EM Grafika s.r.o.;000000-0162053535;0300
CZ26019744;0000022521;Šumavský pramen distribuce s.r.o.;000000-7000014316;8040
CZ26026589;0000023195;ATS INVEST s.r.o.;000000-2106016413;2700
CZ26027691;0000021227;CRAVT  s.r.o.;000078-1290400217;0100
CZ26032953;0000021188;LENZE, s. r. o.;CZ2227000000002000219036;
CZ26036185;0033916388;Hoppichler Paletten;000000-0004015322;0800
CZ26065258;0000023390;Albatros Prachatice, s.r.o.;000000-7100007578;8040
CZ26069997;0000021160;Plojhar s.r.o.;CZ3255000000005002202434;
CZ26073013;0000021587;DALUKU - Tichelmann s.r.o.;000000-9921000217;0100
CZ26073897;0000022764;INOMECH s.r.o.;000000-0189708001;0300
CZ26076306;0000021585;Kuboušek, s.r.o.;CZ7568000000001200017880;
CZ26076306;0000021585;Kuboušek, s.r.o.;000000-4200040080;6800
CZ26076420;0000022574;PISKAČ a syn a.s.;000000-0032383018;2700
CZ26076519;0000022080;MIF TRANS S.R.O.;000000-0573395329;0800
CZ26078201;0000020091;E.ON Energie, a.s.;010014-0001703621;0100
CZ26080338;0033916035;Marták Logistics s.r.o.;000035-1941980287;0100
CZ26086140;0000021790;The Cambridgr Centre s.r.o.;000000-0195038219;0300
CZ26091747;0000021982;PRECITOOL CZ s.r.o.;000000-4200400410;6800
CZ26092336;0000022458;RM Chemicals spol. s r. o.;000000-0194942126;0300
CZ26092336;0000022458;RM Chemicals spol. s r. o.;000000-6686350001;5500
CZ26093839;0000023378;PS PATROL s.r.o.;000000-0572305379;0800
CZ26098261;0000022693;AMPARA s.r.o.;000000-5002209898;5500
CZ26102692;0000021645;Apenex;000000-0254861468;0300
CZ26108313;0000021995;KVALITA náhradní plnění s.r.o.;000000-2500068975;2010
CZ26148544;0000020975;KWESTO s. r. o.;000000-3638600287;0100
CZ26152011;0000021470;HSH Chemie, s.r.o.;000000-1041016687;5500
CZ26228181;0033915916;SENZA družstvo, chráněná dílna;000086-3215900237;0100
CZ26311208;0033914578;PREOL a.s.;CZ1001000000359752990247;
CZ26689537;0000021907;PolyOne ČR, s.r.o.;CZ4026000000002040480300;
CZ26819201;0000020840;LEŇO stabil Czech s.r.o.;000086-5758770247;0100
CZ26955130;0000023331;GRAVITECH s.r.o.;CZ4627000000002109983222;
CZ27067793;0000022633;EVERFIT hydraulika s.r.o.;000027-6610140227;0100
CZ27112039;0000021387;Tesa tape s.r.o.;000000-2042460207;2600
CZ27195031;0000022593;Essentra Components s.r.o.;000000-2044090107;2600
CZ27237851;0000022665;SOLUTECH BOHEMIA s.r.o.;000000-0253158770;0300
CZ27472892;0000022195;Stäubli Systém s.r.o;000000-0195616648;0300
CZ27518949;0000022627;TBA PLASTOVÉ OBALY S.R.O.;000000-0208899131;0600
CZ27539300;0000022498;REELTON s.r.o.;DE11855901004557019702;
CZ27544630;0033916628;DELTA Technologie s.r.o.;000000-0197110835;0600
CZ27612180;0000023441;Keller & Kalmbach;000000-0512769008;2700
CZ27633870;0000023171;Techni Trade s.r.o.;000000-8900074888;2600
CZ27637166;0033823388;Euro VAT Reclaim, s.r.o.;CZ9720100000002800691662;
CZ28063601;0000022226;Pavel Fišer Šuptrans s.r.o.;000000-5002005633;5500
CZ28073274;0000022266;Labelservis, s. r. o.;000000-5678498001;5500
CZ28090683;0000020302;T&T etikety s.r.o.;000000-3729087001;5500
CZ28104056;0033914692;BALTRO s.r.o.;000000-0229491725;0300
CZ28104056;0033914692;BALTRO s.r.o.;CZ6803000000000267821975;
CZ28106504;0000023183;Petr Novotný s.r.o.;000043-4888840237;0100
CZ28109945;0033915398;TAXI Budějovice;000000-4676204001;5500
CZ28132408;0000023026;DELNET CZ s.r.o.;000000-4200264607;6800
CZ28140923;0033914091;TOMAKO s.r.o.;000000-5002207673;5500
CZ28159888;0000023269;ProVisTech s.r.o.;000000-7235340001;5500
CZ28189264;0000022765;AGILITY LOGISTICS S.R.O.;CZ5627000000002102731225;
CZ28763661;0000022644;TAPEX EU s.r.o.;CZ1808000000000005612612;
CZ28927125;0000022666;TECHNO-SERVICE CZ a.s.;000000-0534772339;0800
CZ29383161;0000023379;ExaSoft Holding a.s.;000043-9635090207;0100
CZ40612848;0000020367;MASO - PROFIT, spol. s r.o.;000000-0001009031;0100
CZ42324254;0000020119;OTIS a.s.;000000-0010804651;0100
CZ43871143;0000020099;JOHNSON CONTROLS INTERNATIONAL, spo;000000-2106869109;2700
CZ44004036;0000021987;INVOS, spol. s r.o.;000000-0002108082;0800
CZ44265077;0000021328;A.T.A. technik spol. s r.o.;000000-1099541011;0100
CZ44846029;0000020799;S&T CZ s.r.o.;000000-0117422733;0300
CZ44962878;0000021077;SK Label, spol. s r. o.;000000-0069971024;2700
CZ45022534;0033916028;MONDI BUPAK s.r.o.;CZ4727000000002108454484;
CZ45242143;0000021842;Nordmann Rassmann Czech Rep. s.r.o.;CZ0927000000001012146036;
CZ45539928;0000020404;FISHER SCIENTIFIC s.r.o.;000000-0008187973;0300
CZ45789011;0000021335;CNI  tisk servis, spol. s r.o.;CZ4755000000005020012722;
CZ45791813;0000020376;Murtfeldt Plasty s.r.o.;000000-2504300102;2600
CZ45794707;0000022887;ARAMARK s.r.o.;000000-0300865153;0300
CZ46346635;0000020355;BIBUS s. r. o.;000000-0003949203;0300
CZ47116757;0000022449;Clarion Hotel Prague Old Town;000000-0003693842;0800
CZ47123591;0000020100;JUNGHEINRICH  (ČR) s.r.o.;000000-1137782001;2700
CZ47239042;0000020546;STEINBAUER LECHNER spol. s r.o.;000000-0045000231;0100
CZ47917091;0000021690;FLAGA s.r.o.;000019-1902510207;0100
CZ48111198;0000022605;ACTIVA spol. s r. o.;000000-0500032893;0300
CZ48117820;0000021372;RICOH Czech Republic s.r.o.;000000-0013149111;0100
CZ48536741;0000020646;SIPOR s.r.o.;000000-0088209051;0100
CZ49437330;0000020268;Reca spol. s r.o.;000000-2025565031;2700
CZ49613464;0000020176;BRENNTAG CR s.r.o.;000000-0150639236;31000
CZ49613464;0000020176;BRENNTAG CR s.r.o.;000000-1001044253;5500
CZ49613464;0000020176;BRENNTAG CR s.r.o.;CZ6155000000001001061619;
CZ49614932;0000020253;Atlas Copco  s.r.o.;000000-3142900024;7910
CZ510715233;0000020096;Ivan Nadberežný - INPRESS;000000-0252279538;0300
CZ5705201997;0000020860;MUSÍLEK MILOSLAV kovoobrábění;000000-0112105958;0300
CZ5904230442;0000020761;KOCAR RUDOLF ing.;000000-0012131833;0300
CZ60066164;0033916652;Stingo s.r.o.;000000-0003149652;0800
CZ60069856;0000023348;Jatky Hradský s.r.o.;000000-0680031379;0800
CZ60070153;0000023032;LÉKÁRNA U NÁDRAŽÍ;000000-6113442021;2700
CZ60192755;0000020347;ČEDOK  a. s.;000000-2108416269;2700
CZ60463031;0000020178;Mettler Toledo, s.r.o.;000000-5146387001;2700
CZ60706091;0000022327;Vepak s.r.o.;CZ2801000000270619040217;
CZ60726415;0000020419;Böttcher ČR, k.s.;008010-0903072953;0300
CZ60837152;0000021251;CORAX spol.s r.o.;000000-1002182535;2700
CZ60849657;0000020185;ČEVAK a.s.;000000-5002006468;5500
CZ60851708;0000021565;SPH Elektro s.r.o.;000000-0003441944;0300
CZ6103191765;0000020979;Šebesta Ivo;000000-0158999045;0300
CZ61171077;0000020466;COMFORT SDRUŽENÍ a.s.;000000-4813660207;0100
CZ61500780;0000020449;SCHENKER, spol. s r.o.;CZ0555000000005003004819;
CZ61947024;0000020241;Haberkorn Ulmer  s.r.o.;000000-0101910708;0300
CZ62502221;0033916335;TSE-nástrojárna spol.s.r.o.;000000-0074728993;0300
CZ62582836;0000022548;UniCredit Fleet Management, s.r.o.;000000-0804682000;2700
CZ62909070;0000020230;SMC Industrial Automation  CZ s.r.o;000000-0046690000;2700
CZ62910370;0000020335;NOVATO spol. s r.o.;000019-3950090277;0100
CZ63482576;0000022197;Cominfo a.s.;000000-4080006311;6800
CZ6360021954;0000020052;Ivana Týmalová TYKO;000000-0912121323;0300
CZ63984211;0000021399;ASCO JOUCOMATIC  s.r.o.;000000-3139400002;7910
CZ64949681;0000021836;T-mobile Czech Republic, a.s.;000019-2235210247;0300
CZ65006020;0000020104;MEVA CB, s.r.o.;000000-5999370287;0100
CZ6502082191;0000020225;Pavlíček František;000000-0563587319;0800
CZ6759010819;0000021541;Ing. Adéla Novotná;000000-0216592754;0300
CZ680502074;0033910999;Visko Teepak N.V.;BE61733054842517;
CZ6808190312;0000021168;EMK ELEKTRO;000000-0012129143;0300
CZ699000232;0000020254;HYDRO-FLEX-ZBA s.r.o.;000000-8258260287;0100
CZ699001996;0000020101;KPMG Èeská republika s.r.o.;000000-0002518612;0800
CZ7010311253;0000022990;Odløich Øežábek;000000-0159887643;0600
CZ7302051218;0000020918;Kolář Martin;000000-2400071130;2010
CZ7802231239;0000022163;KOHOUT LUKÁ;000000-0182588406;0600
