CZ00011754;0000020102;Linde Gas a.s.;000502-0305466004;2700
CZ00268577;0000020550;Siemens, s.r.o.;CZ4927000000001013384394;
CZ00513156;0033915847;Střední odborná škola elektrotechni;000000-0041333231;0100
CZ00514152;0000020274;BUDÉJOVICKÝ BUDVAR;000000-0023709231;0100
CZ00558851;0000020943;Uniprox spol. s r. o.;000000-0245017652;0300
CZ00564737;0000020157;FESTO, spol. s r. o.;CZ7779100000003053600206;
CZ01810111;0000023374;Marták Sped s.r.o.;000107-5097330227;0100
CZ02352991;0000023437;V-Grip s.r.o.;CZ1620600000000001090861;
CZ02517116;0000023449;Taktiq Communications s.r.o.;000107-6305860287;0100
CZ13497863;0000021974;Kvalita - družstvo služeb;000000-2400069006;2010
CZ14502992;0000020069;Českobudějovické pozemní stavby, sp;000000-5002006193;5500
CZ15887375;0000020312;Centec automatika, spol. s r.o.;000000-0478498733;0300
CZ18626971;0000020103;MERCK spol s r.o.;000000-3137600019;7910
CZ24289485;0000023221;Advanced AIRSEA Solutions, s.r.o.;000000-0251190179;0300
CZ24289485;0000023221;Advanced AIRSEA Solutions, s.r.o.;CZ8203000000000251531834;
CZ24850390;0000023303;BFTech s.r.o.;SK3375000000004019593510;
CZ25018205;0000020865;RETECH, s.r.o.;000000-9327960207;0100
CZ25120581;0000020593;SEW-EURODRIVE CZ  s.r.o.;000000-1114610004;2700
CZ25134701;0000021180;EKO-KOM, a. s.;000000-1000366402;3500
CZ25163027;0000021305;Uniprojekta s.r.o.;000000-6083040207;0100
CZ25163566;0000022351;VYZA trans, v.o.s.;000000-0212095013;0300
CZ25164996;0000021660;ANTONI CZ s.r.o.;000000-7100005257;8040
CZ25174738;0000022972;AB velkoobchod s.r.o.;000000-1709692061;2700
CZ25177656;0000020511;DELNET s.r.o.;000000-4200188579;6800
CZ25186973;0000021103;Sahan CB  s. r. o.;000000-0215668411;0300
CZ25194798;0000020699;PPL JIŽNÍ ÈECHY, spol. s.r.o.;000000-0522821076;2700
CZ25357425;0000020631;FABORY-CZ,s.r.o.;000000-0017625963;0300
CZ25422952;0000021446;Peter Cremer Central Europe s.r.o.;CZ4862000000000011751731;
CZ25588044;0000020796;BMC BRNO, s.r.o.;CZ3306000000000155206599;
CZ25683446;0000020886;DHL Expres Czech Republic s.r.o.;000000-0523206008;2700
CZ25765647;0000022806;SPEED PRESS Plus a.s.;000000-0139430267;0100
CZ25820702;0000020902;MANUTAN-vybavení skladů,kancel.;000000-0050007323;6200
CZ26018012;0000021950;J+M PAVLÁT INTERNATIONAL S.R.O.;000000-0412794943;0300
CZ26019744;0000022521;Šumavský pramen distribuce s.r.o.;000000-7000014316;8040
CZ26024527;0033914794;VELIMPEX s.r.o. Dřevovýroba;000000-1012010286;5500
CZ26025230;0000020878;KSQ spol.s r.o.;000000-0153345077;0600
CZ26027691;0000021227;CRAVT  s.r.o.;000000-0412255683;0300
CZ26032953;0000021188;LENZE, s. r. o.;000000-2000219001;2700
CZ26032953;0000021188;LENZE, s. r. o.;CZ2227000000002000219036;
CZ26039354;0000020126;PatentCentrum Sedlák & Partners, s.;000000-5649320001;5500
CZ26065258;0000023390;Albatros Prachatice, s.r.o.;000000-7100007578;8040
CZ26069997;0000021160;Plojhar s.r.o.;CZ3255000000005002202434;
CZ26073013;0000021587;Daluku, s.r.o.;000000-9921000217;0100
CZ26076306;0000021585;Kuboušek, s.r.o.;CZ7568000000001200017880;
CZ26076306;0000021585;Kuboušek, s.r.o.;000000-4200040080;6800
CZ26076519;0000022080;MIF TRANS S.R.O.;000000-0573395329;0800
CZ26078201;0000020091;E.ON Energie, a.s.;010014-0001703621;0100
CZ26085356;0033915797;Trhlík, s.r.o.;000000-0195116854;0300
CZ26086140;0000021790;The Cambridgr Centre s.r.o.;000000-0195038219;0300
CZ26092336;0000022458;RM Chemicals spol. s r. o.;000000-0194942126;0300
CZ26092336;0000022458;RM Chemicals spol. s r. o.;000000-6686350001;5500
CZ26098261;0000022693;Ampara  s.r.o.;000000-2106470704;2700
CZ26102692;0000021645;Apenex;000000-0254861468;0300
CZ26108313;0000021995;KVALITA náhradní plnění s.r.o.;000000-2500068975;2010
CZ26111047;0000022750;TOOLS CB s.r.o.;000000-0253952149;0300
CZ26148544;0000020975;KWESTO s. r. o.;000000-3638600287;0100
CZ26421470;0000022684;Chára Sport a.s.;000000-0081412399;0800
CZ26689537;0000021907;PolyOne ČR, s.r.o.;CZ4026000000002040480300;
CZ26819201;0000020840;LEŇO stabil Czech s.r.o.;000086-5758770247;0100
CZ26955130;0000023331;GRAVITECH s.r.o.;CZ4627000000002109983222;
CZ27067793;0000022633;EVERFIT hydraulika s.r.o.;000027-6610140227;0100
CZ27127010;0000021068;Schindler CZ, a.s.;000000-0900476493;0300
CZ27420761;0000022583;UNIVAR Czech s.r.o.;000000-1000450604;3500
CZ27472892;0000022195;Stäubli Systém s.r.o;000000-0195616648;0300
CZ27563588;0000022009;JUMBO TRANSPORT;000051-1983740257;0100
CZ27612180;0000023441;Keller & Kalmbach;000000-0512769008;2700
CZ27633870;0000023171;Techni Trade s.r.o.;000000-8900074888;2600
CZ27766489;0000022066;PNEUMAX Automation s.r.o.;000000-0207022004;0300
CZ27782271;0000022079;HEDOKA S.R.O.;000000-2723672053;0800
CZ27890201;0000022482;Yuncheng Plate-Making CZ, s.r.o.;CZ1508000000001773552223;
CZ28063601;0000022226;Pavel Fišer Šuptrans s.r.o.;000000-5002005633;5500
CZ28073274;0000022266;Labelservis, s. r. o.;000000-5678498001;5500
CZ28075811;0000020130;PALIČKA JIŘÍ ochranné pomůcky;000000-0232481800;0300
CZ28090683;0000020302;T&T etikety s.r.o.;000000-3729087001;5500
CZ28104056;0033914692;BALTRO s.r.o.;000000-0229491725;0300
CZ28106504;0000023183;Petr Novotný s.r.o.;000043-4888840237;0100
CZ28109945;0033915398;TAXI Budějovice;000000-4676204001;5500
CZ28132408;0000023026;DELNET CZ s.r.o.;000000-4200264607;6800
CZ28140923;0033914091;TOMAKO s.r.o.;000107-4578920207;0100
CZ28159888;0000023269;ProVisTech s.r.o.;000000-7235340001;5500
CZ28189264;0000022765;AGILITY LOGISTICS S.R.O.;CZ5627000000002102731225;
CZ28763661;0000022644;TAPEX EU s.r.o.;CZ1808000000000005612612;
CZ28980158;0000023146;Go parking s.r.o.;000000-1002314585;2700
CZ29050821;0000022843;DVOØÁK a spol., advokátní kanceláø;000000-2136834329;0800
CZ29202574;0000022453;WEDISS TECH s.r.o.;000000-2200301309;2010
CZ29383161;0000023379;ExaSoft Holding a.s.;000043-9635090207;0100
CZ41032004;0000022502;Z+M servis, spol. s r.o;000000-0003269312;0800
CZ42324254;0000020119;OTIS a.s.;000000-0010804651;0100
CZ43871143;0000020099;JOHNSON CONTROLS INTERNATIONAL, spo;000000-2106869109;2700
CZ44004036;0000021987;INVOS, spol. s r.o.;000000-0002108082;0800
CZ44265077;0000021328;A.T.A. technik spol. s r.o.;000000-1099541011;0100
CZ44846029;0000020799;S&T CZ s.r.o.;000000-0117422733;0300
CZ44849036;0000020607;SICK spol. s r.o.;000000-3076100001;7910
CZ44962878;0000021077;SK Label, spol. s r. o.;000000-0069971024;2700
CZ45539928;0000020404;FISHER SCIENTIFIC s.r.o.;000000-0008187973;0300
CZ45794707;0000022887;ARAMARK s.r.o.;000000-0300865153;0300
CZ46346635;0000020355;BIBUS s. r. o.;000000-0003949203;0300
CZ47114983;0000020068;ÈESKÁ POŠTA s.p.;000000-0133790245;0300
CZ47116757;0000022449;Clarion Hotel Prague Old Town;000000-0003693842;0800
CZ47123591;0000020100;JUNGHEINRICH  (ČR) s.r.o.;000000-1137782001;2700
CZ47239042;0000020546;STEINBAUER LECHNER spol. s r.o.;000000-0045000231;0100
CZ47239506;0000021135;P+P Želeč, spol.s r.o.;000000-0074523373;0300
CZ48038920;0000021876;Resinex Czech Republic, s. r. o.;BE10068898421404;
CZ48111198;0000022605;ACTIVA spol. s r. o.;000000-0500032893;0300
CZ48117820;0000021372;IMPROMAT CZ spol. s r. o.;000000-0013149111;0100
CZ48536741;0000020646;SIPOR s.r.o.;000000-0088209051;0100
CZ49279530;0000022309;HOSPODÁØSKÁ KOMORA ÈR;000000-0201578853;0600
CZ49613464;0000020176;BRENNTAG CR s.r.o.;000000-1001044253;5500
CZ49614932;0000020253;Atlas Copco  s.r.o.;000000-3142900024;7910
CZ49622676;0000020231;IFM electronic, spol. s r.o.;000000-1222389001;2700
CZ49706756;0000020227;NOVI, spol. s r.o.;000000-0001651331;0300
CZ49966065;0000020364;PROFIPRINT spol. s r.o.;000000-0372585273;0300
CZ49975366;0000021820;Gumex s.r.o.;000000-0673670113;0300
CZ5408223700;0000020129;Š + H  LOŽISKA  Šimek Karel;000000-0212105293;0300
CZ5705201997;0000020860;MUSÍLEK MILOSLAV kovoobrábění;000000-0112105958;0300
CZ5705201997;0000020860;MUSÍLEK MILOSLAV kovoobrábění;000000-0661710309;0800
CZ5909180673;0000022545;Hanex - Josef Hájek;000000-0711663329;0800
CZ60069856;0000023348;Jatky Hradský s.r.o.;000000-0680031379;0800
CZ60070153;0000023032;LÉKÁRNA U NÁDRAŽÍ;000000-6113442021;2700
CZ60192755;0000020347;ČEDOK  a. s.;000000-2108416269;2700
CZ60726415;0000020419;Böttcher ČR, k.s.;008010-0903072953;0300
CZ60837152;0000021251;CORAX spol.s r.o.;000000-1002182535;2700
CZ60837152;0000021251;CORAX spol.s r.o.;CZ3427000000002106232642;
CZ60837152;0000021251;CORAX spol.s r.o.;000000-1200037996;6800
CZ60837152;0000021251;CORAX spol.s r.o.;000000-1200052838;6800
CZ60837152;0000021251;CORAX spol.s r.o.;000000-4200300305;6800
CZ60849657;0000020185;ČEVAK a.s.;000000-5002006468;5500
CZ61171077;0000020466;COMFORT SDRUŽENÍ a.s.;000000-4813660207;0100
CZ61500780;0000020449;SCHENKER, spol. s r.o.;CZ0555000000005003004819;
CZ61503657;0000020228;FIMEX, spol. s  r. o.;CZ1727000000005161878060;
CZ61683566;0000022399;Explast, spol. s r.o.;CZ0503000000000184925939;
CZ61947024;0000020241;Haberkorn Ulmer  s.r.o.;000000-0101910708;0300
CZ62909070;0000020230;SMC Industrial Automation  CZ s.r.o;000000-0046690000;2700
CZ62910370;0000020335;NOVATO spol. s r.o.;000019-3950090277;0100
CZ62914511;0000021904;O.K.SERVIS BioPro, s.r.o.;000000-0576752723;0300
CZ63482576;0000022197;Cominfo a.s.;000000-4080006311;6800
CZ6360021954;0000020052;Ivana Týmalová TYKO;000000-0912121323;0300
CZ6412090894;0000020177;JOSEF BOBR;000000-0260448231;0100
CZ64938336;0000021469;IFC Food spol. s r.o.;000000-2505830105;2600
CZ65006020;0000020104;MEVA CB, s.r.o.;000000-5999370287;0100
CZ6502082191;0000020225;Pavlíček František;000000-0563587319;0800
CZ6759010819;0000021541;Ing. Adéla Novotná;000000-0216592754;0300
CZ680502074;0033910999;Visko Teepak N.V.;BE61733054842517;
CZ6808190312;0000021168;EMK ELEKTRO;000000-0012129143;0300
CZ699001996;0000020101;KPMG Èeská republika s.r.o.;000000-0002518612;0800
CZ7010311253;0000022990;Odløich Øežábek;000000-0159887643;0600
CZ7302051218;0000020918;Kolář Martin;000000-2400071130;2010
