CZ00011754;0000020102;Linde Gas a.s.;000502-0305466004;2700
CZ0045801622;0000020811;KART  spol. s r.o.;000000-0108953401;0300
CZ00510386;0000022411;DIATECH - PRAHA, spol. s r. o.;000019-6008230297;0100
CZ00564737;0000020157;FESTO, spol. s r. o.;CZ7779100000003053600206;
CZ01810111;0000023374;Marták Sped s.r.o.;000107-5097330227;0100
CZ02096013;0000022966;Ing. Petr Švec  - PENTA s.r.o.;000107-5556760227;0100
CZ13497791;0000020420;HERBIA spol.s r.o.;000000-2813049329;0800
CZ13497863;0000021974;Kvalita - družstvo služeb;000000-2400069006;2010
CZ14498529;0000022030;BKS s.r.o.;000000-0281548231;0100
CZ14499037;0000020272;TERMS a.s.;000000-2502230104;2600
CZ14502992;0000020069;Českobudějovické pozemní stavby, sp;000107-6518280227;0100
CZ18626971;0000020103;MERCK spol s r.o.;000000-3137600019;7910
CZ24289485;0000023221;Advanced AIRSEA Solutions, s.r.o.;CZ8203000000000251531834;
CZ24850390;0000023303;BFTech s.r.o.;000000-0256469048;0300
CZ25018205;0000020865;RETECH, s.r.o.;000000-9327960207;0100
CZ25156951;0000023009;Schuller Eh'klar s.r.o.;000000-5744420297;0100
CZ25163566;0000022716;VYZA TRABSM v.o.s.;000000-0212095013;0300
CZ25169068;0000022142;CSS spedition s.r.o.;000000-0001824722;0800
CZ25174738;0000022972;AB velkoobchod s.r.o.;000000-1709692061;2700
CZ25177656;0000020511;DELNET s.r.o.;000000-4200188579;6800
CZ25186973;0000021103;Sahan CB  s. r. o.;000000-0215668411;0300
CZ25231359;0000021144;VSK PROFI s.r.o.;000000-6267666001;5500
CZ25357425;0000020631;FABORY-CZ,s.r.o.;000000-0017625963;0300
CZ25422952;0000021446;Peter Cremer Central Europe s.r.o.;CZ1062000062180011751731;
CZ25487515;0000020801;TYMA  CZ, s.r.o.;000000-0190134367;0300
CZ25504053;0000022918;M+H , Míča a Harašta s.r.o.;000000-0153173244;0300
CZ25588044;0000020796;BMC BRNO, s.r.o.;CZ3306000000000155206599;
CZ25637151;0000021092;NZ SERVIS, spol. s r.o.;000019-8698300297;0100
CZ25681672;0000022807;Grolman s.r.o.;CZ1027000000004762049036;
CZ25683446;0000020886;DHL Expres Czech Republic s.r.o.;000000-0523206008;2700
CZ25765647;0000022806;SPEED PRESS Plus a.s.;000000-0139430267;0100
CZ25820702;0000020902;MANUTAN-vybavení skladů,kancel.;000000-0050007323;6200
CZ26007568;0000021984;Easytherm CZ s.r.o.;000000-2800166972;2010
CZ26019396;0000020958;EM Grafika s.r.o.;000000-0162053535;0300
CZ26019744;0000022521;Šumavský pramen distribuce s.r.o.;000000-0172809164;0300
CZ26021145;0000000005;Viscofan CZ s.r.o.;000000-0117171743;0300
CZ26021145;0000000005;Viscofan CZ s.r.o.;000000-6132243001;2700
CZ26021145;0000000005;Viscofan CZ s.r.o.;000000-1042008726;5500
CZ26024527;0033914794;VELIMPEX s.r.o. Dřevovýroba;CZ5155000000001012010286;
CZ26025230;0000020878;KSQ spol.s r.o.;000000-0153345077;0600
CZ26027691;0000021227;CRAVT  s.r.o.;000078-1290400217;0100
CZ26027691;0000021227;CRAVT  s.r.o.;000000-0412255683;0300
CZ26065258;0000023390;Albatros Prachatice, s.r.o.;000000-7100007578;8040
CZ26073013;0000021587;Daluku, s.r.o.;000000-9921000217;0100
CZ26078201;0000020091;E.ON Energie, a.s.;010014-0001703621;0100
CZ26078201;0000020091;E.ON Energie, a.s.;008010-0512045843;0300
CZ26086140;0000021790;The Cambridgr Centre s.r.o.;000000-0195038219;0300
CZ26092336;0000022458;RM Chemicals spol. s r. o.;000000-0194942126;0300
CZ26092336;0000022458;RM Chemicals spol. s r. o.;000000-6686350001;5500
CZ26093839;0000023378;PS PATROL s.r.o.;000000-0572305379;0800
CZ26098261;0000022693;Ampara  s.r.o.;000000-2106470704;2700
CZ26102692;0000021645;Apenex;000000-0254861468;0300
CZ26108313;0000021995;KVALITA náhradní plnění s.r.o.;000000-2500068975;2010
CZ26148544;0000020975;KWESTO s. r. o.;000000-3638600287;0100
CZ26689537;0000021907;PolyOne ČR, s.r.o.;CZ4026000000002040480300;
CZ26704153;0000022279;ERNST & YOUNG;000000-1411703100;8150
CZ26819201;0000020840;LEŇO stabil Czech s.r.o.;000086-5758770247;0100
CZ26955130;0000023331;GRAVITECH s.r.o.;000000-0194276071;0300
CZ27067793;0000022633;EVERFIT hydraulika s.r.o.;000027-6610140227;0100
CZ27112039;0000021387;Tesa tape s.r.o.;000000-2042460207;2600
CZ27117171;0000022182;PEPPERL+FUCHS s.r.o.;000000-0010537354;6200
CZ27184854;0000022819;HOTEL BERÁNEK a.s.;000000-0193660258;0300
CZ27237851;0000022665;SOLUTECH BOHEMIA s.r.o.;000000-0253158770;0300
CZ27420761;0000022583;UNIVAR Czech s.r.o.;000000-1000450604;3500
CZ27539300;0000022498;REELTON s.r.o.;DE11855901004557019702;
CZ27633870;0000023171;Techni Trade s.r.o.;000000-8900074888;2600
CZ27766489;0000022066;PNEUMAX Automation s.r.o.;000000-0207022004;0300
CZ27890201;0000022482;Yuncheng Plate-Making CZ, s.r.o.;CZ1508000000001773552223;
CZ28073274;0000022266;Labelservis, s. r. o.;000000-5678498001;5500
CZ28075811;0000020130;PALIČKA JIŘÍ ochranné pomůcky;000000-0232481800;0300
CZ28090683;0000020302;T&T etikety s.r.o.;000000-3729087001;5500
CZ28104056;0033914692;BALTRO s.r.o.;000000-0229491725;0300
CZ28106504;0000023183;Petr Novotný s.r.o.;000043-4888840237;0100
CZ28132408;0000023026;DELNET CZ s.r.o.;000000-4200264607;6800
CZ28159888;0000023269;ProVisTech s.r.o.;000000-7235340001;5500
CZ28372158;0000023081;EMPORO, s.r.o.;000000-5143900009;4000
CZ28569130;0000021498;Azurr-technology spol. s r.o.;CZ6806000000000193469365;
CZ28717066;0000023264;Liroll, s.r.o.;000000-2400220490;2010
CZ28763661;0000022644;TAPEX EU s.r.o.;000000-0005506422;0800
CZ28763661;0000022644;TAPEX EU s.r.o.;CZ1808000000000005612612;
CZ28927125;0000022666;TECHNO-SERVICE CZ a.s.;000000-0534772339;0800
CZ29383161;0000023379;ExaSoft Holding a.s.;000043-9635090207;0100
CZ41032004;0000022502;Z+M servis, spol. s r.o;000000-0009395993;0300
CZ42324254;0000020119;OTIS a.s.;000000-0010804651;0100
CZ42340161;0000022236;PROFITECH FOOD s.r.o.;000000-0176738076;0300
CZ43774750;0000022063;DONAUCHEM - URSETA s.r.o.;CZ9755000000005010018397;
CZ43871143;0000020099;JOHNSON CONTROLS INTERNATIONAL, spo;000000-2106869109;2700
CZ44004036;0000021987;INVOS, spol. s r.o.;000000-0002108082;0800
CZ44265077;0000021328;A.T.A. technik spol. s r.o.;000000-1099541011;0100
CZ44846029;0000020799;S&T CZ s.r.o.;000000-0117422733;0300
CZ45242143;0000021842;Nordmann Rassmann Czech Rep. s.r.o.;CZ0927000000001012146036;
CZ45308187;0000022900;TOYOTA MATERIAL HANDLING CZ s.r.o.;CZ1326000000002053090301;
CZ45787115;0000021601;KÜHNE+NAGEL spol.s.r.o.;000000-1233664101;2700
CZ45794707;0000022887;ARAMARK s.r.o.;000000-0300865153;0300
CZ46678344;0000020161;TECHMAT, a.s.;000000-0219586659;0300
CZ47123591;0000020100;JUNGHEINRICH  (ČR) s.r.o.;000000-1137782001;2700
CZ47239042;0000020546;STEINBAUER LECHNER spol. s r.o.;000000-0045000231;0100
CZ47667010;0000021847;LORIKA   CZ s.r.o.;000027-4182250227;0100
CZ48034096;0000022332;PE Systems s. r. o.;000000-0130752227;0300
CZ48038920;0000021876;Resinex Czech Republic, s. r. o.;CZ6579100000004031500102;
CZ48111198;0000021577;ACTIVA spol. s r.o.;000000-0500032893;0300
CZ48117820;0000021372;IMPROMAT CZ spol. s r. o.;000000-0013149111;0100
CZ48204641;0000020095;INKOMO spol. s r.o.;000000-0025204544;0600
CZ49023098;0000021773;RUMPOLD 01-VODŇANY s.r.o.;000000-0031067005;2700
CZ49613464;0000020176;BRENNTAG CR s.r.o.;000000-1001044253;5500
CZ49966065;0000020364;PROFIPRINT spol. s r.o.;000000-0372585273;0300
CZ49975366;0000021820;Gumex s.r.o.;000000-0673670113;0300
CZ5408223700;0000020129;Š + H  LOŽISKA  Šimek Karel;000000-0212105293;0300
CZ5608031033;0000020159;OBZOR Rudolf Šimůnek;000000-0562535349;0800
CZ5705201997;0000020860;MUSÍLEK MILOSLAV kovoobrábění;000000-0112105958;0300
CZ5705201997;0000020860;MUSÍLEK MILOSLAV kovoobrábění;000000-0661710309;0800
CZ5909180673;0000022545;Hanex - Josef Hájek;000000-0711663329;0800
CZ60069856;0000023348;Jatky Hradský s.r.o.;000000-0680031379;0800
CZ60192755;0000020347;ČEDOK  a. s.;000000-1800062263;0300
CZ60706091;0000022327;Vepak s.r.o.;CZ2801000000270619040217;
CZ60837152;0000021251;CORAX spol.s r.o.;000000-1002182535;2700
CZ60837152;0000021251;CORAX spol.s r.o.;CZ3427000000002106232642;
CZ60849657;0000020185;ČEVAK a.s.;000000-5002006468;5500
CZ60851708;0000021565;SPH Elektro s.r.o.;000000-0003441944;0300
CZ61063916;0000023180;ALD Automotive s.r.o.;000000-1162730166;0100
CZ61500780;0000020449;SCHENKER, spol. s r.o.;CZ0555000000005003004819;
CZ61503657;0000020228;FIMEX, spol. s  r. o.;CZ1727000000005161878060;
CZ61683566;0000022399;Explast, spol. s r.o.;CZ2035000000001330473809;
CZ62906887;0000020343;Poly-clip System s.r.o.;000000-6541460277;0100
CZ62909070;0000020230;SMC Industrial Automation  CZ s.r.o;000000-0046690000;2700
CZ62910370;0000020335;NOVATO spol. s r.o.;000019-3950090277;0100
CZ62912348;0000022985;Contrast Consulting;000000-5177976001;2700
CZ63482576;0000022197;Cominfo a.s.;000000-4080006311;6800
CZ6360021954;0000020052;Ivana Týmalová TYKO;000000-0912121323;0300
CZ63908824;0000022347;Corex Czech s. r. o.;000000-0017626413;0300
CZ63995522;0000021658;Takos, s.r.o.;000000-0211725511;0300
CZ63996332;0000000009;GAMEX;000000-2106875410;2700
CZ63996332;0000000009;GAMEX;000000-0030981006;2700
CZ64084761;0000020490;VAE Prosys s.r.o.;CZ5726000000005108638009;
CZ64949681;0000021836;T-mobile Czech Republic, a.s.;000019-2235210247;0100
CZ6502082191;0000020225;Pavlíček František;000000-0563587319;0800
CZ6502191410;0000020556;NOVOTNÝ PETR výr.a obch.firma;000000-0201448231;0100
CZ6801011767;0033915203;Josef Pošusta;000000-0107894059;0300
CZ6808190312;0000021168;EMK ELEKTRO;000000-0012129143;0300
CZ699001273;0000022984;Generali Pojišťovna a.s.;000019-2225300257;0100
CZ7302051218;0000020918;Kolář Martin;000000-2400071130;2010
CZ8501241837;0000022828;Petr Soumar;000000-0237434886;0300
