CZ00011754;0000020102;Linde Gas a.s.;000502-0305466004;2700
CZ00030821;0033916215;CÍL, výrobní družstvo;000000-0000719701;0100
CZ00177016;0000022041;Český metrologický institut;000000-0070338621;0100
CZ00245267;0033917748;Město Nové Hrady;000000-0002625231;0100
CZ00268577;0000020550;Siemens, s.r.o.;CZ4927000000001013384394;
CZ00558851;0000020943;Uniprox spol. s r. o.;000000-0245017652;0300
CZ00558851;0000020943;Uniprox spol. s r. o.;CZ7003000000000245017724;
CZ00564737;0000020157;FESTO, spol. s r. o.;CZ7779100000003053600206;
CZ00582204;0000022640;ESSA, spol. s r.o.;000000-5822040012;5500
CZ01810111;0000023374;Marták Sped s.r.o.;000107-5097330227;0100
CZ02352991;0000023437;V-Grip s.r.o.;CZ1620600000000001090861;
CZ02412756;0033916124;SGM CB s.r.o.;000000-2109513837;2700
CZ02412756;0033916124;SGM CB s.r.o.;CZ9627000000002109513909;
CZ02517116;0000023449;Taktiq Communications s.r.o.;000107-6305860287;0100
CZ03301061;0033916056;Advanced AIRSEA s.r.o.;CZ6203000000000266714537;
CZ03301061;0033916056;Advanced AIRSEA s.r.o.;000000-0284492384;0300
CZ03438856;0033915838;INKOMO CZ s.r.o.;000000-0025204544;0600
CZ03573397;0033916245;EMK ELEKTRO s.r.o.;000000-0267799042;0300
CZ13497863;0000021974;Kvalita - družstvo služeb;000000-2400069006;2010
CZ13497863;0000021974;Kvalita - družstvo služeb;000000-2111614071;2700
CZ14499037;0000020272;TERMS a.s.;000000-2502230104;2600
CZ14502992;0000020069;Českobudějovické pozemní stavby, sp;000107-6518280227;0100
CZ14869446;0000020184;HENNLICH s.r.o.;000000-6717778001;2700
CZ15502929;0000021636;RENOSTAV spol.s.r.o.;010006-1052143841;0100
CZ24284734;0000022479;DEL a.s.;000000-4010037729;6800
CZ25098055;0033917738;ADITECH s.r.o.;CZ9701000001151434500277;
CZ25153510;0000023406;GLOBIS spol. s r.o.;000000-0198850181;0300
CZ25174738;0000022972;AB velkoobchod s.r.o.;000000-1709692061;2700
CZ25181700;0000022304;A v í z o  s.r.o.;000107-5644500257;0100
CZ25186973;0000021103;Sahan CB  s. r. o.;000000-0215668411;0300
CZ25194798;0000020699;PPL JIŽNÍ ÈECHY, spol. s.r.o.;000000-0522821076;2700
CZ25196375;0033917221;Bohemia Stone Spedition s.r.o.;000000-1052002133;5500
CZ25196375;0033917221;Bohemia Stone Spedition s.r.o.;CZ9155000000001142003631;
CZ25231359;0000021144;VSK PROFI s.r.o.;000000-6267666001;5500
CZ25354523;0000020079;Řempo CB, a.s.;000107-4039470227;0100
CZ25357425;0000020631;FABORY-CZ,s.r.o.;000000-0017625963;0300
CZ25422952;0000021446;Peter Cremer Central Europe s.r.o.;CZ4862000000000011751731;
CZ25446291;0000021666;MOAS CS s.r.o.;000000-0964306389;0800
CZ25518771;0000021653;Smaris s.r.o.;000000-5624660237;0100
CZ25552252;0000020216;FLUIDTECHNIK BOHEMIA, s.r.o.;000000-0377320143;0300
CZ25588044;0000020796;BMC BRNO, s.r.o.;CZ3306000000000155206599;
CZ25637151;0000021092;NZ SERVIS, spol. s r.o.;000019-8698300297;0100
CZ25637371;0000023191;Azelis Czech Republic s.r.o.;000000-0002829007;2700
CZ25681672;0000022807;Grolman s.r.o.;CZ1027000000004762049036;
CZ25683446;0000020886;DHL Expres Czech Republic s.r.o.;000000-0523206008;2700
CZ25692089;0000020817;IMI International s.r.o.;000000-2112596354;2700
CZ25765647;0000022806;SPEED PRESS Plus a.s.;000000-0270483276;0300
CZ25820702;0000020902;MANUTAN-vybavení skladů,kancel.;000000-0050007323;6200
CZ25857011;0000022339;Trenkwalder a.s.;000027-2491780257;0100
CZ26007568;0000021984;Easytherm CZ s.r.o.;000000-2800166972;2010
CZ26016451;0000020757;T-PROFI JČ, s.r.o.;000000-0156210231;0600
CZ26019396;0000020958;EM Grafika s.r.o.;000000-0162053535;0300
CZ26019744;0000022521;Šumavský pramen distribuce s.r.o.;000000-7000014316;8040
CZ26025230;0000020878;KSQ spol.s r.o.;000000-0153345077;0600
CZ26026589;0000023195;ATS INVEST s.r.o.;000000-2106016413;2700
CZ26027691;0000021227;CRAVT  s.r.o.;000078-1290400217;0100
CZ26027691;0000021227;CRAVT  s.r.o.;000000-0412255683;0300
CZ26032953;0000021188;LENZE, s. r. o.;CZ2227000000002000219036;
CZ26036185;0033916388;Hoppichler Paletten;000000-0004015322;0800
CZ26055210;0000021476;PK  SERVIS tech.součásti s.r.o.;000000-0178687145;0600
CZ26065258;0000023390;Albatros Prachatice, s.r.o.;000000-7100007578;8040
CZ26069997;0000021160;Plojhar s.r.o.;CZ3255000000005002202434;
CZ26073013;0000021587;DALUKU - Tichelmann s.r.o.;000000-9921000217;0100
CZ26076306;0000021585;Kuboušek, s.r.o.;000000-2106288689;2700
CZ26078201;0000020091;E.ON Energie, a.s.;010014-0001703621;0100
CZ26080338;0033916035;Marták Logistics s.r.o.;000035-1941980287;0100
CZ26092336;0000022458;RM Chemicals spol. s r. o.;000000-0194942126;0300
CZ26092336;0000022458;RM Chemicals spol. s r. o.;000000-6686350001;5500
CZ26093839;0000023378;PS PATROL s.r.o.;000000-0572305379;0800
CZ26098261;0000022693;AMPARA s.r.o.;000000-2106470704;2700
CZ26103796;0033917737;EMK elektromontáže s.r.o.;000000-0205974474;0300
CZ26108313;0000021995;KVALITA náhradní plnění s.r.o.;000000-2500068975;2010
CZ26111047;0000022750;TOOLS CB s.r.o.;000000-0253952149;0300
CZ26148544;0000020975;KWESTO s. r. o.;000000-3638600287;0100
CZ26186292;0033916108;COLOGNIA PRESS a.s.;000000-0006099662;0800
CZ26689537;0000021907;PolyOne ČR, s.r.o.;CZ4026000000002040480300;
CZ26819201;0000020840;LEŇO stabil Czech s.r.o.;000086-5758770247;0100
CZ26926822;0000021960;ABAUT s.r.o.;000035-1370390207;0100
CZ26955130;0000023331;GRAVITECH s.r.o.;CZ4627000000002109983222;
CZ27067793;0000022633;EVERFIT hydraulika s.r.o.;000027-6610140227;0100
CZ27112039;0000021387;Tesa tape s.r.o.;000000-2042460207;2600
CZ27117171;0000022182;PEPPERL+FUCHS s.r.o.;000000-0010537354;6200
CZ27237851;0000022665;SOLUTECH BOHEMIA s.r.o.;000000-0253158770;0300
CZ27249379;0000022061;VELOX CMS s.r.o.;CZ9303000000000261656884;
CZ27420761;0000022583;UNIVAR Czech s.r.o.;000000-1000450604;3500
CZ27420761;0000022583;UNIVAR Czech s.r.o.;CZ4835000000001330450607;
CZ27448843;0033914693;SERENA GS, s.r.o.;000000-1104328339;0800
CZ27472892;0000022195;Stäubli Systém s.r.o;000000-0195616648;0300
CZ27563588;0000022009;JUMBO TRANSPORT;000051-1983740257;0100
CZ27612180;0000023441;Keller & Kalmbach;000000-0512769008;2700
CZ27633870;0000023171;Techni Trade s.r.o.;000000-8900074888;2600
CZ27766489;0000022066;PNEUMAX Automation s.r.o.;000000-0207022004;0300
CZ27768953;0000023364;VÚHŽ a.s.;CZ6103000000000194381752;
CZ27890201;0000022482;Yuncheng Plate-Making CZ, s.r.o.;CZ1508000000001773552223;
CZ27902943;0000022853;DEGA CZ s.r.o.;000000-2502719399;0800
CZ28073274;0000022266;Labelservis, s. r. o.;000000-5678498001;5500
CZ28075811;0000020130;PALIČKA JIŘÍ ochranné pomůcky;000000-0232481800;0300
CZ28090683;0000020302;T&T etikety s.r.o.;000000-3729087001;5500
CZ28103416;0000023109;HOP Tech s.r.o.;000000-2400504573;2010
CZ28104056;0033914692;BALTRO s.r.o.;000000-0229491725;0300
CZ28104056;0033914692;BALTRO s.r.o.;CZ6803000000000267821975;
CZ28109945;0033915398;TAXI Budějovice;000000-4676204001;5500
CZ28132408;0000023026;DELNET CZ s.r.o.;000000-4200264607;6800
CZ28140923;0033914091;TOMAKO s.r.o.;000000-2113140818;2700
CZ28159888;0000023269;ProVisTech s.r.o.;000000-7235340001;5500
CZ28511298;0033917257;ČESKÁ LÉKÁRNA HOLDING, a.s.;000027-5824670237;0100
CZ28569130;0000021498;Azurr-technology spol. s r.o.;CZ6806000000000193469365;
CZ28763661;0000022644;TAPEX EU s.r.o.;CZ1808000000000005612612;
CZ28892941;0033917498;KUČERA - KUČERA s.r.o.;000043-6053500217;0100
CZ28927125;0000022666;TECHNO-SERVICE CZ a.s.;000000-0534772339;0800
CZ28980158;0000023146;Go parking s.r.o.;000000-1002314585;2700
CZ40612848;0000020367;MASO - PROFIT, spol. s r.o.;000000-0001009031;0100
CZ42324254;0000020119;OTIS a.s.;000000-0010804651;0100
CZ42869781;0000022245;ENETEX TECHNOLOGY s.r.o.;000000-0001587042;0800
CZ43774750;0000022063;DONAUCHEM - URSETA s.r.o.;000000-5010018397;5500
CZ43871143;0000020099;JOHNSON CONTROLS INTERNATIONAL, spo;000000-2106869109;2700
CZ44004036;0000021987;INVOS, spol. s r.o.;000000-0002108082;0800
CZ44265077;0000021328;A.T.A. technik spol. s r.o.;000000-1099541011;0100
CZ44846029;0000020799;S&T CZ s.r.o.;000000-0117422733;0300
CZ44849036;0000020607;SICK spol. s r.o.;000000-3076100001;7910
CZ44962878;0000021077;SK Label, spol. s r. o.;000000-0069971024;2700
CZ45022216;0000020369;ČERPADLA NEPTUN spol. s r.o.;000000-0758641231;0100
CZ45022534;0033916028;MONDI BUPAK s.r.o.;CZ4727000000002108454484;
CZ45350001;0000021851;Barentz, spol. s r.o.;000000-0361045351;0100
CZ45539928;0000020404;FISHER SCIENTIFIC s.r.o.;000000-1000541004;3500
CZ45791813;0000020376;Murtfeldt Plasty s.r.o.;000000-2504300102;2600
CZ45794707;0000022887;ARAMARK s.r.o.;000000-0300865153;0300
CZ46346635;0000020355;BIBUS s. r. o.;000000-0003949203;0300
CZ46901876;0000021239;TART, s. r. o.;000000-0000135415;0300
CZ470317120;0000020970;Technická guma (K&F);000000-0170134634;0300
CZ47116757;0000022449;Clarion Hotel Prague Old Town;000000-0003693842;0800
CZ47123591;0000020100;JUNGHEINRICH  (ČR) s.r.o.;000000-1137782001;2700
CZ47124652;0000020361;Porsche Inter Auto CZ s.r.o;000000-5020015835;5500
CZ47238704;0000022081;SIBOX s.r.o.;000000-0272774624;0300
CZ47239042;0000020546;STEINBAUER LECHNER spol. s r.o.;000000-0045000231;0100
CZ47783206;0000020610;TECHNOLOGY s.r.o.;000000-0004679022;0800
CZ47906839;0000021021;Datascan, s. r. o.;000000-8129750001;5500
CZ48111198;0000022605;ACTIVA spol. s r. o.;000000-0500032893;0300
CZ48117820;0000021372;RICOH Czech Republic s.r.o.;000000-0013149111;0100
CZ48953997;0000022238;JOKEY PRAHA CZ s.r.o.;000000-0520345002;2700
CZ49437330;0000020268;Reca spol. s r.o.;000000-0006210682;0800
CZ49546694;0033916811;THIMM Obaly, k.s.;CZ5908000000000000951412;
CZ49613464;0000020176;BRENNTAG CR s.r.o.;000000-1001044253;5500
CZ49613464;0000020176;BRENNTAG CR s.r.o.;CZ6155000000001001061619;
CZ49614932;0000020253;Atlas Copco  s.r.o.;000000-3142900024;7910
CZ49966065;0000020364;PROFIPRINT spol. s r.o.;000000-0372585273;0300
CZ49975366;0000021820;Gumex s.r.o.;000000-0673670113;0300
CZ510715233;0000020096;Ivan Nadberežný - INPRESS;000000-0252279538;0300
CZ531230279;0000020608;ŽUŽO-LIDO Zdeněk Candra;000000-0132067063;0300
CZ5408223700;0000020129;Š + H  LOŽISKA  Šimek Karel;000000-0212105293;0300
CZ5705201997;0000020860;MUSÍLEK MILOSLAV kovoobrábění;000000-0112105958;0300
CZ5904230442;0000020761;KOCAR RUDOLF ing.;000000-0012131833;0300
CZ60069856;0000023348;Jatky Hradský s.r.o.;000000-0680031379;0800
CZ60192755;0000020347;ČEDOK  a. s.;000000-2108416269;2700
CZ60721723;0000020985;Pružinárna SUHA,spol. s r.o.;000000-1444821349;0800
CZ60827718;0000023446;Sběrné suroviny, a.s.;000000-0006023852;0800
CZ60837152;0000021251;CORAX spol.s r.o.;000000-1002182535;2700
CZ60849657;0000020185;ČEVAK a.s.;000000-5002006468;5500
CZ60850353;0000020296;KOSTAX spol. s r.o.;000000-0003540176;0300
CZ60851708;0000021565;SPH Elektro s.r.o.;000000-0003441944;0300
CZ6103091984;0033820930;Ladislav Volek;000000-1808273399;0800
CZ6103191765;0000020979;Šebesta Ivo;000000-0158999045;0300
CZ61063916;0000023180;ALD Automotive s.r.o.;000000-1162730166;0100
CZ61378721;0033916170;Lloyd¨s Register EMEA;000000-0571697593;0300
CZ61500780;0000020449;SCHENKER, spol. s r.o.;CZ0555000000005003004819;
CZ61503657;0000020228;FIMEX, spol. s  r. o.;CZ1108000000000006145462;
CZ61859915;0000020207;FLAIR, a. s.;000000-0200001593;0300
CZ61947024;0000020241;Haberkorn Ulmer  s.r.o.;000000-0101910708;0300
CZ6211150220;0000021882;SETES - Vlastimil Kaňa;000000-1446146359;0800
CZ62502221;0033916335;TSE-nástrojárna spol.s.r.o.;000000-0074728993;0300
CZ62502956;0000021315;K+V Interiér, s.r.o.;000000-2246083001;5500
CZ62906887;0000020343;Poly-clip System s.r.o.;000000-6541460277;0100
CZ62910370;0000020335;NOVATO spol. s r.o.;000019-3950090277;0100
CZ63475260;0033916670;DELIKOMAT s.r.o.;000000-1118090237;0100
CZ63482576;0000022197;Cominfo a.s.;000000-4080006311;6800
CZ6360021954;0000020052;Ivana Týmalová TYKO;000000-0912121323;0300
CZ63908824;0033915262;COREX CZECH s.r.o.;000000-0017626413;0300
CZ63984211;0000021399;ASCO JOUCOMATIC  s.r.o.;000000-3139400002;7910
CZ6403252108;0000020851;FRANTIŠEK HLÍZA;000000-0104782377;0300
CZ64084761;0000020490;VAE Prosys s.r.o.;CZ5726000000005108638009;
CZ64581471;0000020507;BELTing, spol.s r.o.;000000-0116018923;0300
CZ64938336;0000021469;IFC Food spol. s r.o.;000000-2505830105;2600
CZ64949681;0000021836;T-mobile Czech Republic, a.s.;000000-0017489033;0300
CZ64949681;0000021836;T-mobile Czech Republic, a.s.;000019-2235210247;0300
CZ6502082191;0000020225;Pavlíček František;000000-0563587319;0800
CZ6759010819;0000021541;Ing. Adéla Novotná;000000-0216592754;0300
CZ683392448;0033916198;GKN - Service - Austria GmbH;000000-0030081008;2700
CZ699000232;0000020254;HYDRO-FLEX-ZBA s.r.o.;000000-8258260287;0100
CZ699001996;0000020101;KPMG Èeská republika s.r.o.;000000-0002518612;0800
CZ699003336;0033916070;Z + M Partner, spol. s r. o.;000115-1262780267;0100
CZ7302051218;0000020918;Kolář Martin;000000-2400071130;2010
CZ7405152766;0033820989;BACHURA MILAN;000000-2108675535;2700
CZ7507261685;0033916943;Daniel Benák;000107-4918850277;0100
