CZ00268577;0000020550;Siemens, s.r.o.;000000-1013384001;2700
CZ00268577;0000020550;Siemens, s.r.o.;CZ4927000000001013384394;
CZ00417955;0000020812;ÈES.SPOL.PRO JAKOST;000000-0042033011;0100
CZ0045801622;0000020811;KART  spol. s r.o.;000000-0108953401;0300
CZ0045801622;0000020811;KART  spol. s r.o.;000000-0213863627;0300
CZ0045801622;0000020811;KART  spol. s r.o.;000000-0924673379;0800
CZ00547425;0000020520;BOSCH  REXROTH spol. s r.o.;000000-2035580104;2600
CZ00547425;0000020520;BOSCH  REXROTH spol. s r.o.;000000-2035580200;2600
CZ00547425;0000020520;BOSCH  REXROTH spol. s r.o.;000000-1728120501;2700
CZ00558851;0000020943;Uniprox spol. s r. o.;000000-0245017652;0300
CZ00558851;0000020943;Uniprox spol. s r. o.;CZ7003000000000245017724;
CZ00558851;0000020943;Uniprox spol. s r. o.;000000-0003041280;0300
CZ00674893;0000020407;Elson spol. s r.o.;000000-0428440111;0100
CZ00674893;0000020407;Elson spol. s r.o.;000000-0000687578;0300
CZ13497791;0000020420;HERBIA spol.s r.o.;000000-0000317606;0300
CZ13497791;0000020420;HERBIA spol.s r.o.;000000-2813049329;0800
CZ13497791;0000020420;HERBIA spol.s r.o.;000000-1032009346;5500
CZ14500515;0000020554;BILLER & BURDA  s.r.o.;000000-6112859001;2700
CZ15549291;0000020515;A B Klimatizace, s.r.o.;000000-0807045621;0100
CZ15890554;0000020869;Shell Czech Republic a.s.;000000-4019900031;0100
CZ15890554;0000020869;Shell Czech Republic a.s.;000000-2044260102;2600
CZ15890554;0000020869;Shell Czech Republic a.s.;000000-2044260209;2600
CZ15890554;0000020869;Shell Czech Republic a.s.;000000-0011047094;185008
CZ18236065;0000020532;CompAct Bohemia s.r.o.;000000-0226740351;0100
CZ18385109;0000020414;M-PRO spol. s r.o.;000000-1017009233;5500
CZ18630774;0000020847;KODYS, spol.s r.o.;000000-0362046081;0100
CZ18630774;0000020847;KODYS, spol.s r.o.;000000-0049107028;2700
CZ18630774;0000020847;KODYS, spol.s r.o.;000000-5030010827;5500
CZ25018205;0000020865;RETECH, s.r.o.;000000-9327960207;0100
CZ25120581;0000020593;SEW-EURODRIVE CZ  s.r.o.;000000-1114610004;2700
CZ25122401;0000020617;TQ3 Travel Solutions Czech Republic;000000-0004129004;2700
CZ25122401;0000020617;TQ3 Travel Solutions Czech Republic;000000-0010551025;6200
CZ25122401;0000020617;TQ3 Travel Solutions Czech Republic;000000-3044300009;7910
CZ25164040;0000020965;Gaudeo CB s.r.o.;000000-0181782485;0300
CZ25164040;0000020965;Gaudeo CB s.r.o.;000000-0202138040;0600
CZ25164040;0000020965;Gaudeo CB s.r.o.;000000-0031645100;2700
CZ25164040;0000020965;Gaudeo CB s.r.o.;000000-4376375001;5500
CZ25177656;0000020511;DELNET s.r.o.;000000-0612125453;0300
CZ25177656;0000020511;DELNET s.r.o.;000000-4200188579;6800
CZ25177656;0000020511;DELNET s.r.o.;000000-4200264607;6800
CZ25189786;0000020881;ČIPOS spol. s r.o.;000000-0566531329;0800
CZ25189786;0000020881;ČIPOS spol. s r.o.;000000-5004667008;2600
CZ25189786;0000020881;ČIPOS spol. s r.o.;000000-1002484445;2700
CZ25194798;0000020699;PPL JIŽNÍ ÈECHY, spol. s.r.o.;000000-0157533980;0300
CZ25194798;0000020699;PPL JIŽNÍ ÈECHY, spol. s.r.o.;000000-0522821076;2700
CZ25357425;0000020631;FABORY-CZ,s.r.o.;000000-0017625963;0300
CZ25357786;0000020766;FORMPROJEKT, spol. s r.o.;000019-0634090247;0100
CZ25487515;0000020801;TYMA  CZ, s.r.o.;000000-0190134367;0300
CZ25588044;0000020796;BMC BRNO, s.r.o.;008010-0703401513;0300
CZ25588044;0000020796;BMC BRNO, s.r.o.;000000-0154746470;0600
CZ25588044;0000020796;BMC BRNO, s.r.o.;CZ3306000000000155206599;
CZ25588044;0000020796;BMC BRNO, s.r.o.;CZ6026000000005001985000;
CZ25605381;0000020408;Gradua-CEGOS, s.r.o.;000000-0252250815;0300
CZ25605381;0000020408;Gradua-CEGOS, s.r.o.;000000-4322050308;0800
CZ25605381;0000020408;Gradua-CEGOS, s.r.o.;000000-0066089319;0800
CZ25605381;0000020408;Gradua-CEGOS, s.r.o.;000000-0100193102;5000
CZ25683446;0000020886;DHL Expres Czech Republic s.r.o.;004028-0600056913;0300
CZ25683446;0000020886;DHL Expres Czech Republic s.r.o.;000000-0523206008;2700
CZ25683446;0000020886;DHL Expres Czech Republic s.r.o.;000000-0523206032;2700
CZ25684094;0000020697;UNITED PARCEL SERVICE CZECH REPUBLI;000000-2027820104;2600
CZ25692089;0000020817;IMI International s.r.o.;000000-2112596354;2700
CZ25692089;0000020817;IMI International s.r.o.;000000-1000397049;3500
CZ25692089;0000020817;IMI International s.r.o.;000000-0100258500;5000
CZ25773801;0000020750;Mediaservis;000000-6042550227;0100
CZ25773801;0000020750;Mediaservis;000000-2030210606;2600
CZ25794221;0000020778;GEA Food Solutions Czech s.r.o.;000000-2108568562;2700
CZ25794221;0000020778;GEA Food Solutions Czech s.r.o.;000000-1000312105;3500
CZ25820702;0000020902;MANUTAN-vybavení skladů,kancel.;000000-0050007323;6200
CZ25836200;0000020723;PORADCE s.r.o.;000027-2664020257;0100
CZ25836200;0000020723;PORADCE s.r.o.;000000-0159353633;0300
CZ26016451;0000020757;T-PROFI JČ, s.r.o.;000000-0156210231;0600
CZ26018128;0000020805;GRAND HOTEL ZVON s.r.o.;000000-0031003001;2700
CZ26018128;0000020805;GRAND HOTEL ZVON s.r.o.;000000-1032009274;5500
CZ26018128;0000020805;GRAND HOTEL ZVON s.r.o.;000000-1032009282;5500
CZ26019396;0000020958;EM Grafika s.r.o.;000000-0162053535;0300
CZ26020645;0000020807;META s.r.o. skladovací technika;000000-0430218018;2700
CZ26025230;0000020878;KSQ spol.s r.o.;000000-0153345077;0600
CZ26148544;0000020975;KWESTO s. r. o.;000000-3638600287;0100
CZ26687356;0000020527;RITTAL  Czech,  s.r.o.;000000-0803235022;2700
CZ26819201;0000020840;LEŇO stabil Czech s.r.o.;000086-5758770247;0100
CZ26819201;0000020840;LEŇO stabil Czech s.r.o.;000000-1659799329;0800
CZ26915162;0000020938;František Zalaba s.r.o.;000027-1301220247;0100
CZ26928779;0000020538;MAREK INDUSTRIAL a.s.;000000-5000433001;2600
CZ26928779;0000020538;MAREK INDUSTRIAL a.s.;000000-2081400207;4500
CZ27480143;0000020512;IBS Scherer Czech s.r.o.;000000-0957243551;0100
CZ27480143;0000020512;IBS Scherer Czech s.r.o.;000000-5004660009;2600
CZ27480143;0000020512;IBS Scherer Czech s.r.o.;000000-0073677004;2700
CZ27916693;0000020929;CCS;000000-0592140081;0100
CZ28180062;0000020581;Spraying Systems Czech,s.r.o.;000000-7299870247;0100
CZ28180062;0000020581;Spraying Systems Czech,s.r.o.;000000-6002347777;6300
CZ420916017;0000020832;VONDRÁK ANTONÍN jeřábnické práce;000000-0153941231;0100
CZ42868017;0000020405;AUTOCONT IPC  a. s.;000000-1007246761;0100
CZ42868017;0000020405;AUTOCONT IPC  a. s.;000035-9059670237;0100
CZ44846029;0000020799;S&T CZ s.r.o.;000000-0117422733;0300
CZ44846029;0000020799;S&T CZ s.r.o.;017128-0011742273;0300
CZ44846029;0000020799;S&T CZ s.r.o.;000000-2008790106;2600
CZ44846029;0000020799;S&T CZ s.r.o.;000000-1121108901;5500
CZ44849036;0000020607;SICK spol. s r.o.;000000-3076100001;7910
CZ45242666;0000020895;MUTE, spol. s r.o.;000000-0569342101;0100
CZ45272808;0000020508;DELL Computer, spol. s r.o.;000000-2003110204;2600
CZ45272808;0000020508;DELL Computer, spol. s r.o.;000000-2046350101;2600
CZ45539928;0000020404;FISHER SCIENTIFIC s.r.o.;000000-0008187973;0300
CZ45539928;0000020404;FISHER SCIENTIFIC s.r.o.;000000-1000541004;3500
CZ45793263;0000020702;VERDER s.r.o.;004001-0400043683;0300
CZ45793263;0000020702;VERDER s.r.o.;000000-0478478863;0300
CZ45793468;0000020960;CHEMSEARCH;000000-0113908621;0100
CZ46678867;0000020470;JARg, s.r.o.;000000-0763344231;0100
CZ46678867;0000020470;JARg, s.r.o.;000000-0488119004;0400
CZ46682457;0000020398;TOMO TANK spol. s r.o.;000000-5735120217;0100
CZ46682457;0000020398;TOMO TANK spol. s r.o.;000000-7000007415;8040
CZ46966447;0000020704;MERCI, s.r.o.;000000-0382408043;0300
CZ46966447;0000020704;MERCI, s.r.o.;008010-0003086743;0300
CZ46983864;0000020557;POKORNÝ, spol. s r.o.;000000-0372548093;0300
CZ46983864;0000020557;POKORNÝ, spol. s r.o.;008010-0003052623;0300
CZ470317120;0000020970;Technická guma (K&F);000000-0170134634;0300
CZ47123672;0000020831;Aon Česká republika spol.s r.o.;000000-2502640103;2600
CZ47239042;0000020546;STEINBAUER LECHNER spol. s r.o.;000000-0045000231;0100
CZ47239042;0000020546;STEINBAUER LECHNER spol. s r.o.;000051-8917460267;0100
CZ47239042;0000020546;STEINBAUER LECHNER spol. s r.o.;000000-5999510227;0100
CZ47239191;0000020413;TEMES, spol. s r. o.;000000-0044809231;0100
CZ47239191;0000020413;TEMES, spol. s r. o.;000000-0812026943;0300
CZ47783206;0000020610;TECHNOLOGY s.r.o.;000000-0106077663;0300
CZ47783206;0000020610;TECHNOLOGY s.r.o.;000000-0677022703;0300
CZ47783206;0000020610;TECHNOLOGY s.r.o.;000000-0004679022;0800
CZ48035131;0000020590;DRUSPED - LAGERMAX, s.r.o.;000000-0000799000;2700
CZ480802078;0000020475;TEMPUS HODINÁŘSTVÍ Vladimír Sklář;000000-0352545231;0100
CZ48171654;0000020872;PALSTAT s.r.o.;000086-0244100227;0100
CZ48171654;0000020872;PALSTAT s.r.o.;000000-1303275399;0800
CZ48269875;0000020501;AGROKOMPLET spol. s r.o.;000000-0150260211;0600
CZ48269875;0000020501;AGROKOMPLET spol. s r.o.;000000-0251107574;0600
CZ48536741;0000020646;SIPOR s.r.o.;000000-0088209051;0100
CZ49196545;0000020632;HSI Com s.r.o.;000000-0018006371;0100
CZ49196545;0000020632;HSI Com s.r.o.;000000-8900005321;2600
CZ520227079;0000020742;MARTES  Václav Martínek;000000-0156838985;0600
CZ520227079;0000020742;MARTES  Václav Martínek;000000-0309059078;0800
CZ521231111;0000020900;Václav Tůma;000000-0412040623;0300
CZ530104206;0000020421;RENT A CAR Petr Mojha-pùjèovna aut;000000-0000215757;0300
CZ531028266;0000020433;JUDr.Šimák ADVOKÁTNÍ KANCELÁØ;000000-1000000363;5500
CZ531028266;0000020433;JUDr.Šimák ADVOKÁTNÍ KANCELÁØ;000000-1052002002;5500
CZ531230279;0000020608;Zdeněk Candra;000000-0132067063;0300
CZ5502251733;0000020580;JIŘÍ VONDRKA;000000-0637614544;0600
CZ5510201554;0000020652;ING.JAN ŠPIDLEN montáž el.instalací;000000-0553240231;5500
CZ5705201997;0000020860;MUSÍLEK MILOSLAV kovoobrábění;000000-0112105958;0300
CZ5705201997;0000020860;MUSÍLEK MILOSLAV kovoobrábění;000000-0661710309;0800
CZ5705201997;0000020860;MUSÍLEK MILOSLAV kovoobrábění;000000-1041016695;5500
CZ5904230442;0000020761;KOCAR RUDOLF ing.;000000-0012131833;0300
CZ60433591;0000020932;EAN Èeská republika;000000-0067820329;0800
CZ60467550;0000020650;Schneider Electric CZ, s.r.o.;000000-0007900271;0100
CZ60696125;0000020569;AMPO s.r.o.;000000-0029200751;0100
CZ60726415;0000020419;Böttcher ČR, k.s.;008010-0903072953;0300
CZ60825685;0000020582;IZOPLAST, a.s.;000000-6008790227;0100
CZ60825685;0000020582;IZOPLAST, a.s.;000000-0812065803;0300
CZ6103191765;0000020979;Šebesta Ivo;000000-0158999045;0300
CZ6111080690;0000020669;Pešina Ivan - P+S SERVIS;000019-0035070287;0100
CZ61171077;0000020466;COMFORT SDRUŽENÍ a.s.;000000-4813660207;0100
CZ61500780;0000020449;SCHENKER, spol. s r.o.;000000-5003004720;5500
CZ61500780;0000020449;SCHENKER, spol. s r.o.;CZ0555000000005003004819;
CZ61860476;0000020946;SODEXO PASS Česká republika a.s.;000000-1219753052;2700
CZ61860476;0000020946;SODEXO PASS Česká republika a.s.;000000-1219759091;2700
CZ61860476;0000020946;SODEXO PASS Česká republika a.s.;000000-2106875410;2700
CZ62503529;0000020834;VDP s.r.o.;000000-0621824379;0800
CZ62503529;0000020834;VDP s.r.o.;000000-0711648399;0800
CZ62580922;0000020572;KOLBER  servis, s.r.o.;CZ5901000000357005390257;
CZ62580922;0000020572;KOLBER  servis, s.r.o.;000000-3583810227;0100
CZ63077639;0000020845;Wolters Kluwer ÈR, a.s.;000000-1333107011;2700
CZ63077639;0000020845;Wolters Kluwer ÈR, a.s.;000000-0000122921;5400
CZ63508206;0000020715;Betz s.r.o.;000000-0157324636;0300
CZ6403252108;0000020851;FRANTIŠEK HLÍZA;000000-0104782377;0300
CZ64084761;0000020490;VAE Prosys s.r.o.;000000-5007859005;2600
CZ64084761;0000020490;VAE Prosys s.r.o.;CZ5726000000005108638009;
CZ64581471;0000020507;BELTing, spol.s r.o.;000000-0116018923;0300
CZ6502191410;0000020556;NOVOTNÝ PETR výr.a obch.f - NEPOUŽÍ;000000-0201448231;0100
CZ65141849;0000020963;PEGA-VEL a. s.;CZ6868000000001200052053;
CZ6711070256;0000020651;NĚMEC HYNEK;000000-0273752523;0300
CZ6711070256;0000020651;NĚMEC HYNEK;000000-0273885633;0300
CZ6711070256;0000020651;NĚMEC HYNEK;008010-0708710083;0300
CZ7302051218;0000020918;Kolář Martin;CZ9820100000002200071136;
CZ7302051218;0000020918;Kolář Martin;000000-2400071130;2010
CZ7302051218;0000020918;Kolář Martin;SK1283300000002200071136;
