CZ00177016;0000022041;Český metrologický institut;000000-0070338621;0100
CZ00253154;0000021883;Diplomat;000000-5092240003;2700
CZ00253154;0000021883;Diplomat;000000-5267150019;4000
CZ13497863;0000021974;Kvalita - družstvo služeb;000000-2400069006;2010
CZ13497863;0000021974;Kvalita - družstvo služeb;000000-2111614071;2700
CZ14498138;0000021941;XANADU a.s.;000000-0280545231;0100
CZ14498138;0000021941;XANADU a.s.;000000-1044153003;2700
CZ14498138;0000021941;XANADU a.s.;000000-3012002330;5500
CZ14498529;0000022030;BKS s.r.o.;000000-0281548231;0100
CZ14498979;0000022010;Transforwarding České Budějovice,;000000-0012200093;0300
CZ14502593;0000021869;INBES s.r.o.;000000-0000217189;0300
CZ15055761;0000021952;ENIKA spol. s.r.o.;000027-3192760277;0100
CZ15268853;0000021783;AarhusKarlshamn;000000-0000446993;2700
CZ15268853;0000021783;AarhusKarlshamn;000000-4244045524;8950
CZ15889688;0000021747;GONDRAND, a.s.;CZ3301000000439936350287;
CZ15889688;0000021747;GONDRAND, a.s.;000000-0000959633;0300
CZ18630189;0000021944;Panflex s.r.o.;000000-0090788603;0300
CZ25152459;0000021948;Bemos CB s.r.o.;000000-6004070257;0100
CZ25169068;0000022142;CSS spedition s.r.o.;000000-0001824722;0800
CZ25169068;0000022142;CSS spedition s.r.o.;000000-0002050132;0800
CZ25364685;0000021769;AD Controls s.r.o.;000019-6365730257;0100
CZ25519506;0000022105;LAPP KABEL s.r.o.;000000-0053155006;2700
CZ25570765;0000021890;KMOTR-Masna Kromìøíž;000000-1019235007;0400
CZ25570765;0000021890;KMOTR-Masna Kromìøíž;000000-2055840102;2600
CZ25570765;0000021890;KMOTR-Masna Kromìøíž;000000-1000507009;3500
CZ25570765;0000021890;KMOTR-Masna Kromìøíž;000000-1071006420;5500
CZ25586823;0000021889;KRAHULÍK-MASOZÁVOD KRAHULÈÍ a.s.;000000-2055860103;2600
CZ25855123;0000021902;AEROTERM, a.s.;000000-0373513693;0300
CZ25882929;0000022067;Tubes International s.r.o.;000027-2501670247;0100
CZ25882929;0000022067;Tubes International s.r.o.;000000-1653983379;0800
CZ25947958;0000021765;KTR CR, spol. s r.o.;000000-0208048863;0300
CZ26007568;0000021984;Easytherm CZ s.r.o.;000000-0189335567;0300
CZ26007568;0000021984;Easytherm CZ s.r.o.;000000-2800166972;2010
CZ26018012;0000021950;J+M PAVLÁT INTERNATIONAL S.R.O.;000000-0412794943;0300
CZ26031868;0000021848;CB Auto a.s.;000000-2104176245;2700
CZ26031868;0000021848;CB Auto a.s.;000000-1012030666;5500
CZ26076519;0000022080;MIF TRANS S.R.O.;000000-0573395329;0800
CZ26076519;0000022080;MIF TRANS S.R.O.;000000-3012002402;5500
CZ26086140;0000021790;The Cambridgr Centre s.r.o.;000000-0195038219;0300
CZ26087308;0000021752;HYDRAULICKÝ SERVIS  s.r.o.;000051-9029880217;0100
CZ26087375;0000021923;LINGO s.r.o.;000000-0195914047;0300
CZ26091747;0000021982;PRECITOOL CZ s.r.o.;000000-4200400410;6800
CZ26108313;0000021995;KVALITA náhradní plnění s.r.o.;000000-2500068975;2010
CZ26226880;0000021975;MONTAKO CZ s.r.o.;000086-2022310287;0100
CZ26416972;0000021850;VYDAVATELSTVÍ SVĚT TISKU;000000-0146641003;2700
CZ26441381;0000022181;LMC s.r.o.;000000-0170158265;0300
CZ26470438;0000021912;MEGADYNE CZ s.r.o.;000000-0119504433;0300
CZ26688077;0000022094;C.S.CARGO Air-Sea, s.r.o.;CZ4903000000000176704300;
CZ26688077;0000022094;C.S.CARGO Air-Sea, s.r.o.;CZ2903000000000176704175;
CZ26688077;0000022094;C.S.CARGO Air-Sea, s.r.o.;000000-2102717343;2700
CZ26688077;0000022094;C.S.CARGO Air-Sea, s.r.o.;CZ4027000000002102717351;
CZ26688077;0000022094;C.S.CARGO Air-Sea, s.r.o.;CZ8727000000002102717378;
CZ26689537;0000021907;PolyOne ČR, s.r.o.;000000-2040480204;2600
CZ26689537;0000021907;PolyOne ČR, s.r.o.;CZ4026000000002040480300;
CZ26689537;0000021907;PolyOne ČR, s.r.o.;000000-2106947875;2700
CZ26689537;0000021907;PolyOne ČR, s.r.o.;000000-0050208420;1650
CZ26722275;0000021809;TFP universal a.s.;000027-9099400207;0100
CZ26722275;0000021809;TFP universal a.s.;000000-5020012730;5500
CZ26916126;0000021857;MaR  SYSTEMS s.r.o.;000000-1446989399;0800
CZ26916126;0000021857;MaR  SYSTEMS s.r.o.;000000-1769312243;0800
CZ26916126;0000021857;MaR  SYSTEMS s.r.o.;CZ9220100000002300629301;
CZ26926822;0000021960;ABAUT s.r.o.;000035-1370390207;0100
CZ26964651;0000021934;SCHUNK Intec s.r.o.;000000-0000035553;5500
CZ27117171;0000022182;PEPPERL+FUCHS s.r.o.;000035-3618010247;0100
CZ27117171;0000022182;PEPPERL+FUCHS s.r.o.;000000-0010537354;6200
CZ27180271;0000021674;Nakladatelství FORUM,s.r.o.;000000-1061010725;5500
CZ27180271;0000021674;Nakladatelství FORUM,s.r.o.;000000-5301112500;5500
CZ27249379;0000022061;VELOX CMS s.r.o.;000000-0017645403;0300
CZ27249379;0000022061;VELOX CMS s.r.o.;CZ9303000000000261656884;
CZ27249379;0000022061;VELOX CMS s.r.o.;000000-0005142280;0300
CZ27249379;0000022061;VELOX CMS s.r.o.;000000-0017645403;5500
CZ27298221;0000022040;BITO skladovací technika CZ s.r.o.;000000-3120800006;7910
CZ27298221;0000022040;BITO skladovací technika CZ s.r.o.;000000-3120800102;7910
CZ27472892;0000022195;Stäubli Systém s.r.o;000000-0195616648;0300
CZ27563588;0000022009;JUMBO TRANSPORT;000051-1983740257;0100
CZ27766489;0000022066;PNEUMAX Automation s.r.o.;000000-0207022004;0300
CZ27782271;0000022079;HEDOKA S.R.O.;000000-0211701819;0300
CZ27782271;0000022079;HEDOKA S.R.O.;000000-0213814438;0300
CZ27782271;0000022079;HEDOKA S.R.O.;000000-0201859698;0600
CZ27782271;0000022079;HEDOKA S.R.O.;000000-2723672053;0800
CZ27782271;0000022079;HEDOKA S.R.O.;000000-3516485399;0800
CZ27782271;0000022079;HEDOKA S.R.O.;000000-3204491001;5500
CZ360928060;0000021823;FRANTIŠEK FILIP;000000-1096956019;3030
CZ41188063;0000021843;FUCHS OIL CORPORATION (CZ), spol. s;000000-0300297563;0300
CZ43002056;0000021764;INTERFLON Czech, s.r.o.;000000-0253644111;0100
CZ43002056;0000021764;INTERFLON Czech, s.r.o.;000000-2600313624;2010
CZ43774750;0000022063;DONAUCHEM - URSETA s.r.o.;000000-1821790008;0400
CZ43774750;0000022063;DONAUCHEM - URSETA s.r.o.;000000-1821790008;2700
CZ43774750;0000022063;DONAUCHEM - URSETA s.r.o.;000000-1821790016;2700
CZ43774750;0000022063;DONAUCHEM - URSETA s.r.o.;000000-5010018397;5500
CZ44004036;0000021987;INVOS, spol. s r.o.;000000-1543910267;0100
CZ44004036;0000021987;INVOS, spol. s r.o.;000000-0017049353;0300
CZ44004036;0000021987;INVOS, spol. s r.o.;000000-0002108082;0800
CZ44795092;0000021930;GEBRÜDER WEISS;000000-5008929001;2700
CZ450318050;0000021861;Opravy a montáže vah;000000-6005690247;0100
CZ45242143;0000021842;Nordmann Rassmann Czech Rep. s.r.o.;CZ0927000000001012146036;
CZ45313351;0000022013;MAFRA a.s.;000000-1218942011;0100
CZ45350001;0000021851;Barentz, spol. s r.o.;000000-0361045351;0100
CZ45359571;0000022077;Kartáčovna KOLOVEČ;000000-0125561039;0300
CZ45359571;0000022077;Kartáčovna KOLOVEČ;000000-0213863627;0300
CZ46350543;0000022203;Z a Z    s.r.o.;000000-0800099483;0300
CZ47238704;0000022081;SIBOX s.r.o.;000000-0046505231;0100
CZ47238704;0000022081;SIBOX s.r.o.;000000-0272774624;0300
CZ47239786;0000021791;VETAS Èeské Budìjovice s.r.o.;000000-0560142349;0800
CZ47667010;0000021847;LORIKA   CZ s.r.o.;000027-4182250227;0100
CZ47667010;0000021847;LORIKA   CZ s.r.o.;000000-0009139391;5500
CZ47678488;0000022043;ABEL - COMPUTER s.r.o.;000000-1842393319;0800
CZ47910381;0000021874;INSTITUT PRO TESTOVÁNÍ A CERTIFIKAC;000000-0012903661;0100
CZ47917091;0000021690;FLAGA s.r.o.;000019-1902510207;0100
CZ48038920;0000021876;Resinex Czech Republic, s. r. o.;BE10068898421404;
CZ48038920;0000021876;Resinex Czech Republic, s. r. o.;000000-4031500049;7910
CZ48038920;0000021876;Resinex Czech Republic, s. r. o.;CZ6579100000004031500102;
CZ48201979;0000022114;DÙM TECHNIKY ÈES.BUD. SPOL.S.R.O.;000000-0052702231;0100
CZ49023098;0000021773;RUMPOLD 01-VODŇANY s.r.o.;000000-0031067005;2700
CZ49975366;0000021820;Gumex s.r.o.;000000-1895490227;0100
CZ49975366;0000021820;Gumex s.r.o.;000000-0673670113;0300
CZ500624213;0000021803;Shell Ing. Ivan Hrdlička;000000-4172100217;0100
CZ500624213;0000021803;Shell Ing. Ivan Hrdlička;000043-0976330247;0100
CZ510805171;0000022022;Švarc Karel;000000-0528045231;0100
CZ5909171411;0000021988;Jiøí Paøez;000000-0391844621;0100
CZ60077344;0000021893;Biologické centrum AV ČR;000000-0005527231;0710
CZ60077344;0000021893;Biologické centrum AV ČR;060003-0006730231;0710
CZ60111461;0000022130;Quittner& Schimek;000000-0161052709;0300
CZ60111461;0000022130;Quittner& Schimek;000000-0008885173;0300
CZ60713445;0000021753;PPO GROUP CZ, s.r.o.;000019-5052670287;0100
CZ60713445;0000021753;PPO GROUP CZ, s.r.o.;000000-0252505275;0300
CZ60713445;0000021753;PPO GROUP CZ, s.r.o.;000000-0252505865;0300
CZ60743603;0000021698;HHW-Hommel  Hercules;000000-0006206122;0800
CZ60743603;0000021698;HHW-Hommel  Hercules;000000-3274457001;2700
CZ60747536;0000021750;ÈSAD HODONÍN A.S. TOPTRANS;000000-2501940200;2600
CZ60849614;0000021927;JANOVIAK s.r.o.;000000-0209409245;0300
CZ60849614;0000021927;JANOVIAK s.r.o.;000000-0712046883;0300
CZ61063029;0000021885;PricewaterhouseCoopers;000000-1000072500;3500
CZ61063274;0000021854;Alfatronic s.r.o.;000019-6012380247;0100
CZ61063274;0000021854;Alfatronic s.r.o.;CZ9503000000000268584879;
CZ61498882;0000021892;PORTA s.r.o.;000000-0000035502;5400
CZ61498882;0000021892;PORTA s.r.o.;000000-5091104640;5500
CZ6207101670;0000021700;Ing. Martin Masopust - SKV;000000-0561897399;0800
CZ6207101670;0000021700;Ing. Martin Masopust - SKV;000000-2102706951;2700
CZ6211150220;0000021882;SETES - Vlastimil Kaňa;000000-1446146359;0800
CZ62411853;0000022175;Balluff CZ s.r.o.;000000-0016012743;0300
CZ62914511;0000021904;O.K.SERVIS BioPro, s.r.o.;000000-0576752723;0300
CZ62914511;0000021904;O.K.SERVIS BioPro, s.r.o.;000000-0804916014;2700
CZ62917455;0000022184;Kinex CZ s.r.o.;000000-0123243379;0800
CZ63482576;0000022197;Cominfo a.s.;000000-4080006311;6800
CZ63674181;0000022098;RODA s.r.o.;000000-0134420289;0300
CZ63987121;0000021687;TÜV SÜD Czech s.r.o.;000000-6493860267;0100
CZ63987121;0000021687;TÜV SÜD Czech s.r.o.;000000-1168829001;2700
CZ6403181323;0000021908;Richard Vosika - AAA RIVO;000000-0412357903;0300
CZ64050670;0000021725;LIMEX - TECHNIK s.r.o.;000000-0205085933;0300
CZ64050670;0000021725;LIMEX - TECHNIK s.r.o.;000000-0705077593;0300
CZ64050670;0000021725;LIMEX - TECHNIK s.r.o.;DE84508707002407620800;
CZ64949681;0000021836;T-mobile Czech Republic, a.s.;000019-2271190247;0100
CZ64949681;0000021836;T-mobile Czech Republic, a.s.;000000-0017489033;0300
CZ64949681;0000021836;T-mobile Czech Republic, a.s.;000019-2235210247;0300
CZ65276396;0000022007;Polytechnika, spol. s r. o.;000000-1734790501;2700
CZ683392528;0000021768;KEB Antriebstechnik GmbH;000000-7000017453;8040
CZ699000232;0000021968;HYDRO-FLEX-ZBA - NEPOUŽÍVAT;000000-8258260287;0100
CZ7301210994;0000022103;Milan Marek TMT servis;000000-0502948379;0800
CZ7802231239;0000022163;KOHOUT LUKÁ;000000-0182588406;0600
