CZ00011754;0000020102;Linde Gas a.s.;000502-0305466004;2700
CZ0045801622;0000020811;KART  spol. s r.o.;000000-0108953401;0300
CZ00510386;0000022411;DIATECH - PRAHA, spol. s r. o.;000019-6008230297;0100
CZ00538264;0000020258;SIDAT, spol.s r.o.;000000-0216026373;0300
CZ00538264;0000020258;SIDAT, spol.s r.o.;CZ9203000000000473966913;
CZ00564737;0000020157;FESTO, spol. s r. o.;CZ7779100000003053600206;
CZ00674893;0000020407;Elson spol. s r.o.;000000-0428440111;0100
CZ01810111;0000023374;Marták Sped s.r.o.;000107-5097330227;0100
CZ02412756;0033916124;SGM CB s.r.o.;000000-2109513837;2700
CZ02412756;0033916124;SGM CB s.r.o.;CZ9627000000002109513909;
CZ03301061;0033916056;Advanced AIRSEA s.r.o.;CZ6203000000000266714537;
CZ03301061;0033916056;Advanced AIRSEA s.r.o.;000000-0284492384;0300
CZ03438856;0033915838;INKOMO CZ s.r.o.;000000-0025204544;0600
CZ03573397;0033916245;EMK ELEKTRO s.r.o.;000000-0267799042;0300
CZ13497863;0000021974;Kvalita - družstvo služeb;000000-2111614071;2700
CZ14502992;0000020069;Českobudějovické pozemní stavby, sp;000107-6518280227;0100
CZ14869446;0000020184;HENNLICH s.r.o.;000000-6717778001;2700
CZ25134701;0000021180;EKO-KOM, a. s.;000000-1000366402;3500
CZ25163566;0000022716;VYZA TRABSM v.o.s.;000000-0212095013;0300
CZ25174738;0000022972;AB velkoobchod s.r.o.;000000-1709692061;2700
CZ25186973;0000021103;Sahan CB  s. r. o.;000000-0215668411;0300
CZ25194798;0000020699;PPL JIŽNÍ ÈECHY, spol. s.r.o.;000000-0522821076;2700
CZ25196375;0033917221;Bohemia Stone Spedition s.r.o.;000000-0203983457;0600
CZ25354523;0000020079;Řempo CB, a.s.;000107-4039470227;0100
CZ25357425;0000020631;FABORY-CZ,s.r.o.;000000-0017625963;0300
CZ25422952;0000021446;Peter Cremer Central Europe s.r.o.;CZ4862000000000011751731;
CZ25588044;0000020796;BMC BRNO, s.r.o.;CZ3306000000000155206599;
CZ25637151;0000021092;NZ SERVIS, spol. s r.o.;000019-8698300297;0100
CZ25683446;0000020886;DHL Expres Czech Republic s.r.o.;000000-0523206008;2700
CZ25765647;0000022806;SPEED PRESS Plus a.s.;000000-0270483276;0300
CZ25820702;0000020902;MANUTAN-vybavení skladů,kancel.;000000-0050007323;6200
CZ26007568;0000021984;Easytherm CZ s.r.o.;000000-2800166972;2010
CZ26018128;0000020805;GRAND HOTEL ZVON s.r.o.;000000-1032009274;5500
CZ26019744;0000022521;Šumavský pramen distribuce s.r.o.;000000-7000014316;8040
CZ26021145;0033903999;VISCOFAN CZ  s.r.o.;000000-0117171743;0300
CZ26027691;0000021227;CRAVT  s.r.o.;000078-1290400217;0100
CZ26027691;0000021227;CRAVT  s.r.o.;000000-0412255683;0300
CZ26032953;0000021188;LENZE, s. r. o.;000000-2000219001;2700
CZ26036185;0033916388;Hoppichler Paletten;000000-0004015322;0800
CZ26065258;0000023390;Albatros Prachatice, s.r.o.;000000-7100007578;8040
CZ26069997;0000021160;Plojhar s.r.o.;CZ3255000000005002202434;
CZ26073013;0000021587;DALUKU - Tichelmann s.r.o.;000000-9921000217;0100
CZ26073897;0000022764;INOMECH s.r.o.;000000-0189708001;0300
CZ26080338;0033916035;Marták Logistics s.r.o.;000035-1941980287;0100
CZ26086140;0000021790;The Cambridgr Centre s.r.o.;000000-0195038219;0300
CZ26087308;0000021752;HYDRAULICKÝ SERVIS  s.r.o.;000051-9029880217;0100
CZ26092336;0000022458;RM Chemicals spol. s r. o.;000000-0194942126;0300
CZ26092336;0000022458;RM Chemicals spol. s r. o.;000000-6686350001;5500
CZ26098261;0000022693;AMPARA s.r.o.;000000-9341100684;2700
CZ26108313;0000021995;KVALITA náhradní plnění s.r.o.;000000-2500068975;2010
CZ26111047;0000022750;TOOLS CB s.r.o.;000000-0253952149;0300
CZ26311208;0033914578;PREOL a.s.;CZ1001000000359752990247;
CZ26441381;0000022181;LMC s.r.o.;000000-0170158265;0300
CZ26689537;0000021907;PolyOne ČR, s.r.o.;CZ4026000000002040480300;
CZ26704153;0000022279;ERNST & YOUNG;000000-1411703100;8150
CZ26739291;0000022735;Kocián Šolc Balaštik;000000-0505515034;2700
CZ26819201;0000020840;LEŇO stabil Czech s.r.o.;000086-5758770247;0100
CZ26955130;0000023331;GRAVITECH s.r.o.;CZ4627000000002109983222;
CZ27067793;0000022633;EVERFIT hydraulika s.r.o.;000027-6610140227;0100
CZ27112039;0000021387;Tesa tape s.r.o.;000000-2042460207;2600
CZ27202097;0033916144;FARAVELLI s.r.o.;SK4111000000002626138481;
CZ27472892;0000022195;Stäubli Systém s.r.o;000000-0195616648;0300
CZ27766489;0000022066;PNEUMAX Automation s.r.o.;000000-0207022004;0300
CZ27890201;0000022482;Yuncheng Plate-Making CZ, s.r.o.;CZ1508000000001773552223;
CZ28063601;0000022226;Pavel Fišer Šuptrans s.r.o.;000000-5002005633;5500
CZ28073274;0000022266;Labelservis, s. r. o.;000000-5678498001;5500
CZ28090683;0000020302;T&T etikety s.r.o.;000000-3729087001;5500
CZ28104056;0033914692;BALTRO s.r.o.;000000-0229491725;0300
CZ28104056;0033914692;BALTRO s.r.o.;CZ6803000000000267821975;
CZ28109945;0033915398;TAXI Budějovice;000000-4676204001;5500
CZ28132408;0000023026;DELNET CZ s.r.o.;000000-4200264607;6800
CZ28140923;0033914091;TOMAKO s.r.o.;000000-5002207673;5500
CZ28156552;0033916567;Lite České Budějovice o.p.s.;000000-0252034477;0300
CZ28159888;0000023269;ProVisTech s.r.o.;000000-7235340001;5500
CZ28569130;0000021498;Azurr-technology spol. s r.o.;CZ6806000000000193469365;
CZ28763661;0000022644;TAPEX EU s.r.o.;CZ1808000000000005612612;
CZ28927125;0000022666;TECHNO-SERVICE CZ a.s.;000000-0534772339;0800
CZ28980158;0000023146;Go parking s.r.o.;000000-1002314585;2700
CZ29050821;0000022843;DVOØÁK a spol., advokátní kanceláø;000000-2136834329;0800
CZ29202574;0000022453;WEDISS TECH s.r.o.;000000-2200301309;2010
CZ40612848;0000020367;MASO - PROFIT, spol. s r.o.;000000-0001009031;0100
CZ42324254;0000020119;OTIS a.s.;000000-0010804651;0100
CZ42868017;0000023121;AutoCont Control Systems, s. r. o.,;000000-1007246761;0100
CZ42869781;0000022245;ENETEX TECHNOLOGY s.r.o.;000000-0001587042;0800
CZ43871143;0000020099;JOHNSON CONTROLS INTERNATIONAL, spo;000000-2106869109;2700
CZ44004036;0000021987;INVOS, spol. s r.o.;000000-0002108082;0800
CZ44795092;0000021930;GEBRÜDER WEISS;000000-5008929001;2700
CZ44846029;0000020799;S&T CZ s.r.o.;000000-0117422733;0300
CZ44962878;0000021077;SK Label, spol. s r. o.;000000-0069971024;2700
CZ45022534;0033916028;MONDI BUPAK s.r.o.;CZ4727000000002108454484;
CZ45308187;0000022900;TOYOTA MATERIAL HANDLING CZ s.r.o.;CZ1326000000002053090301;
CZ45791813;0000020376;Murtfeldt Plasty s.r.o.;000000-2504300102;2600
CZ45794707;0000022887;ARAMARK s.r.o.;000000-0300865153;0300
CZ46901876;0000021239;TART, s. r. o.;000000-0000135415;0300
CZ46966447;0000020704;MERCI, s.r.o.;000000-0382408043;0300
CZ470317120;0000020970;Technická guma (K&F);000000-0170134634;0300
CZ47123591;0000020100;JUNGHEINRICH  (ČR) s.r.o.;000000-1137782001;2700
CZ47239042;0000020546;STEINBAUER LECHNER spol. s r.o.;000000-0045000231;0100
CZ48111198;0000022605;ACTIVA spol. s r. o.;000000-0500032893;0300
CZ48117820;0000021372;RICOH Czech Republic s.r.o.;000000-0013149111;0100
CZ48593591;0000020248;KAISER+KRAFT, spol.s r.o.;000000-0023709071;0100
CZ49023098;0000021773;RUMPOLD 01-VODŇANY s.r.o.;000000-0031067005;2700
CZ49437330;0000020268;Reca spol. s r.o.;000000-0006210682;0800
CZ49546694;0033916811;THIMM Obaly, k.s.;CZ5908000000000000951412;
CZ49613464;0000020176;BRENNTAG CR s.r.o.;000000-1001044253;5500
CZ49613464;0000020176;BRENNTAG CR s.r.o.;CZ6155000000001001061619;
CZ49966065;0000020364;PROFIPRINT spol. s r.o.;000000-0372585273;0300
CZ49975366;0000021820;Gumex s.r.o.;000000-0673670113;0300
CZ510715233;0000020096;Ivan Nadberežný - INPRESS;000000-0252279538;0300
CZ5408223700;0000020129;Š + H  LOŽISKA  Šimek Karel;000000-0212105293;0300
CZ5804112237;0000022777;Václav Šálek;000107-7866520287;0100
CZ5909171411;0000021988;Jiøí Paøez;000000-0391844621;0100
CZ60069856;0000023348;Jatky Hradský s.r.o.;000000-0680031379;0800
CZ60192755;0000020347;ČEDOK  a. s.;000000-2108416269;2700
CZ60193336;0000020113;Telephonica O2 Czech Republic, a.s.;000027-4908440207;0100
CZ60463031;0000020178;Mettler Toledo, s.r.o.;000000-5146387001;2700
CZ60706091;0000022327;Vepak s.r.o.;CZ2801000000270619040217;
CZ60721723;0000020985;Pružinárna SUHA,spol. s r.o.;000000-1444821349;0800
CZ60837152;0000021251;CORAX spol.s r.o.;000000-1002182535;2700
CZ60851708;0000021565;SPH Elektro s.r.o.;000000-0003441944;0300
CZ6103091984;0033820930;Ladislav Volek;000000-1808273399;0800
CZ6103191765;0000020979;Šebesta Ivo;000000-0158999045;0300
CZ61171077;0000020466;COMFORT SDRUŽENÍ a.s.;000000-4813660207;0100
CZ61500780;0000020449;SCHENKER, spol. s r.o.;CZ0555000000005003004819;
CZ61503657;0000020228;FIMEX, spol. s  r. o.;000000-0006145382;0800
CZ61683566;0000022399;Explast, spol. s r.o.;CZ2035000000001330473809;
CZ61947024;0000020241;Haberkorn Ulmer  s.r.o.;000000-0101910708;0300
CZ62418661;0000023294;TRANE ČR spol. s r.o.;000000-0000053022;5400
CZ62909070;0000020230;SMC Industrial Automation  CZ s.r.o;CZ6227000000000046690211;
CZ62910370;0000020335;NOVATO spol. s r.o.;000019-3950090277;0100
CZ63475260;0033916670;DELIKOMAT s.r.o.;000000-1118090237;0100
CZ63482576;0000022197;Cominfo a.s.;000000-4080006311;6800
CZ64576558;0033917514;PEKA - AHS s.r.o.;000000-6474440267;0100
CZ64949681;0000021836;T-mobile Czech Republic, a.s.;000019-2235210247;0300
CZ6502082191;0000020225;Pavlíček František;000000-0563587319;0800
CZ6759010819;0000021541;Ing. Adéla Novotná;000000-0216592754;0300
CZ699000232;0000020254;HYDRO-FLEX-ZBA s.r.o.;000000-8258260287;0100
CZ699003336;0033916070;Z + M Partner, spol. s r. o.;000115-1262780267;0100
CZ699003336;0033916070;Z + M Partner, spol. s r. o.;000000-0003724952;0800
CZ70883521;0000021193;Univerzita Tomáše Bati;000027-1925270277;0100
