CZ00030821;0033916215;CÍL, výrobní družstvo;000000-0000719701;0100
CZ00268577;0000020550;Siemens, s.r.o.;CZ4927000000001013384394;
CZ00510386;0000022411;DIATECH - PRAHA, spol. s r. o.;000019-6008230297;0100
CZ00558851;0000020943;Uniprox spol. s r. o.;000000-0245017652;0300
CZ00564737;0000020157;FESTO, spol. s r. o.;CZ7779100000003053600206;
CZ00582204;0000022640;ESSA, spol. s r.o.;000000-5822040012;5500
CZ01810111;0000023374;Marták Sped s.r.o.;000107-5097330227;0100
CZ02096013;0000022966;Ing. Petr Švec  - PENTA s.r.o.;000107-5556760227;0100
CZ02352991;0000023437;V-Grip s.r.o.;CZ1620600000000001090861;
CZ02412756;0033916124;SGM CB s.r.o.;000000-2109513837;2700
CZ02517116;0000023449;Taktiq Communications s.r.o.;000107-6305860287;0100
CZ03301061;0033916056;Advanced AIRSEA s.r.o.;CZ6203000000000266714537;
CZ03301061;0033916056;Advanced AIRSEA s.r.o.;000000-0284492384;0300
CZ03438856;0033915838;INKOMO CZ s.r.o.;000000-0025204544;0600
CZ03573397;0033916245;EMK ELEKTRO s.r.o.;000000-0267799042;0300
CZ03603695;0033916071;ALMI Česká republika s.r.o.;000000-0003051954;5500
CZ13497863;0000021974;Kvalita - družstvo služeb;000000-2111614071;2700
CZ14499037;0000020272;TERMS a.s.;000000-2502230104;2600
CZ14502992;0000020069;Českobudějovické pozemní stavby, sp;000107-6518280227;0100
CZ14869446;0000020184;HENNLICH s.r.o.;000000-6717778001;2700
CZ18626971;0000020103;MERCK spol s r.o.;000000-3137600019;7910
CZ24133671;0033917329;DERPAL LOGISTIC s.r.o.;000000-0100018822;0800
CZ24284734;0000022479;DEL a.s.;000000-4010037729;6800
CZ25174738;0000022972;AB velkoobchod s.r.o.;000000-1709692061;2700
CZ25181700;0000022304;A v í z o  s.r.o.;000107-5644500257;0100
CZ25194798;0000020699;PPL JIŽNÍ ÈECHY, spol. s.r.o.;000000-0522821076;2700
CZ25196375;0033917221;Bohemia Stone Spedition s.r.o.;000000-0203983457;0600
CZ25231359;0000021144;VSK PROFI s.r.o.;000000-6267666001;5500
CZ25357425;0000020631;FABORY-CZ,s.r.o.;000000-0017625963;0300
CZ25422952;0000021446;Peter Cremer Central Europe s.r.o.;CZ4862000000000011751731;
CZ25588044;0000020796;BMC BRNO, s.r.o.;CZ3306000000000155206599;
CZ25637151;0000021092;NZ SERVIS, spol. s r.o.;000019-8698300297;0100
CZ25683446;0000020886;DHL Expres Czech Republic s.r.o.;000000-0523206008;2700
CZ25684094;0000020697;UNITED PARCEL SERVICE CZECH REPUBLI;000000-2027820104;2600
CZ25765647;0000022806;SPEED PRESS Plus a.s.;000000-0270483276;0300
CZ25820702;0000020902;MANUTAN-vybavení skladů,kancel.;000000-0050007323;6200
CZ25896377;0033916559;BAMAS - ELEKTRO spol.s r.o.;000000-1688760001;5500
CZ26007568;0000021984;Easytherm CZ s.r.o.;000000-2800166972;2010
CZ26018128;0000020805;GRAND HOTEL ZVON s.r.o.;000000-1032009274;5500
CZ26019744;0000022521;Šumavský pramen distribuce s.r.o.;000000-7000014316;8040
CZ26024501;0033915423;MOTOR JIKOV Fostron a.s.;000000-0310027006;2700
CZ26025230;0000020878;KSQ spol.s r.o.;000000-0153345077;0600
CZ26027691;0000021227;CRAVT  s.r.o.;000078-1290400217;0100
CZ26027691;0000021227;CRAVT  s.r.o.;000000-0412255683;0300
CZ26032953;0000021188;LENZE, s. r. o.;CZ2227000000002000219036;
CZ26036185;0033916388;Hoppichler Paletten;000000-0004015322;0800
CZ26069997;0000021160;Plojhar s.r.o.;CZ3255000000005002202434;
CZ26073013;0000021587;DALUKU - Tichelmann s.r.o.;000000-9921000217;0100
CZ26078201;0000020091;E.ON Energie, a.s.;010014-0001703621;0100
CZ26080338;0033916035;Marták Logistics s.r.o.;000035-1941980287;0100
CZ26092336;0000022458;RM Chemicals spol. s r. o.;000000-0194942126;0300
CZ26092336;0000022458;RM Chemicals spol. s r. o.;000000-6686350001;5500
CZ26093839;0000023378;PS PATROL s.r.o.;000000-0572305379;0800
CZ26098261;0000022693;AMPARA s.r.o.;000000-5002209898;5500
CZ26102692;0000021645;Apenex;000000-0254861468;0300
CZ26108313;0000021995;KVALITA náhradní plnění s.r.o.;000000-2500068975;2010
CZ26111047;0000022750;TOOLS CB s.r.o.;000000-0253952149;0300
CZ26148544;0000020975;KWESTO s. r. o.;000000-3638600287;0100
CZ26689537;0000021907;PolyOne ČR, s.r.o.;CZ4026000000002040480300;
CZ26704153;0000022279;ERNST & YOUNG;000000-1411703100;8150
CZ26765799;0000022595;CELKOM Praha,spol. s r.o.;000000-2090584319;0800
CZ26816121;0000022825;CANIS safety, a.s.;000000-0185690908;0300
CZ26819201;0000020840;LEŇO stabil Czech s.r.o.;000086-5758770247;0100
CZ26955130;0000023331;GRAVITECH s.r.o.;CZ4627000000002109983222;
CZ27067793;0000022633;EVERFIT hydraulika s.r.o.;000027-6610140227;0100
CZ27090833;0033915492;DACHSER Intelligent Logistics;000000-0525331005;2700
CZ27127010;0000021068;Schindler CZ, a.s.;000000-0900476493;0300
CZ27202097;0033916144;FARAVELLI s.r.o.;SK4111000000002626138481;
CZ27249379;0000022061;VELOX CMS s.r.o.;CZ9303000000000261656884;
CZ27420761;0000022583;UNIVAR Czech s.r.o.;000000-1000450604;3500
CZ27480143;0000020512;IBS Scherer Czech s.r.o.;000000-0957243551;0100
CZ27518949;0000022627;TBA PLASTOVÉ OBALY S.R.O.;000000-0208899131;0600
CZ27612180;0000023441;Keller & Kalmbach;000000-0512769008;2700
CZ27674207;0000022964;NÁSTROJE CZ, s.r.o.;000000-0212924416;0300
CZ27890201;0000022482;Yuncheng Plate-Making CZ, s.r.o.;CZ1508000000001773552223;
CZ28063601;0000022226;Pavel Fišer Šuptrans s.r.o.;000000-5002005633;5500
CZ28073274;0000022266;Labelservis, s. r. o.;000000-5678498001;5500
CZ28090683;0000020302;T&T etikety s.r.o.;000000-3729087001;5500
CZ28104056;0033914692;BALTRO s.r.o.;000000-0229491725;0300
CZ28106504;0000023183;Petr Novotný s.r.o.;000043-4888840237;0100
CZ28109945;0033915398;TAXI Budějovice;000000-4676204001;5500
CZ28132408;0000023026;DELNET CZ s.r.o.;000000-4200264607;6800
CZ28140923;0033914091;TOMAKO s.r.o.;000000-5002207673;5500
CZ28159888;0000023269;ProVisTech s.r.o.;000000-7235340001;5500
CZ28189264;0000022765;AGILITY LOGISTICS S.R.O.;CZ5627000000002102731225;
CZ28569130;0000021498;Azurr-technology spol. s r.o.;CZ6806000000000193469365;
CZ28763661;0000022644;TAPEX EU s.r.o.;CZ1808000000000005612612;
CZ28927125;0000022666;TECHNO-SERVICE CZ a.s.;000000-0534772339;0800
CZ28980158;0000023146;Go parking s.r.o.;000000-1002314585;2700
CZ29298172;0033916659;HG Technic, s.r.o.;000000-2106939162;2700
CZ42324254;0000020119;OTIS a.s.;000000-0010804651;0100
CZ42340161;0000022236;PROFITECH FOOD s.r.o.;000000-0176738076;0300
CZ42767181;0000023201;REO AMOS, spol. s r.o.;000000-0001352462;0800
CZ43871143;0000020099;JOHNSON CONTROLS INTERNATIONAL, spo;000000-2106869109;2700
CZ44004036;0000021987;INVOS, spol. s r.o.;000000-0002108082;0800
CZ44265077;0000021328;A.T.A. technik spol. s r.o.;000000-1099541011;0100
CZ44846029;0000020799;S&T CZ s.r.o.;000000-0117422733;0300
CZ44849036;0000020607;SICK spol. s r.o.;000000-3076100001;7910
CZ45022534;0033916028;MONDI BUPAK s.r.o.;CZ4727000000002108454484;
CZ45242143;0000021842;Nordmann Rassmann Czech Rep. s.r.o.;CZ0927000000001012146036;
CZ45539928;0000020404;FISHER SCIENTIFIC s.r.o.;000000-1000541004;3500
CZ45791813;0000020376;Murtfeldt Plasty s.r.o.;000000-2504300102;2600
CZ45794707;0000022887;ARAMARK s.r.o.;000000-0300865153;0300
CZ46346635;0000020355;BIBUS s. r. o.;000000-0003949203;0300
CZ46901876;0000021239;TART, s. r. o.;000000-0000135415;0300
CZ47123591;0000020100;JUNGHEINRICH  (ČR) s.r.o.;000000-1137782001;2700
CZ47124652;0000020361;Porsche Inter Auto CZ s.r.o;000000-5020015835;5500
CZ47917091;0000021690;FLAGA s.r.o.;000019-1902510207;0100
CZ48038920;0000021876;Resinex Czech Republic, s. r. o.;BE10068898421404;
CZ48111198;0000022605;ACTIVA spol. s r. o.;000000-0500032893;0300
CZ48117820;0000021372;RICOH Czech Republic s.r.o.;000000-0013149111;0100
CZ48536741;0000020646;SIPOR s.r.o.;000000-0088209051;0100
CZ49023098;0000021773;RUMPOLD 01-VODŇANY s.r.o.;000000-0031067005;2700
CZ49243438;0000023306;V-S KOM, s.r.o.;000000-0002536642;0800
CZ49546694;0033916811;THIMM Obaly, k.s.;CZ5908000000000000951412;
CZ49613464;0000020176;BRENNTAG CR s.r.o.;000000-1001044253;5500
CZ49613464;0000020176;BRENNTAG CR s.r.o.;CZ6155000000001001061619;
CZ49966065;0000020364;PROFIPRINT spol. s r.o.;000000-0372585273;0300
CZ510715233;0000020096;Ivan Nadberežný - INPRESS;000000-0252279538;0300
CZ5408223700;0000020129;Š + H  LOŽISKA  Šimek Karel;000000-0212105293;0300
CZ5808031570;0000023188;Jiří Hemmel   J.H.Instal;000000-0168461070;0600
CZ60069856;0000023348;Jatky Hradský s.r.o.;000000-0680031379;0800
CZ60192755;0000020347;ČEDOK  a. s.;000000-2108416269;2700
CZ60703024;0000023015;Interflex s.r.o.;000000-5361070277;0100
CZ60706091;0000022327;Vepak s.r.o.;CZ2801000000270619040217;
CZ60837152;0000021251;CORAX spol.s r.o.;000000-1002182535;2700
CZ60849657;0000020185;ČEVAK a.s.;000000-5002006468;5500
CZ60850353;0000020296;KOSTAX spol. s r.o.;000000-0003540176;0300
CZ60851708;0000021565;SPH Elektro s.r.o.;000000-0003441944;0300
CZ6103191765;0000020979;Šebesta Ivo;000000-0158999045;0300
CZ61500780;0000020449;SCHENKER, spol. s r.o.;CZ0555000000005003004819;
CZ61503657;0000020228;FIMEX, spol. s  r. o.;CZ1108000000000006145462;
CZ61947024;0000020241;Haberkorn Ulmer  s.r.o.;000000-0101910708;0300
CZ6211150220;0000021882;SETES - Vlastimil Kaňa;000000-1446146359;0800
CZ62411853;0000022175;Balluff CZ s.r.o.;000000-0016012743;0300
CZ62909070;0000020230;SMC Industrial Automation  CZ s.r.o;CZ6227000000000046690211;
CZ62910370;0000020335;NOVATO spol. s r.o.;000019-3950090277;0100
CZ63482576;0000022197;Cominfo a.s.;000000-4080006311;6800
CZ6360021954;0000020052;Ivana Týmalová TYKO;000000-0912121323;0300
CZ63984211;0000021399;ASCO JOUCOMATIC  s.r.o.;000000-3139400002;7910
CZ6412090894;0000020177;JOSEF BOBR;000000-0260448231;0100
CZ64945201;0000023163;Media Representations, spol. s r.o.;000000-0478423563;0300
CZ64949681;0000021836;T-mobile Czech Republic, a.s.;000019-2235210247;0300
CZ6502082191;0000020225;Pavlíček František;000000-0563587319;0800
CZ65141849;0033912770;PEGA-VEL, a.s.;000000-4200088420;6800
CZ6607151067;0000022772;Petr Macháček;000000-1370795028;3030
CZ6759010819;0000021541;Ing. Adéla Novotná;000000-0216592754;0300
CZ699000232;0000020254;HYDRO-FLEX-ZBA s.r.o.;000000-8258260287;0100
CZ699003336;0033916070;Z + M Partner, spol. s r. o.;000000-0003724952;0800
CZ7010311253;0000022990;Odløich Øežábek;000000-0159887643;0600
CZ7302051218;0000020918;Kolář Martin;000000-2400071130;2010
CZ7306151248;0033917344;Ondřej Klouda;000000-0219694078;0300
