CZ00011754;0000020102;Linde Gas a.s.;000502-0305466004;2700
CZ00030821;0033916215;CÍL, výrobní družstvo;000000-0000719701;0100
CZ0045801622;0000020811;KART  spol. s r.o.;000000-0108953401;0300
CZ00510386;0000022411;DIATECH - PRAHA, spol. s r. o.;000019-6008230297;0100
CZ00564737;0000020157;FESTO, spol. s r. o.;CZ7779100000003053600206;
CZ00582204;0000022640;ESSA, spol. s r.o.;000000-5822040012;5500
CZ01810111;0000023374;Marták Sped s.r.o.;000107-5097330227;0100
CZ02096013;0000022966;Ing. Petr Švec  - PENTA s.r.o.;000107-5556760227;0100
CZ02412756;0033916124;SGM CB s.r.o.;000000-2109513837;2700
CZ02858819;0033916723;SAPRIL Morava s.r.o.;000000-8209275001;5500
CZ03301061;0033916056;Advanced AIRSEA s.r.o.;CZ6203000000000266714537;
CZ03573397;0033916245;EMK ELEKTRO s.r.o.;000000-0267799042;0300
CZ13497791;0000020420;HERBIA spol.s r.o.;000000-2813049329;0800
CZ13497863;0000021974;Kvalita - družstvo služeb;000000-2111614071;2700
CZ13583972;0000022989;TMT spol. s r.o.;000000-0578793203;0300
CZ14498138;0000021941;XANADU a.s.;000000-1044153003;2700
CZ14502992;0000020069;Českobudějovické pozemní stavby, sp;000107-6518280227;0100
CZ18626971;0000020103;MERCK spol s r.o.;000000-3137600019;7910
CZ18630774;0000020847;KODYS, spol.s r.o.;000000-5030010827;5500
CZ25163027;0000021305;Uniprojekta s.r.o.;000000-6083040207;0100
CZ25164996;0000021660;ANTONI CZ s.r.o.;000000-7100005257;8040
CZ25174240;0033915891;Studio D - akustika s.r.o.;000000-6023770267;0100
CZ25174738;0000022972;AB velkoobchod s.r.o.;000000-1709692061;2700
CZ25186973;0000021103;Sahan CB  s. r. o.;000000-0215668411;0300
CZ25354523;0000020079;Řempo CB, a.s.;000107-4039470227;0100
CZ25374389;0033916772;Simex Control, s.r.o.;000000-0269781102;0300
CZ25422952;0000021446;Peter Cremer Central Europe s.r.o.;CZ4862000000000011751731;
CZ25555308;0033915880;LABARA s.r.o.;000000-4200400509;6800
CZ25588044;0000020796;BMC BRNO, s.r.o.;CZ3306000000000155206599;
CZ25683446;0000020886;DHL Expres Czech Republic s.r.o.;000000-0523206008;2700
CZ25765647;0000022806;SPEED PRESS Plus a.s.;000000-0270483276;0300
CZ25820702;0000020902;MANUTAN-vybavení skladů,kancel.;000000-0050007323;6200
CZ26018012;0000021950;J+M PAVLÁT INTERNATIONAL S.R.O.;000000-0412794943;0300
CZ26026589;0000023195;ATS INVEST s.r.o.;000000-2106016413;2700
CZ26027691;0000021227;CRAVT  s.r.o.;000078-1290400217;0100
CZ26036185;0033916388;Hoppichler Paletten;000000-0004015322;0800
CZ26055210;0000021476;PK  SERVIS tech.součásti s.r.o.;000000-0178687145;0600
CZ26065258;0000023390;Albatros Prachatice, s.r.o.;000000-7100007578;8040
CZ26069997;0000021160;Plojhar s.r.o.;CZ3255000000005002202434;
CZ26073013;0000021587;DALUKU - Tichelmann s.r.o.;000000-9921000217;0100
CZ26073897;0000022764;INOMECH s.r.o.;000000-0189708001;0300
CZ26076306;0000021585;Kuboušek, s.r.o.;000000-4200040080;6800
CZ26076519;0000022080;MIF TRANS S.R.O.;000000-0573395329;0800
CZ26080338;0033916035;Marták Logistics s.r.o.;000035-1941980287;0100
CZ26086140;0000021790;The Cambridgr Centre s.r.o.;000000-0195038219;0300
CZ26092336;0000022458;RM Chemicals spol. s r. o.;000000-0194942126;0300
CZ26092336;0000022458;RM Chemicals spol. s r. o.;000000-6686350001;5500
CZ26098261;0000022693;AMPARA s.r.o.;000000-5002209898;5500
CZ26108313;0000021995;KVALITA náhradní plnění s.r.o.;000000-2500068975;2010
CZ26111047;0000022750;TOOLS CB s.r.o.;000000-0253952149;0300
CZ26148544;0000020975;KWESTO s. r. o.;000000-3638600287;0100
CZ26228181;0033915916;SENZA družstvo, chráněná dílna;000086-3215900237;0100
CZ26311208;0033914578;PREOL a.s.;CZ1001000000359752990247;
CZ26689537;0000021907;PolyOne ČR, s.r.o.;CZ4026000000002040480300;
CZ26872072;0000022469;Den Braven Czech and Slovak s.r.o.;000019-0848810297;0100
CZ26955130;0000023331;GRAVITECH s.r.o.;CZ4627000000002109983222;
CZ27117171;0000022182;PEPPERL+FUCHS s.r.o.;000000-0010537354;6200
CZ27420761;0000022583;UNIVAR Czech s.r.o.;000000-1000450604;3500
CZ27612180;0000023441;Keller & Kalmbach;000000-0512769008;2700
CZ27637166;0033823388;Euro VAT Reclaim, s.r.o.;CZ9720100000002800691662;
CZ27733319;0000020149;STS Technologie spol. s r.o.;000035-9345930247;0100
CZ27766489;0000022066;PNEUMAX Automation s.r.o.;000000-0207022004;0300
CZ27890201;0000022482;Yuncheng Plate-Making CZ, s.r.o.;CZ1508000000001773552223;
CZ27902943;0000022853;DEGA CZ s.r.o.;000000-2502719399;0800
CZ28063601;0000022226;Pavel Fišer Šuptrans s.r.o.;000000-5002005633;5500
CZ28073274;0000022266;Labelservis, s. r. o.;000000-5678498001;5500
CZ28076354;0000023259;HSB-CZ s.r.o.;000043-1147930207;0100
CZ28090683;0000020302;T&T etikety s.r.o.;000000-3729087001;5500
CZ28104056;0033914692;BALTRO s.r.o.;000000-0229491725;0300
CZ28104056;0033914692;BALTRO s.r.o.;CZ6803000000000267821975;
CZ28106504;0000023183;Petr Novotný s.r.o.;000043-4888840237;0100
CZ28132408;0000023026;DELNET CZ s.r.o.;000000-4200264607;6800
CZ28140923;0033914091;TOMAKO s.r.o.;000000-5002207673;5500
CZ28156552;0033916567;Lite České Budějovice o.p.s.;000000-0252034477;0300
CZ28189264;0000022765;AGILITY LOGISTICS S.R.O.;CZ5627000000002102731225;
CZ28202376;0000022377;TOPTRANS EU, a.s.;000000-0187006217;0600
CZ28763661;0000022644;TAPEX EU s.r.o.;CZ1808000000000005612612;
CZ28980158;0000023146;Go parking s.r.o.;000000-1002314585;2700
CZ40612848;0000020367;MASO - PROFIT, spol. s r.o.;000000-0001009031;0100
CZ42324254;0000020119;OTIS a.s.;000000-0010804651;0100
CZ42767181;0000023201;REO AMOS, spol. s r.o.;000000-0001352462;0800
CZ43774750;0000022063;DONAUCHEM - URSETA s.r.o.;000000-5010018397;5500
CZ43871143;0000020099;JOHNSON CONTROLS INTERNATIONAL, spo;000000-2106869109;2700
CZ44004036;0000021987;INVOS, spol. s r.o.;000000-0002108082;0800
CZ44265077;0000021328;A.T.A. technik spol. s r.o.;000000-1099541011;0100
CZ44962878;0000021077;SK Label, spol. s r. o.;000000-0069971024;2700
CZ45022216;0000020369;ČERPADLA NEPTUN spol. s r.o.;000000-0758641231;0100
CZ45022534;0033916028;MONDI BUPAK s.r.o.;CZ4727000000002108454484;
CZ450318050;0000021861;Opravy a montáže vah;000000-6005690247;0100
CZ45308187;0000022900;TOYOTA MATERIAL HANDLING CZ s.r.o.;000000-2053090109;2600
CZ45791813;0000020376;Murtfeldt Plasty s.r.o.;000000-2504300102;2600
CZ45793468;0000020960;CHEMSEARCH;000000-0113908621;0100
CZ45794707;0000022887;ARAMARK s.r.o.;000000-0300865153;0300
CZ46346635;0000020355;BIBUS s. r. o.;000000-0003949203;0300
CZ46901876;0000021239;TART, s. r. o.;000000-0000135415;0300
CZ47123591;0000020100;JUNGHEINRICH  (ČR) s.r.o.;000000-1137782001;2700
CZ47238704;0000022081;SIBOX s.r.o.;000000-0046505231;0100
CZ47239042;0000020546;STEINBAUER LECHNER spol. s r.o.;000000-0045000231;0100
CZ47667010;0000021847;LORIKA   CZ s.r.o.;000027-4182250227;0100
CZ48111198;0000022605;ACTIVA spol. s r. o.;000000-0500032893;0300
CZ48117820;0000021372;RICOH Czech Republic s.r.o.;000000-0013149111;0100
CZ49023098;0000021773;RUMPOLD 01-VODŇANY s.r.o.;000000-0031067005;2700
CZ49437330;0000020268;Reca spol. s r.o.;000000-0006210682;0800
CZ49613464;0000020176;BRENNTAG CR s.r.o.;000000-1001044253;5500
CZ49614932;0000020253;Atlas Copco  s.r.o.;000000-3142900024;7910
CZ49975366;0000021820;Gumex s.r.o.;000000-0673670113;0300
CZ510715233;0000020096;Ivan Nadberežný - INPRESS;000000-0252279538;0300
CZ5408223700;0000020129;Š + H  LOŽISKA  Šimek Karel;000000-0212105293;0300
CZ60069856;0000023348;Jatky Hradský s.r.o.;000000-0680031379;0800
CZ60192755;0000020347;ČEDOK  a. s.;000000-2108416269;2700
CZ60837152;0000021251;CORAX spol.s r.o.;000000-1002182535;2700
CZ60850353;0000020296;KOSTAX spol. s r.o.;000000-0003540176;0300
CZ6207101670;0000021700;Ing. Martin Masopust - SKV;000000-2102706951;2700
CZ62411853;0000022175;Balluff CZ s.r.o.;000000-0016012743;0300
CZ62580922;0000020572;KOLBER  servis, s.r.o.;000000-3583810227;0100
CZ62909070;0000020230;SMC Industrial Automation  CZ s.r.o;000000-0046690000;2700
CZ62910370;0000020335;NOVATO spol. s r.o.;000019-3950090277;0100
CZ6360021954;0000020052;Ivana Týmalová TYKO;000000-0912121323;0300
CZ63908824;0033915262;COREX CZECH s.r.o.;000000-0017626413;0300
CZ6502082191;0000020225;Pavlíček František;000000-0563587319;0800
CZ6607151067;0000022772;Petr Macháček;000000-1370795028;3030
CZ699000232;0000020254;HYDRO-FLEX-ZBA s.r.o.;000000-8258260287;0100
CZ7802231239;0000022163;KOHOUT LUKÁ;000000-0182588406;0600
