CZ00216275;0033915991;Univerzita Pardubice;000000-0037030561;0100
CZ00410829;0000023356;ZOO Ohrada;000000-0195991085;0300
CZ00477265;0000023427;KOVOTEX s.r.o.;000000-0009616231;0100
CZ00513156;0033915847;Střední odborná škola elektrotechni;000000-0041333231;0100
CZ00538850;0000023381;Česká metrologická společnost;000000-0193646448;0300
CZ00551163;0033915763;Weco-Travel s.r.o.;000000-0003611392;0800
CZ01810111;0000023374;Marták Sped s.r.o.;000107-5097330227;0100
CZ02352991;0000023437;V-Grip s.r.o.;000000-0262135677;0300
CZ02352991;0000023437;V-Grip s.r.o.;CZ1620600000000001090861;
CZ02517116;0000023449;Taktiq Communications s.r.o.;000107-6305860287;0100
CZ03438856;0033915838;INKOMO CZ s.r.o.;000000-0025204544;0600
CZ03475751;0033915996;MATLOCHA s.r.o.;000107-8515150207;0100
CZ15888959;0033915772;TNT Express Worldwide, spol.s r.o.;000000-1000503606;3500
CZ22795481;0000023371;Routech s.r.o.;000000-2107857185;2700
CZ24144860;0000023429;WPremium event,s.r.o.;000000-2400156863;2010
CZ24147591;0033915703;KRC partners s.r.o.;000000-0245815478;0300
CZ24147591;0033915703;KRC partners s.r.o.;000000-0272010229;0300
CZ24289680;0033915824;HAHN Automation, sr.o.;CZ6568000000001200176558;
CZ24791814;0033915710;CORDSTRAP, s.r.o.;000000-0000244312;5400
CZ24796123;0033915715;Top visiion open events s.r.o.;000000-2800113969;2010
CZ24802964;0033915963;VS-TREND s.r.o.;000000-2106249823;2700
CZ25111060;0033915590;WRH Global cz, s.r.o.;000019-3319780217;0100
CZ25111060;0033915590;WRH Global cz, s.r.o.;CZ7420100000002200505352;
CZ25153510;0000023406;GLOBIS spol. s r.o.;000000-0198850181;0300
CZ25153919;0033915702;Adámková Reality JIH s.r.o.;000000-3602726339;0800
CZ25173057;0000023392;TISKÁRNA PROTISK, s.r.o.;000000-0412107883;0300
CZ25174240;0033915891;Studio D - akustika s.r.o.;000000-6023770267;0100
CZ25174495;0033915870;AGROM-KJ, s.r.o.;000000-6023580287;0100
CZ25179896;0033915741;Lázně Aurora s.r.o.;000000-4200001807;7940
CZ25361040;0000023397;SPRINT TRADING s.r.o.;000019-6363960227;0100
CZ25554034;0033915948;MILMAR, SPOL. s r.o.;000000-8900168497;2600
CZ25555308;0033915880;LABARA s.r.o.;000000-4200400509;6800
CZ25579703;0033915725;SEZAKO Prostějov s.r.o.;000000-0150649016;0600
CZ25606441;0033915952;AxFlow s.r.o.;000000-5266083002;2700
CZ25629328;0033915491;SPEDMAN  GLOBAL LOGISTICS a.s.;000000-2108762794;2700
CZ25632850;0033915583;Expeditors International ČR, s.r.o.;000000-0694903107;8150
CZ25648071;0033915399;Internet Info, s.r.o.;000000-2201862028;5500
CZ25737392;0000023419;Blue Events, s.r.o.;000000-0900625233;0300
CZ25781049;0033915857;DREAMland, spol. s r.o.;000000-0204124427;0300
CZ25844822;0000023382;Omnis Olomouc, a.s.;000000-2400179627;2010
CZ25922246;0033915542;REMONT ČERPADLA s. r. o.;000078-9264070257;0100
CZ25928368;0033915629;TF PRESS s.r.o.;000000-0161992223;0300
CZ25928368;0033915629;TF PRESS s.r.o.;000000-2200823772;2010
CZ26024501;0033915423;MOTOR JIKOV Fostron a.s.;000000-0310027006;2700
CZ26024527;0033914794;VELIMPEX s.r.o. Dřevovýroba;000000-1012010286;5500
CZ26039389;0000023401;Váhy CB s.r.o.;000000-0157422893;0600
CZ26056321;0000023426;Altamire Č.Budějovice s.r.o.;000000-0163061887;0600
CZ26065037;0033915434;FRAMI CZ, s.r.o.;000000-1012040215;5500
CZ26065258;0000023390;Albatros Prachatice, s.r.o.;000000-7100007578;8040
CZ26080087;0033915930;ASLAN CZ, s.r.o.;000035-3042230297;0100
CZ26085356;0033915797;Trhlík, s.r.o.;000000-0195116854;0300
CZ26087391;0000023376;Cestovní kancelář RoSlo s.r.o.;000000-2500323964;2010
CZ26093839;0000023378;PS PATROL s.r.o.;000000-0572305379;0800
CZ26228181;0033915916;SENZA družstvo, chráněná dílna;000086-3215900237;0100
CZ26248026;0000023391;Zapletal-Kovo a.s.;000000-2108378805;2700
CZ26250748;0000023365;DIMER Engineering s.r.o.;000000-2104565048;2700
CZ26300176;0000023430;TROMA - MACH s.r.o.;000000-5380050247;0100
CZ26311208;0033914578;PREOL a.s.;CZ1001000000359752990247;
CZ26367807;0033915764;ENVI GROUP s.r.o.;000000-0188443574;0300
CZ26500329;0033915954;Yusen Logistics (Czech) s.r.o.;000000-0000300206;2020
CZ26810093;0033915949;Bartoň a Partner s.r.o.;000000-0259358650;0300
CZ26980681;0000023407;J&H Brychta s.r.o.;000035-4399080257;0100
CZ27090833;0033915492;DACHSER Intelligent Logistics;000000-0525331005;2700
CZ27187926;0000023428;LINAK C&S s.r.o.;000000-0065634004;2700
CZ27275949;0033915685;Akvina servis s.r.o.;000043-9506380267;0100
CZ27448843;0033914693;SERENA GS, s.r.o.;000000-1104328339;0800
CZ27596338;0000023398;CBH2013 a.s.;000000-2109521140;2700
CZ27603181;0000023421;Multimex spedition a.s.;000000-0198922835;0300
CZ27612180;0000023441;Keller & Kalmbach;000000-0512769008;2700
CZ27633951;0000023350;THC seal, s.r.o.;000035-8182700257;0100
CZ27637166;0033823388;Euro VAT Reclaim, s.r.o.;000000-0212193764;0300
CZ27637166;0033823388;Euro VAT Reclaim, s.r.o.;CZ9720100000002800691662;
CZ27710157;0000023403;Metaltrade International s.r.o.;000043-1909880227;0100
CZ27756432;0000023408;C-FILTER FILTRY, s.r.o.;000000-0218240648;0300
CZ27757986;0000023385;FROMM obalové systémy CZ s.r.o.;000000-1002528065;2700
CZ27768953;0000023364;VÚHŽ a.s.;000000-0106411342;0300
CZ27779556;0033915929;ATS aplikované technické systémy s.;000107-0501120297;0100
CZ28070232;0033915697;RENTAL plošiny s.r.o.;000000-0711909309;0800
CZ28075030;0000023384;Hrdlička Oils s.r.o.;000043-0976330247;0100
CZ28088107;0033915740;FINÁL CB s.r.o.;000000-2300432373;2010
CZ28104056;0033914692;BALTRO s.r.o.;000000-0229491725;0300
CZ28104056;0033914692;BALTRO s.r.o.;CZ6803000000000267821975;
CZ28104056;0033914692;BALTRO s.r.o.;SK3275000000004015938374;
CZ28109945;0033915398;TAXI Budějovice;000000-4676204001;5500
CZ28114221;0033915780;Propom s.r.o;000043-6400310267;0100
CZ28128125;0000023423;HYUNDAI-Fischer CZ s.r.o.;000000-0253378220;0300
CZ28128125;0000023423;HYUNDAI-Fischer CZ s.r.o.;000000-2109796240;2700
CZ28140371;0033916027;KANAL - Serv s.r.o.;000000-2812807319;0800
CZ28140923;0033914091;TOMAKO s.r.o.;000107-4578920207;0100
CZ28140923;0033914091;TOMAKO s.r.o.;000000-5002207673;5500
CZ28233069;0000023386;FPS Famous Pacific Shipping s.r.o.;000000-0257966150;0300
CZ28537521;0033915985;MERCANTA CE, a.s.;000000-0231835451;0300
CZ28644387;0000023387;SEO Linhart s.r.o.;000000-2600099787;2010
CZ29358540;0000023370;Carbonmax s.r.o;000000-0251818368;0300
CZ29367077;0000023399;MEPL Industry s.r.o.;CZ5806000000000207885491;
CZ29383161;0000023379;ExaSoft Holding a.s.;000043-9635090207;0100
CZ43226680;0000023394;NETEX, spol. s r.o.;000000-0000899087;0300
CZ43774156;0033915942;ADAX, spol. s r.o.;CZ3301000000515430740247;
CZ43774156;0033915942;ADAX, spol. s r.o.;000000-0572241141;0100
CZ44015844;0033915957;ENBRA, a.s.;000000-0692844641;0100
CZ45022534;0033916028;MONDI BUPAK s.r.o.;AT181910000048065000;
CZ45022534;0033916028;MONDI BUPAK s.r.o.;CZ4727000000002108454484;
CZ450311419;0033915788;Ing.Miloš Snášel   -  APCHEM;000000-0246742231;0100
CZ45356378;0033915430;Navijárna motorů HC & M, spol. s r.;000000-0007503321;0100
CZ45792186;0033915119;BIESTERFELD SILCOM s.r.o.;CZ1135000000001330411018;
CZ46683518;0000023410;M belt s.r.o.;000000-0571082329;0800
CZ46683844;0033915951;SEBEFORGE s.r.o.;000000-0041106231;0100
CZ46979794;0033915992;MAUTING spol. s r.o.;000000-0675827153;0300
CZ47472316;0000023438;ARKOV, spol. s r. o.;000000-0191440841;0300
CZ47676795;0033915472;AutoCont CZ a.s.;000000-0005209452;0800
CZ47676795;0033915472;AutoCont CZ a.s.;000000-0006563752;0800
CZ48400670;0033915941;KADLEC, spol. s r.o.;000000-0002250636;0300
CZ49286684;0000023464;JSP, s.r.o.;000000-0208605260;0600
CZ49702041;0000023389;Holiday Inn Prague Airport;000000-0164411738;0300
CZ520706307;0033915513;P+M elektro-nik;000000-0123591349;0800
CZ530518179;0000023413;Karel Pištěk-SOVTE;000000-0700099873;0300
CZ5406122348;0033915586;Ing. Bohumil Miler;000000-0424884399;0800
CZ5504292607;0000023367;Ing.Zdeněk Paseka;000051-5769640237;0100
CZ5612141084;0000023412;Rostislav Píbr;000000-0562134369;0800
CZ5651091028;0033915855;Agentura BOVA;000000-0084141061;0100
CZ5705142377;0033915690; Ing. Jiří Kučera;000000-0660136544;0600
CZ5858041365;0000023355;Dagmar Rotreklová;000000-2631839514;0600
CZ5957090029;0000023417;Ilona Rybová;670100-0022093667;6210
CZ6002120630;0000023424;Stanislav Mašek;000000-6127510267;0100
CZ60196203;0033915636;AKCENTOUR, a.s.;000043-3707330277;0100
CZ60700386;0033915559;OPIS Engineering  k. s.;000000-0259639399;0300
CZ60700386;0033915559;OPIS Engineering  k. s.;000000-2010128031;2700
CZ60826622;0000023422;Reality Spektrum Cepák s.r.o.;000000-0812018353;0300
CZ60827718;0000023446;Sběrné suroviny, a.s.;000000-0005308231;0100
CZ60827718;0000023446;Sběrné suroviny, a.s.;000000-0006023852;0800
CZ60827955;0033915921;SINFO, spol. s r.o.;000000-1100000950;5500
CZ60851864;0033915839;EDUCOCENTER Jiří Čapek s.r.o.;000107-3958240217;0100
CZ6103091984;0033820930;Ladislav Volek;000000-1808273399;0800
CZ6107011768;0033915421;Ing. Martin BÁRT;000000-0168327082;0300
CZ61465291;0000023409;KONSTRUKTIS DELTA, spol. s r.o.;000043-0082830277;0100
CZ62502891;0000023383;PROSTOR - desing s.r.o;000000-6604730001;5500
CZ62525204;0000023393;Hotel Růže;000000-0113321003;2700
CZ62583344;0033915831;Grafton Recruitment s.r.o.;CZ5181500000001484402050;
CZ62583344;0033915831;Grafton Recruitment s.r.o.;000000-1484403109;8150
CZ62583344;0033915831;Grafton Recruitment s.r.o.;000000-1484404005;8150
CZ62587811;0000023432;A.L.L.production s.r.o.;000000-0077886663;5500
CZ62956574;0000023402;AXOM KLADNO s.r.o.;000000-2196070287;0100
CZ63476886;0033916029;Dinel s r.o.;000000-0379950253;0300
CZ63488108;0033915765;POLYGLOT jazyková škola s.r.o.;000000-7200004737;8040
CZ6352250949;0000023400;Penzion Ganymed;000000-2200112276;2010
CZ63908824;0033915262;COREX CZECH s.r.o.;000000-0017626413;0300
CZ63979578;0000023373;FRACTAL s.r.o.;000000-0002942982;0800
CZ63994062;0033915671;Afriso spol. s r.o.;000000-1181097001;2700
CZ63996332;0033901057;Gamex CB s.r.o.;000000-2106875410;2700
CZ63996472;0000023404;KAESER KOMPRESSOREN s.r.o.;000000-0000010233;0300
CZ6409040858;0033915464;Libor Novák;000000-0561746339;0800
CZ64942503;0000023395;OFFICE DEPOT s.r.o.;000000-1057007849;5500
CZ65141849;0033912770;PEGA-VEL, a.s.;000000-4200088420;6800
CZ6706071064;0033915885;Petr Petr;000000-1052003638;5500
CZ6706071064;0033915885;Petr Petr;000000-8208694001;5500
CZ6801011767;0033915203;JOSEF POSUSTA;000000-0107894059;0300
CZ6804151310;0033914382;Milos Machacek;000000-0566418369;0800
CZ682003048;0000050617;GEA CFS Germany GmbH;000000-1000312105;3500
CZ682724396;0000050658;Ashland Industries Austria GmbH;000000-0002361027;18140
CZ6908070169;0000023443;Ing. Ondřej Hadraba;000000-2201150389;6210
CZ699000864;0000023416;Centrální depozitář cenných papírů,;000000-2109682657;2700
CZ699001648;0000023456;KAVALIERGLASS, a.s.;000000-0014504541;0100
CZ699002824;0033915700;Drůbežářský závod Klatovy, a.s.;000000-0011002351;0100
CZ7112071219;0000023396;Martin Frolík Zámečnictví;000000-0255877680;0300
CZ7405152766;0033820989;BACHURA MILAN;000000-2108675535;2700
CZ7455141463;0000023368;Milada Kovářová;000000-2577793083;0800
CZ7503121241;0000023372;Radek Šustr;000000-2070982379;0800
CZ7704021721;0033915901;Jan Slabihoudek;000000-0156414226;0600
CZ8110264327;0033915701;Jan Kozumplík;000000-1002097373;2700
CZ8402175386;0000023411;Agentura LIAN Tomáš Antoš;000000-0186698995;0300
CZ8902281454;0033915698;Lukáš Růžička;000000-0224167897;0300
