CZ28132408;0000020155;DELNET CZ s.r.o.;000000-0912054933;0300
CZ45308187;0000022900;TOYOTA MATERIAL HANDLING CZ s.r.o.;000000-2351207504;0300
CZ46346635;0000020355;BIBUS s. r. o.;000000-1124210004;0300
CZ49435388;0000023209;Bauhaus, k.s.;000000-1821790008;0300
CZ60826835;0000020117;Teplárna Ceské Budejovice, a.s.;000000-5004071001;0300
