CZ00011754;0000020102;Linde Gas a.s.;000502-0305466004;2700
CZ00028819;0000020998;SLUŽBA VD;000000-0074804503;0300
CZ00268577;0000020550;Siemens, s.r.o.;000000-1013384394;2700
CZ00510386;0000022411;DIATECH - PRAHA, spol. s r. o.;000019-6008230297;0100
CZ00538264;0000020258;SIDAT, spol.s r.o.;000000-0216026373;0300
CZ00564737;0000020157;FESTO, spol. s r. o.;CZ7779100000003053600206;
CZ01810111;0000023374;Marták Sped s.r.o.;000107-5097330227;0100
CZ02352991;0000023437;V-Grip s.r.o.;000000-0262135677;0300
CZ13497791;0000020420;HERBIA spol.s r.o.;000000-2813049329;0800
CZ13497863;0000021974;Kvalita - družstvo služeb;000000-2400069006;2010
CZ14499037;0000020272;TERMS a.s.;000000-2502230104;2600
CZ14502992;0000020069;Českobudějovické pozemní stavby, sp;000107-6518280227;0100
CZ15769615;0000020090;ELMOT v.o.s.;000000-0561767359;0800
CZ24289485;0000023221;Advanced AIRSEA Solutions, s.r.o.;000000-0251190179;0300
CZ24289485;0000023221;Advanced AIRSEA Solutions, s.r.o.;CZ8203000000000251531834;
CZ25122401;0000020617;TQ3 Travel Solutions Czech Republic;000000-0010551025;6200
CZ25163027;0000021305;Uniprojekta s.r.o.;000000-6083040207;0100
CZ25169068;0000022142;CSS spedition s.r.o.;000000-0001824722;0800
CZ25174738;0000022972;AB velkoobchod s.r.o.;000000-1709692061;2700
CZ25177656;0000020511;DELNET s.r.o.;000000-4200188579;6800
CZ25186973;0000021103;Sahan CB  s. r. o.;000000-0215668411;0300
CZ25347969;0000023460;LAB-MET s.r.o.;000000-1343335309;0800
CZ25357425;0000020631;FABORY-CZ,s.r.o.;000000-0017625963;0300
CZ25422952;0000021446;Peter Cremer Central Europe s.r.o.;CZ1062000062180011751731;
CZ25588044;0000020796;BMC BRNO, s.r.o.;CZ3306000000000155206599;
CZ25683446;0000020886;DHL Expres Czech Republic s.r.o.;000000-0523206008;2700
CZ25765647;0000022806;SPEED PRESS Plus a.s.;000000-0139430267;0100
CZ25820702;0000020902;MANUTAN-vybavení skladů,kancel.;000000-0050007323;6200
CZ26016451;0000020757;T-PROFI JČ, s.r.o.;000000-0156210231;0600
CZ26018012;0000021950;J+M PAVLÁT INTERNATIONAL S.R.O.;000000-0412794943;0300
CZ26021145;0000000005;Viscofan CZ s.r.o.;000000-0117171743;0300
CZ26024527;0033914794;VELIMPEX s.r.o. Dřevovýroba;CZ5155000000001012010286;
CZ26027691;0000021227;CRAVT  s.r.o.;000078-1290400217;0100
CZ26031868;0000021848;CB Auto a.s.;000000-2104176245;2700
CZ26032953;0000021188;LENZE, s. r. o.;000000-2000219036;2700
CZ26056321;0000023426;Altamire Č.Budějovice s.r.o.;000000-0163061887;0600
CZ26073013;0000021587;Daluku, s.r.o.;000000-9921000217;0100
CZ26076519;0000022080;MIF TRANS S.R.O.;000000-0573395329;0800
CZ26078201;0000020091;E.ON Energie, a.s.;010014-0001703621;0100
CZ26078201;0000020091;E.ON Energie, a.s.;008010-0512045843;0300
CZ26092336;0000022458;RM Chemicals spol. s r. o.;000000-0194942126;0300
CZ26092336;0000022458;RM Chemicals spol. s r. o.;000000-6686350001;5500
CZ26093839;0000023378;PS PATROL s.r.o.;000000-0572305379;0800
CZ26098261;0000022693;Ampara  s.r.o.;000000-2106470704;2700
CZ26108313;0000021995;KVALITA náhradní plnění s.r.o.;000000-2500068975;2010
CZ26111047;0000022750;TOOLS CB s.r.o.;000000-0253952149;0300
CZ26148544;0000020975;KWESTO s. r. o.;000000-3638600287;0100
CZ26311208;0033914578;PREOL , a.s.;CZ1001000000359752990247;
CZ26421470;0000022684;Chára Sport a.s.;000000-0081412399;0800
CZ26689537;0000021907;PolyOne ČR, s.r.o.;CZ4026000000002040480300;
CZ26945843;0000023089;N-tek s.r.o.;000000-4200040101;6800
CZ27067793;0000022633;EVERFIT hydraulika s.r.o.;000027-6610140227;0100
CZ27112039;0000021387;Tesa tape s.r.o.;000000-2042460207;2600
CZ27117171;0000022182;PEPPERL+FUCHS s.r.o.;000000-0010537354;6200
CZ27195031;0000022593;Essentra Components s.r.o.;000000-2044090107;2600
CZ27237851;0000022665;SOLUTECH BOHEMIA s.r.o.;000000-0253158770;0300
CZ27420761;0000022583;UNIVAR Czech s.r.o.;000000-1000450604;3500
CZ27518922;0000022756;TECH-LIT s.r.o.;000000-1091996329;0800
CZ27612180;0000023441;Keller & Kalmbach;000000-0512769008;2700
CZ27633870;0000023171;Techni Trade s.r.o.;000000-8900074888;2600
CZ27890201;0000022482;Yuncheng Plate-Making CZ, s.r.o.;CZ1508000000001773552223;
CZ28063601;0000022226;Pavel Fišer Šuptrans s.r.o.;000000-5002005633;5500
CZ28075811;0000020130;PALIČKA JIŘÍ ochranné pomůcky;000000-0232481800;0300
CZ28090683;0000020302;T&T etikety s.r.o.;000000-3729087001;5500
CZ28104056;0033914692;BALTRO s.r.o.;000000-0229491725;0300
CZ28104056;0033914692;BALTRO s.r.o.;000000-4015938374;7500
CZ28106504;0000023183;Petr Novotný s.r.o.;000043-4888840237;0100
CZ28132408;0000023026;DELNET CZ s.r.o.;000000-4200264607;6800
CZ28140923;0033914091;TOMAKO CZ s.r.o.;000107-4578920207;0100
CZ28159888;0000023269;ProVisTech s.r.o.;000000-7235340001;5500
CZ28289579;0000021257;PEKOM TRADE s.r.o;000000-2900223305;2010
CZ28569130;0000021498;Azurr-technology spol. s r.o.;CZ6806000000000193469365;
CZ28763661;0000022644;TAPEX EU s.r.o.;000000-0005506422;0800
CZ28763661;0000022644;TAPEX EU s.r.o.;CZ1808000000000005612612;
CZ28927125;0000022666;TECHNO-SERVICE CZ a.s.;000000-0534772339;0800
CZ29050821;0000022843;DVOŘÁK a spol., advokátní kancelář;000000-2136834329;0800
CZ29383161;0000023379;ExaSoft Holding a.s.;000043-9635090207;0100
CZ41032004;0000022502;Z+M servis, spol. s r.o;000000-0003269312;0800
CZ42324254;0000020119;OTIS a.s.;000000-0010804651;0100
CZ44004036;0000021987;INVOS, spol. s r.o.;000000-0002108082;0800
CZ44265077;0000021328;A.T.A. technik spol. s r.o.;000000-1099541011;0100
CZ45272441;0000021035;Blue Panther s.r.o.;000000-5001246005;2600
CZ45787115;0000021601;KÜHNE+NAGEL spol.s.r.o.;000000-1233664101;2700
CZ45794707;0000022887;ARAMARK s.r.o.;000000-0300865153;0300
CZ46346635;0000020355;BIBUS s. r. o.;000000-0003949203;0300
CZ46678344;0000020161;TECHMAT, a.s.;000000-0219586659;0300
CZ46901876;0000021239;TART, s. r. o.;000000-0000135415;0300
CZ47123591;0000020100;JUNGHEINRICH  (ČR) s.r.o.;000000-1137782001;2700
CZ47239042;0000020546;STEINBAUER LECHNER spol. s r.o.;000000-0045000231;0100
CZ47667010;0000021847;LORIKA   CZ s.r.o.;000027-4182250227;0100
CZ47906839;0000021021;Datascan, s. r. o.;000000-1004006324;5500
CZ47917091;0000021690;FLAGA s.r.o.;000019-1902510207;0100
CZ48111198;0000021577;ACTIVA spol. s r.o.;000000-0500032893;0300
CZ48117820;0000021372;IMPROMAT CZ spol. s r. o.;000000-0013149111;0100
CZ48204641;0000020095;INKOMO spol. s r.o.;000000-0025204544;0600
CZ48399272;0000021420;GWSystém spol.sr.o.;000000-0153277991;0300
CZ48536741;0000020646;SIPOR s.r.o.;000000-0088209051;0100
CZ49023098;0000021773;RUMPOLD 01-VODŇANY s.r.o.;000000-0031067005;2700
CZ49437330;0000020268;Reca spol. s r.o.;000000-2025565031;2700
CZ49613464;0000020176;BRENNTAG CR s.r.o.;000000-1001044253;5500
CZ49614932;0000020253;Atlas Copco  s.r.o.;000000-3142900024;7910
CZ49966065;0000020364;PROFIPRINT spol. s r.o.;000000-0372585273;0300
CZ49975366;0000021820;Gumex s.r.o.;000000-0673670113;0300
CZ520527217;0000021112;Bohumil Doležal;000000-0199448231;0100
CZ531230279;0000020608;ŽUŽO-LIDO Zdeněk Candra;000000-0132067063;0300
CZ5608031033;0000020159;OBZOR Rudolf Šimůnek;000000-0562535349;0800
CZ5705201997;0000020860;MUSÍLEK MILOSLAV kovoobrábění;000000-0661710309;0800
CZ5808031570;0000023188;Jiří Hemmel   J.H.Instal;000000-0168461070;0600
CZ5909180673;0000022545;Hanex - Josef Hájek;000000-0711663329;0800
CZ60069856;0000023348;Jatky Hradský s.r.o.;000000-0680031379;0800
CZ60192755;0000020347;ČEDOK  a. s.;000000-1800062263;0300
CZ60837152;0000021251;CORAX spol.s r.o.;000000-1002182535;2700
CZ60837152;0000021251;CORAX spol.s r.o.;CZ3427000000002106232642;
CZ60837152;0000021251;CORAX spol.s r.o.;CZ4668000000001200037996;
CZ60837152;0000021251;CORAX spol.s r.o.;CZ1968000000001200052838;
CZ60837152;0000021251;CORAX spol.s r.o.;000000-4200300305;6800
CZ60851708;0000021565;SPH Elektro s.r.o.;000000-0003441944;0300
CZ61503657;0000020228;FIMEX, spol. s  r. o.;CZ1727000000005161878060;
CZ61947024;0000020241;Haberkorn Ulmer  s.r.o.;000000-0101910708;0300
CZ62909070;0000020230;SMC Industrial Automation  CZ s.r.o;000000-0046690000;2700
CZ62910370;0000020335;NOVATO spol. s r.o.;000019-3950090277;0100
CZ6360021954;0000020052;Ivana Týmalová TYKO;000000-0912121323;0300
CZ63908824;0033915262;Corex Czech s.r.o.;000000-0017626413;0300
CZ63984211;0000021399;ASCO JOUCOMATIC  s.r.o.;000000-3139400002;7910
CZ63996332;0000000009;GAMEX;000000-2106875410;2700
CZ6403252108;0000020851;FRANTIŠEK HLÍZA;000000-0104782377;0300
CZ6502082191;0000020225;Pavlíček František;000000-0563587319;0800
CZ6712031161;0000020352;T.Brůha  ELEKTRONICKÝ SERVIS;000000-0074829233;0300
CZ6808190312;0000021168;EMK ELEKTRO;000000-0012129143;0300
CZ699000232;0000020254;HYDRO-FLEX-ZBA s.r.o.;000000-8258260287;0100
CZ699001648;0000023456;KAVALIERGLASS, a.s.;000000-0014504541;0100
CZ699001996;0000020101;KPMG Česká republika s.r.o.;000000-0002518612;0800
CZ7302051218;0000020918;Kolář Martin;000000-2400071130;2010
CZ7302051218;0000020918;Kolář Martin;SK1283300000002200071136;
CZ7407303079;0000023219;Doc.JUDr.Petr Hůrka, Ph.D.;000000-0154816643;0600
CZ7802231239;0000022163;KOHOUT LUKÁŠ;000000-0182588406;0600
